%YAML 1.1
%TAG !u! tag:unity3d.com,2011:
--- !u!114 &11400000
MonoBehaviour:
  m_ObjectHideFlags: 0
  m_CorrespondingSourceObject: {fileID: 0}
  m_PrefabInternal: {fileID: 0}
  m_GameObject: {fileID: 0}
  m_Enabled: 1
  m_EditorHideFlags: 0
  m_Script: {fileID: 11500000, guid: 13bd8e0bc92b296469f51237b0538185, type: 3}
  m_Name: Gr05_Ch01_Level11
  m_EditorClassIdentifier: 
  _goals:
  - {fileID: 114398118253926952}
  - {fileID: 114583996565536418}
  _limitations:
  - {fileID: 114931415607387350}
  _scene:
    _path: Scenes/Levels/EndlessGrind/Group_05/Group05_Chain01/Gr05_Ch01_Level11
    _guid: 8941d7c581f095844941a06d028ab002
  _difficulty: {fileID: 11400000, guid: bea5e69a1c1c70743bf3ea762362682c, type: 2}
  _magicHatMaxCharge: 11
  _moneyRewardCount: 50
  _mainRewardType: {fileID: 11400000, guid: d520af06424e8e643987a46b13b68bc0, type: 2}
  _mainRewardAmount: 1
  _tipBooster: {fileID: 0}
  _randomSeeds: 
--- !u!114 &114398118253926952
MonoBehaviour:
  m_ObjectHideFlags: 0
  m_CorrespondingSourceObject: {fileID: 0}
  m_PrefabInternal: {fileID: 0}
  m_GameObject: {fileID: 0}
  m_Enabled: 1
  m_EditorHideFlags: 0
  m_Script: {fileID: 11500000, guid: 05845208fa8904e4a9de14375580d7cf, type: 3}
  m_Name: ChipCleanupRequirement
  m_EditorClassIdentifier: 
  _defaultHelperPrefab: {fileID: 114908762585976232, guid: 977331993740c2f47b631df71a660dba,
    type: 2}
  _requiredCount: 30
  _requiredChip: {fileID: 11400000, guid: 12e67ef214e3f954e9e0fdcfc2c0328c, type: 2}
--- !u!114 &114583996565536418
MonoBehaviour:
  m_ObjectHideFlags: 0
  m_CorrespondingSourceObject: {fileID: 0}
  m_PrefabInternal: {fileID: 0}
  m_GameObject: {fileID: 0}
  m_Enabled: 1
  m_EditorHideFlags: 0
  m_Script: {fileID: 11500000, guid: 2043f6c4012e46e889902f32abac4d29, type: 3}
  m_Name: HiddenObjectRequirement
  m_EditorClassIdentifier: 
  _defaultHelperPrefab: {fileID: 114726090499463560, guid: 4672ec075fb52fd4ca64544e30d8e31f,
    type: 2}
  _requiredCount: 12
--- !u!114 &114690777869981392
MonoBehaviour:
  m_ObjectHideFlags: 0
  m_CorrespondingSourceObject: {fileID: 0}
  m_PrefabInternal: {fileID: 0}
  m_GameObject: {fileID: 0}
  m_Enabled: 1
  m_EditorHideFlags: 0
  m_Script: {fileID: 11500000, guid: 2043f6c4012e46e889902f32abac4d29, type: 3}
  m_Name: HiddenObjectRequirement
  m_EditorClassIdentifier: 
  _defaultHelperPrefab: {fileID: 114726090499463560, guid: 4672ec075fb52fd4ca64544e30d8e31f,
    type: 2}
  _requiredCount: 0
--- !u!114 &114931415607387350
MonoBehaviour:
  m_ObjectHideFlags: 0
  m_CorrespondingSourceObject: {fileID: 0}
  m_PrefabInternal: {fileID: 0}
  m_GameObject: {fileID: 0}
  m_Enabled: 1
  m_EditorHideFlags: 0
  m_Script: {fileID: 11500000, guid: 0c557914ab6b44ef8d91caeb41b26470, type: 3}
  m_Name: MovesRequirement
  m_EditorClassIdentifier: 
  _defaultHelperPrefab: {fileID: 0}
  _requiredTurns: 38
  _rewardBonusPrice: 1
