%YAML 1.1
%TAG !u! tag:unity3d.com,2011:
--- !u!114 &11400000
MonoBehaviour:
  m_ObjectHideFlags: 0
  m_CorrespondingSourceObject: {fileID: 0}
  m_PrefabInternal: {fileID: 0}
  m_GameObject: {fileID: 0}
  m_Enabled: 1
  m_EditorHideFlags: 0
  m_Script: {fileID: 11500000, guid: 717b678391e53a14d88d1e1de7af379d, type: 3}
  m_Name: BankConfig
  m_EditorClassIdentifier: 
  _allProducts:
  - {fileID: 11400000, guid: cb1dd60b651bfe94ca932cc7175e5c88, type: 2}
  - {fileID: 11400000, guid: 67435e0e70e31cb45ac7c788cb9472b0, type: 2}
  - {fileID: 11400000, guid: 24cc0adf7b30e1149af960a07cdfabe7, type: 2}
  - {fileID: 11400000, guid: 43602ad034cfa7c409c4b2a480d07723, type: 2}
  - {fileID: 11400000, guid: a324110a42293194f92d28db47596476, type: 2}
  - {fileID: 11400000, guid: d29505beaf767cd49bb24c9505a609da, type: 2}
  - {fileID: 11400000, guid: f8e12326a10e2ac49a16fb2770eaf2b6, type: 2}
  - {fileID: 11400000, guid: 919c61a4279624f488dcbabe8227bb08, type: 2}
  - {fileID: 11400000, guid: 2a10ef4c7184bbb4e8041a065d2ab019, type: 2}
  - {fileID: 11400000, guid: aebf25a14167dac439bc5c9216287127, type: 2}
  - {fileID: 11400000, guid: a89050c56a23b82409e8d36d75f9d0a3, type: 2}
  - {fileID: 11400000, guid: dcc905fefd3dc4e4b8e8c0623f2ac542, type: 2}
  _defaultProducts:
  - {fileID: 11400000, guid: cb1dd60b651bfe94ca932cc7175e5c88, type: 2}
  - {fileID: 11400000, guid: 67435e0e70e31cb45ac7c788cb9472b0, type: 2}
  - {fileID: 11400000, guid: 24cc0adf7b30e1149af960a07cdfabe7, type: 2}
  - {fileID: 11400000, guid: f8e12326a10e2ac49a16fb2770eaf2b6, type: 2}
  - {fileID: 11400000, guid: 919c61a4279624f488dcbabe8227bb08, type: 2}
  _bestValuePack: {fileID: 11400000, guid: dcc905fefd3dc4e4b8e8c0623f2ac542, type: 2}
  _mostPopularPack: {fileID: 11400000, guid: aebf25a14167dac439bc5c9216287127, type: 2}
