%YAML 1.1
%TAG !u! tag:unity3d.com,2011:
--- !u!114 &11400000
MonoBehaviour:
  m_ObjectHideFlags: 0
  m_CorrespondingSourceObject: {fileID: 0}
  m_PrefabInternal: {fileID: 0}
  m_GameObject: {fileID: 0}
  m_Enabled: 1
  m_EditorHideFlags: 0
  m_Script: {fileID: 11500000, guid: f0e2567d6af941c59b5acdc7fee11e1c, type: 3}
  m_Name: MoneyTier_04
  m_EditorClassIdentifier: 
  _name: 
  _description: 
  _icon: {fileID: 21300000, guid: 6a69c8dae0fb58e4daf596462a41e703, type: 3}
  _rewards:
  - {fileID: 114038990317887458}
  _price: {fileID: 114554181734765972}
  _purchaseId: sack_of_coins
  _purchaseType: bank
  _isSpecialOffer: 0
--- !u!114 &114038990317887458
MonoBehaviour:
  m_ObjectHideFlags: 0
  m_CorrespondingSourceObject: {fileID: 0}
  m_PrefabInternal: {fileID: 0}
  m_GameObject: {fileID: 0}
  m_Enabled: 1
  m_EditorHideFlags: 0
  m_Script: {fileID: 11500000, guid: c1d01ebc5c4548d8b1bd498fac836e52, type: 3}
  m_Name: CountedItemReward
  m_EditorClassIdentifier: 
  _item: {fileID: 11400000, guid: 1c55426c5e665cb478ca6dc0d13a2c55, type: 2}
  _count: 18000
--- !u!114 &114554181734765972
MonoBehaviour:
  m_ObjectHideFlags: 0
  m_CorrespondingSourceObject: {fileID: 0}
  m_PrefabInternal: {fileID: 0}
  m_GameObject: {fileID: 0}
  m_Enabled: 1
  m_EditorHideFlags: 0
  m_Script: {fileID: 11500000, guid: 6c3013c71af34645a51c582a76271b35, type: 3}
  m_Name: InAppPurchasePrice
  m_EditorClassIdentifier: 
  _id: com.dteamstudio.funstory.tier04
  _storeIds:
    _serializedKeys: 00000000
    _serializedValues:
    - com.dteamstudio.funstory.tier04
