%YAML 1.1
%TAG !u! tag:unity3d.com,2011:
--- !u!221 &22100000
AnimatorOverrideController:
  m_ObjectHideFlags: 0
  m_CorrespondingSourceObject: {fileID: 0}
  m_PrefabInternal: {fileID: 0}
  m_Name: AppearanceControllerLeft
  m_Controller: {fileID: 9100000, guid: e9fafe43c9b0a774793431f1ce98b03c, type: 2}
  m_Clips:
  - m_OriginalClip: {fileID: 7400000, guid: ea7f05f848261d049aac49138765aa3b, type: 2}
    m_OverrideClip: {fileID: 7400000, guid: d76699007c39ba44da07febdf08d6e45, type: 2}
  - m_OriginalClip: {fileID: 7400000, guid: da1579e5056d9d44a872e68be9a7785e, type: 2}
    m_OverrideClip: {fileID: 7400000, guid: eb7ba0567c3f67746bc7698db40ba478, type: 2}
  - m_OriginalClip: {fileID: 7400000, guid: 167f80cdcafa32948a3bab0b98e7a14f, type: 2}
    m_OverrideClip: {fileID: 7400000, guid: 0ad77d5d3f3c4ad4b820c910da9b3ef7, type: 2}
  - m_OriginalClip: {fileID: 7400000, guid: 38e3237f06421df479826d81d699586b, type: 2}
    m_OverrideClip: {fileID: 7400000, guid: 20256ef52f262f8428ae10b9a33c352b, type: 2}
