%YAML 1.1
%TAG !u! tag:unity3d.com,2011:
--- !u!114 &11400000
MonoBehaviour:
  m_ObjectHideFlags: 0
  m_CorrespondingSourceObject: {fileID: 0}
  m_PrefabInternal: {fileID: 0}
  m_GameObject: {fileID: 0}
  m_Enabled: 1
  m_EditorHideFlags: 0
  m_Script: {fileID: 11500000, guid: 6f2c8111339cc7a4dac3064365699952, type: 3}
  m_Name: TL_TR_BR_BL
  m_EditorClassIdentifier: 
  _cornerType: -1
  _defaultSprite: {fileID: 21300000, guid: a9a51048bc3fc56419923b7002035303, type: 3}
  _additionalSprites:
  - {fileID: 21300000, guid: 4d3af719f5c0548489e31a3b913ec8c3, type: 3}
  - {fileID: 21300000, guid: b624fc9326f3b324384bcaf8df3da8e0, type: 3}
