%YAML 1.1
%TAG !u! tag:unity3d.com,2011:
--- !u!1001 &100100000
Prefab:
  m_ObjectHideFlags: 1
  serializedVersion: 2
  m_Modification:
    m_TransformParent: {fileID: 0}
    m_Modifications: []
    m_RemovedComponents: []
  m_SourcePrefab: {fileID: 0}
  m_RootGameObject: {fileID: 1514474409377030}
  m_IsPrefabAsset: 1
--- !u!1 &1514474409377030
GameObject:
  m_ObjectHideFlags: 0
  m_CorrespondingSourceObject: {fileID: 0}
  m_PrefabInternal: {fileID: 100100000}
  serializedVersion: 6
  m_Component:
  - component: {fileID: 4477221518283230}
  - component: {fileID: 114385099769370696}
  m_Layer: 0
  m_Name: FortuneWheelSystem
  m_TagString: Untagged
  m_Icon: {fileID: 0}
  m_NavMeshLayer: 0
  m_StaticEditorFlags: 0
  m_IsActive: 1
--- !u!4 &4477221518283230
Transform:
  m_ObjectHideFlags: 1
  m_CorrespondingSourceObject: {fileID: 0}
  m_PrefabInternal: {fileID: 100100000}
  m_GameObject: {fileID: 1514474409377030}
  m_LocalRotation: {x: 0, y: 0, z: 0, w: 1}
  m_LocalPosition: {x: 0, y: 0, z: 0}
  m_LocalScale: {x: 1, y: 1, z: 1}
  m_Children: []
  m_Father: {fileID: 0}
  m_RootOrder: 0
  m_LocalEulerAnglesHint: {x: 0, y: 0, z: 0}
--- !u!114 &114385099769370696
MonoBehaviour:
  m_ObjectHideFlags: 1
  m_CorrespondingSourceObject: {fileID: 0}
  m_PrefabInternal: {fileID: 100100000}
  m_GameObject: {fileID: 1514474409377030}
  m_Enabled: 1
  m_EditorHideFlags: 0
  m_Script: {fileID: 11500000, guid: 3820163a5a8e1a941af054d2fb7e4ab4, type: 3}
  m_Name: 
  m_EditorClassIdentifier: 
  _wheelUnlockLevelIndex: 20
  _fortuneWheelLockMode: {fileID: 11400000, guid: 0da8ce7e612f9474481ef4130c8ec0f4,
    type: 2}
  _initialReward: {fileID: 11400000, guid: 1143135cda919054d9c830c555da09d8, type: 2}
  _itemsWeightBased:
  - {fileID: 11400000, guid: 1143135cda919054d9c830c555da09d8, type: 2}
  - {fileID: 11400000, guid: 2b53416078d35ec4f9609ad4bc7a1157, type: 2}
  - {fileID: 11400000, guid: 3633f0bf044fa56479b3239766490609, type: 2}
  - {fileID: 11400000, guid: 6c72a7fecb3ee9e44843f125e4466821, type: 2}
  - {fileID: 11400000, guid: 1c2e07c571c20854b9f6edd9e95d556e, type: 2}
  - {fileID: 11400000, guid: 1053eb6a2b829794ca9b8a192676d6f5, type: 2}
  - {fileID: 11400000, guid: b9fe9b29df605d04bbc4f2f5186de074, type: 2}
  _itemsCountBased:
  - {fileID: 11400000, guid: da6ae806c73c0964aa9a135ca568afbe, type: 2}
  _notifications:
  - Schedule:
      _ticks: 324000000000
    TitleKey: NOTIFICATION_RETENTION_TITLE
    MessageKey: NOTIFICATION_FORTUNE_WHEEL
    SoundName: 
  - Schedule:
      _ticks: 1188000000000
    TitleKey: NOTIFICATION_RETENTION_TITLE
    MessageKey: NOTIFICATION_FORTUNE_WHEEL
    SoundName: 
