%YAML 1.1
%TAG !u! tag:unity3d.com,2011:
--- !u!114 &11400000
MonoBehaviour:
  m_ObjectHideFlags: 0
  m_CorrespondingSourceObject: {fileID: 0}
  m_PrefabInternal: {fileID: 0}
  m_GameObject: {fileID: 0}
  m_Enabled: 1
  m_EditorHideFlags: 0
  m_Script: {fileID: 11500000, guid: 6f2c8111339cc7a4dac3064365699952, type: 3}
  m_Name: TL_TR_BR
  m_EditorClassIdentifier: 
  _cornerType: 7
  _defaultSprite: {fileID: 21300000, guid: 4c5358a7b29dcea4aaa25ccc411181c2, type: 3}
  _additionalSprites: []
