%YAML 1.1
%TAG !u! tag:unity3d.com,2011:
--- !u!114 &11400000
MonoBehaviour:
  m_ObjectHideFlags: 0
  m_CorrespondingSourceObject: {fileID: 0}
  m_PrefabInternal: {fileID: 0}
  m_GameObject: {fileID: 0}
  m_Enabled: 1
  m_EditorHideFlags: 0
  m_Script: {fileID: 11500000, guid: c1d01ebc5c4548d8b1bd498fac836e52, type: 3}
  m_Name: AdsCoins35
  m_EditorClassIdentifier: 
  _item: {fileID: 11400000, guid: 1c55426c5e665cb478ca6dc0d13a2c55, type: 2}
  _count: 35
