%YAML 1.1
%TAG !u! tag:unity3d.com,2011:
--- !u!1001 &100100000
Prefab:
  m_ObjectHideFlags: 1
  serializedVersion: 2
  m_Modification:
    m_TransformParent: {fileID: 0}
    m_Modifications: []
    m_RemovedComponents: []
  m_SourcePrefab: {fileID: 0}
  m_RootGameObject: {fileID: 1907257860935730}
  m_IsPrefabAsset: 1
--- !u!1 &1907257860935730
GameObject:
  m_ObjectHideFlags: 0
  m_CorrespondingSourceObject: {fileID: 0}
  m_PrefabInternal: {fileID: 100100000}
  serializedVersion: 6
  m_Component:
  - component: {fileID: 4298205660567522}
  - component: {fileID: 114906742073713102}
  m_Layer: 0
  m_Name: LevelFailureHandler
  m_TagString: Untagged
  m_Icon: {fileID: 0}
  m_NavMeshLayer: 0
  m_StaticEditorFlags: 0
  m_IsActive: 1
--- !u!4 &4298205660567522
Transform:
  m_ObjectHideFlags: 1
  m_CorrespondingSourceObject: {fileID: 0}
  m_PrefabInternal: {fileID: 100100000}
  m_GameObject: {fileID: 1907257860935730}
  m_LocalRotation: {x: -0, y: -0, z: -0, w: 1}
  m_LocalPosition: {x: 0, y: 0, z: 0}
  m_LocalScale: {x: 1, y: 1, z: 1}
  m_Children: []
  m_Father: {fileID: 0}
  m_RootOrder: 0
  m_LocalEulerAnglesHint: {x: 0, y: 0, z: 0}
--- !u!114 &114906742073713102
MonoBehaviour:
  m_ObjectHideFlags: 1
  m_CorrespondingSourceObject: {fileID: 0}
  m_PrefabInternal: {fileID: 100100000}
  m_GameObject: {fileID: 1907257860935730}
  m_Enabled: 1
  m_EditorHideFlags: 0
  m_Script: {fileID: 11500000, guid: a2713bc5922ddb24080f19ec3c5f52b3, type: 3}
  m_Name: 
  m_EditorClassIdentifier: 
  _outOfMovesPopupScene:
    _path: Scenes/Popups/OutOfMovesPopup
    _guid: 3d5cb8628715f844ebc5b006a651ec2b
  _outOfMovesOffers: {fileID: 11400000, guid: ce5cc99a7759d1140835bdb4afdf2363, type: 2}
  _debriefingPopup:
    _path: Scenes/Popups/MissionDebriefingPopup
    _guid: 675e4f31479d49f49a5db5d6b071bcaf
  _boosterTipPopup:
    _path: Scenes/Popups/BoosterTipPopup
    _guid: 8d255a6cf1839bf43a38524c99d7c46c
  _failurePrice: {fileID: 11400000, guid: a391b572d6fe20f4fbf365b363c49425, type: 2}
