%YAML 1.1
%TAG !u! tag:unity3d.com,2011:
--- !u!1001 &100100000
Prefab:
  m_ObjectHideFlags: 1
  serializedVersion: 2
  m_Modification:
    m_TransformParent: {fileID: 0}
    m_Modifications: []
    m_RemovedComponents: []
  m_SourcePrefab: {fileID: 0}
  m_RootGameObject: {fileID: 1357047209535502}
  m_IsPrefabAsset: 1
--- !u!1 &1357047209535502
GameObject:
  m_ObjectHideFlags: 0
  m_CorrespondingSourceObject: {fileID: 0}
  m_PrefabInternal: {fileID: 100100000}
  serializedVersion: 6
  m_Component:
  - component: {fileID: 4440122370119880}
  - component: {fileID: 114225975691617684}
  m_Layer: 0
  m_Name: SpreadingSystem
  m_TagString: Untagged
  m_Icon: {fileID: 0}
  m_NavMeshLayer: 0
  m_StaticEditorFlags: 0
  m_IsActive: 1
--- !u!4 &4440122370119880
Transform:
  m_ObjectHideFlags: 1
  m_CorrespondingSourceObject: {fileID: 0}
  m_PrefabInternal: {fileID: 100100000}
  m_GameObject: {fileID: 1357047209535502}
  m_LocalRotation: {x: 0, y: 0, z: 0, w: 1}
  m_LocalPosition: {x: 0, y: 0, z: 0}
  m_LocalScale: {x: 1, y: 1, z: 1}
  m_Children: []
  m_Father: {fileID: 0}
  m_RootOrder: 0
  m_LocalEulerAnglesHint: {x: 0, y: 0, z: 0}
--- !u!114 &114225975691617684
MonoBehaviour:
  m_ObjectHideFlags: 1
  m_CorrespondingSourceObject: {fileID: 0}
  m_PrefabInternal: {fileID: 100100000}
  m_GameObject: {fileID: 1357047209535502}
  m_Enabled: 1
  m_EditorHideFlags: 0
  m_Script: {fileID: 11500000, guid: 22eb2580e6324b97a40f63a71287fbf5, type: 3}
  m_Name: 
  m_EditorClassIdentifier: 
  _prefabToSpread: {fileID: 114095807209417656, guid: 3170a19d630b4c54c9100832a3359783,
    type: 2}
  _targetTags:
    _chipTags:
    - {fileID: 11400000, guid: 9ec1b6d8c00d34471aa9995e3d74cf77, type: 2}
  _prioritizedTargetTags:
    _chipTags:
    - {fileID: 11400000, guid: dafa016e3850653429fc081990e4efa5, type: 2}
  _spreadingRadius: 1
