%YAML 1.1
%TAG !u! tag:unity3d.com,2011:
--- !u!114 &11400000
MonoBehaviour:
  m_ObjectHideFlags: 0
  m_CorrespondingSourceObject: {fileID: 0}
  m_PrefabInternal: {fileID: 0}
  m_GameObject: {fileID: 0}
  m_Enabled: 1
  m_EditorHideFlags: 0
  m_Script: {fileID: 11500000, guid: b2079859068dfcc47983f590272a4ed5, type: 3}
  m_Name: Tablet_Mini3
  m_EditorClassIdentifier: 
  _type: 1
  _width: 2048
  _height: 1536
  _dpi: 326
  _safeArea: {fileID: 0}
