%YAML 1.1
%TAG !u! tag:unity3d.com,2011:
--- !u!114 &11400000
MonoBehaviour:
  m_ObjectHideFlags: 0
  m_CorrespondingSourceObject: {fileID: 0}
  m_PrefabInternal: {fileID: 0}
  m_GameObject: {fileID: 0}
  m_Enabled: 1
  m_EditorHideFlags: 0
  m_Script: {fileID: 11500000, guid: 7ea6b94a3f7f49b9b553d278a7f508d1, type: 3}
  m_Name: Sue
  m_EditorClassIdentifier: 
  _name: CHARACTER_SUE
  _skeletonDataAsset: {fileID: 11400000, guid: c91eeddfeaac45249905159736a81c54, type: 2}
  _defaultSide: 1
  _photo: {fileID: 21300000, guid: 96b83f0c735d83046a9c53b84162e136, type: 3}
  _description: INTRO_SUE
  _bubbleBoneName: Bubble
  _dialogIdleAnimationName: idle
