%YAML 1.1
%TAG !u! tag:unity3d.com,2011:
--- !u!114 &11400000
MonoBehaviour:
  m_ObjectHideFlags: 0
  m_CorrespondingSourceObject: {fileID: 0}
  m_PrefabInternal: {fileID: 0}
  m_GameObject: {fileID: 0}
  m_Enabled: 1
  m_EditorHideFlags: 0
  m_Script: {fileID: 11500000, guid: c007d44a18559bf49bd686fb876ba84a, type: 3}
  m_Name: Chest_08
  m_EditorClassIdentifier: 
  _name: Chest 8
  _productPack: {fileID: 11400000, guid: 55498127f798372478c807ff81d0c478, type: 2}
  _skeletonData: {fileID: 11400000, guid: 3601b47300381ab4da6503fc6dc1cf04, type: 2}
  _skin: chest_08
