%YAML 1.1
%TAG !u! tag:unity3d.com,2011:
--- !u!114 &11400000
MonoBehaviour:
  m_ObjectHideFlags: 0
  m_CorrespondingSourceObject: {fileID: 0}
  m_PrefabInternal: {fileID: 0}
  m_GameObject: {fileID: 0}
  m_Enabled: 1
  m_EditorHideFlags: 0
  m_Script: {fileID: 11500000, guid: 9c570bbe21de9ee429b6b66621eaa7a1, type: 3}
  m_Name: Level_01_Letter
  m_EditorClassIdentifier: 
  _sender: {fileID: 11400000, guid: 17507f957674dfe4d96bddbe1e1aaa04, type: 2}
  _rewards:
  - {fileID: 11400000, guid: 6dce445f17b6e2448a16e17c10797a16, type: 2}
  _popupScene:
    _path: Scenes/Popups/RewardLetters/RewardLetterSamplePopup
    _guid: 4494e3fdeafd9c84991752c4cffdd744
