
jar.png
size: 189,138
format: RGBA8888
filter: Linear,Linear
repeat: none
Jam_texture_06
  rotate: false
  xy: 134, 42
  size: 40, 37
  orig: 40, 37
  offset: 0, 0
  index: -1
jar
  rotate: false
  xy: 4, 22
  size: 126, 112
  orig: 126, 112
  offset: 0, 0
  index: -1
jar_light
  rotate: false
  xy: 4, 4
  size: 80, 14
  orig: 80, 14
  offset: 0, 0
  index: -1
light
  rotate: false
  xy: 134, 7
  size: 44, 31
  orig: 44, 31
  offset: 0, 0
  index: -1
light_02
  rotate: false
  xy: 134, 83
  size: 51, 51
  orig: 51, 51
  offset: 0, 0
  index: -1
