%YAML 1.1
%TAG !u! tag:unity3d.com,2011:
--- !u!114 &11400000
MonoBehaviour:
  m_ObjectHideFlags: 0
  m_CorrespondingSourceObject: {fileID: 0}
  m_PrefabInternal: {fileID: 0}
  m_GameObject: {fileID: 0}
  m_Enabled: 1
  m_EditorHideFlags: 0
  m_Script: {fileID: 11500000, guid: cecb7a8d22312f345a1b3049b7983591, type: 3}
  m_Name: SandChipSettings
  m_EditorClassIdentifier: 
  _canBeSwapped: 0
  _canBeShuffled: 0
  _canFall: 1
  _impactFlags: 3741
  _baseMoveWeight: 1
  _requiredMoveWeight: 1000
  _helper: {fileID: 0}
  _chipTagSet:
    _chipTags:
    - {fileID: 11400000, guid: 438715d4693d374448ab8fd27225b1ca, type: 2}
