%YAML 1.1
%TAG !u! tag:unity3d.com,2011:
--- !u!114 &11400000
MonoBehaviour:
  m_ObjectHideFlags: 0
  m_CorrespondingSourceObject: {fileID: 0}
  m_PrefabInternal: {fileID: 0}
  m_GameObject: {fileID: 0}
  m_Enabled: 1
  m_EditorHideFlags: 0
  m_Script: {fileID: 11500000, guid: 13bd8e0bc92b296469f51237b0538185, type: 3}
  m_Name: Gr03_Ch04_Level15
  m_EditorClassIdentifier: 
  _goals:
  - {fileID: 114254362616641144}
  _limitations:
  - {fileID: 114403633368222344}
  _scene:
    _path: Scenes/Levels/EndlessGrind/Group_03/Group03_Chain04/Gr03_Ch04_Level15
    _guid: 2fc651f0966d75b46a2c79f11827b66c
  _difficulty: {fileID: 11400000, guid: bea5e69a1c1c70743bf3ea762362682c, type: 2}
  _magicHatMaxCharge: 11
  _moneyRewardCount: 50
  _mainRewardType: {fileID: 11400000, guid: d520af06424e8e643987a46b13b68bc0, type: 2}
  _mainRewardAmount: 1
  _tipBooster: {fileID: 0}
  _randomSeeds: 
--- !u!114 &114254362616641144
MonoBehaviour:
  m_ObjectHideFlags: 0
  m_CorrespondingSourceObject: {fileID: 0}
  m_PrefabInternal: {fileID: 0}
  m_GameObject: {fileID: 0}
  m_Enabled: 1
  m_EditorHideFlags: 0
  m_Script: {fileID: 11500000, guid: 2043f6c4012e46e889902f32abac4d29, type: 3}
  m_Name: HiddenObjectRequirement
  m_EditorClassIdentifier: 
  _defaultHelperPrefab: {fileID: 114726090499463560, guid: 4672ec075fb52fd4ca64544e30d8e31f,
    type: 2}
  _requiredCount: 5
--- !u!114 &114403633368222344
MonoBehaviour:
  m_ObjectHideFlags: 0
  m_CorrespondingSourceObject: {fileID: 0}
  m_PrefabInternal: {fileID: 0}
  m_GameObject: {fileID: 0}
  m_Enabled: 1
  m_EditorHideFlags: 0
  m_Script: {fileID: 11500000, guid: 0c557914ab6b44ef8d91caeb41b26470, type: 3}
  m_Name: MovesRequirement
  m_EditorClassIdentifier: 
  _defaultHelperPrefab: {fileID: 0}
  _requiredTurns: 31
  _rewardBonusPrice: 1
