%YAML 1.1
%TAG !u! tag:unity3d.com,2011:
--- !u!114 &11400000
MonoBehaviour:
  m_ObjectHideFlags: 0
  m_CorrespondingSourceObject: {fileID: 0}
  m_PrefabInternal: {fileID: 0}
  m_GameObject: {fileID: 0}
  m_Enabled: 1
  m_EditorHideFlags: 0
  m_Script: {fileID: 11500000, guid: 317a0f88c0c747f78a0c56a4ec429c24, type: 3}
  m_Name: Clothes
  m_EditorClassIdentifier: 
  _defaultItem: {fileID: 11400000, guid: aa31aee104b36224386ded5f20be20fc, type: 2}
  _clothingModelsSlots:
  - {fileID: 11400000, guid: da3422d411027d04cbfee1c0f20c7d04, type: 2}
  - {fileID: 11400000, guid: fdc3f4793bdfbba4890d0fc80cba9aaf, type: 2}
  - {fileID: 11400000, guid: 5e4265a57f80a4249916e13cc7be25ff, type: 2}
  - {fileID: 11400000, guid: a6a6c933d766b3b4c83fe336532075ce, type: 2}
  - {fileID: 11400000, guid: dd2d46f90bcbaea468178f20f5073544, type: 2}
  _skeletonDataAsset: {fileID: 11400000, guid: 862d85029c89e0147a56434b965a498a, type: 2}
