%YAML 1.1
%TAG !u! tag:unity3d.com,2011:
--- !u!114 &11400000
MonoBehaviour:
  m_ObjectHideFlags: 0
  m_CorrespondingSourceObject: {fileID: 0}
  m_PrefabInternal: {fileID: 0}
  m_GameObject: {fileID: 0}
  m_Enabled: 1
  m_EditorHideFlags: 0
  m_Script: {fileID: 11500000, guid: 9d40e51703d34672be29ae3780e48a0a, type: 3}
  m_Name: WallSkin2
  m_EditorClassIdentifier: 
  _cheatIncrement: 1
  _id: wall_skin2
  _startCount: 0
  _maxCount: 2147483647
  _icon: {fileID: 21300000, guid: be361820f0f9338498ad5ffb641329ff, type: 3}
  _notEnoughPopupScene:
    _path: 
    _guid: 
  _maxCountPopupScene:
    _path: 
    _guid: 
  _defaultProductPack: {fileID: 114416171724702572}
  _transformId: {fileID: 0}
  _isLockedInitially: 0
  _name: 
  _isCurrency: 0
  _sendItemTitle: 
  _sendItemMessage: 
  _askItemTitle: 
  _askItemMessage: 
  _description: Garden 2
  _unlockNotificationIcon: {fileID: 0}
--- !u!114 &114262600579465722
MonoBehaviour:
  m_ObjectHideFlags: 0
  m_CorrespondingSourceObject: {fileID: 0}
  m_PrefabInternal: {fileID: 0}
  m_GameObject: {fileID: 0}
  m_Enabled: 1
  m_EditorHideFlags: 0
  m_Script: {fileID: 11500000, guid: c1d01ebc5c4548d8b1bd498fac836e52, type: 3}
  m_Name: CountedItemFixedReward
  m_EditorClassIdentifier: 
  _item: {fileID: 11400000}
  _count: 1
--- !u!114 &114416171724702572
MonoBehaviour:
  m_ObjectHideFlags: 0
  m_CorrespondingSourceObject: {fileID: 0}
  m_PrefabInternal: {fileID: 0}
  m_GameObject: {fileID: 0}
  m_Enabled: 1
  m_EditorHideFlags: 0
  m_Script: {fileID: 11500000, guid: f0e2567d6af941c59b5acdc7fee11e1c, type: 3}
  m_Name: ProductPack
  m_EditorClassIdentifier: 
  _name: 
  _description: 
  _icon: {fileID: 0}
  _rewards:
  - {fileID: 114262600579465722}
  _price: {fileID: 114990068345388032}
  _purchaseId: wall_skin2
  _purchaseType: decoration_skin
  _isSpecialOffer: 0
--- !u!114 &114990068345388032
MonoBehaviour:
  m_ObjectHideFlags: 0
  m_CorrespondingSourceObject: {fileID: 0}
  m_PrefabInternal: {fileID: 0}
  m_GameObject: {fileID: 0}
  m_Enabled: 1
  m_EditorHideFlags: 0
  m_Script: {fileID: 11500000, guid: 8d90033d0fac1b04a89b315591ae3901, type: 3}
  m_Name: CountedItemPrice
  m_EditorClassIdentifier: 
  _item: {fileID: 11400000, guid: 1c55426c5e665cb478ca6dc0d13a2c55, type: 2}
  _count: 15
