%YAML 1.1
%TAG !u! tag:unity3d.com,2011:
--- !u!114 &11400000
MonoBehaviour:
  m_ObjectHideFlags: 0
  m_CorrespondingSourceObject: {fileID: 0}
  m_PrefabInternal: {fileID: 0}
  m_GameObject: {fileID: 0}
  m_Enabled: 1
  m_EditorHideFlags: 0
  m_Script: {fileID: 11500000, guid: 1b82067dcded9d8468b2aa8e47d11471, type: 3}
  m_Name: Goal_UnlockBottomPanel
  m_EditorClassIdentifier: 
  _controls:
    _serializedKeys:
    - {fileID: 11400000, guid: b8a7fe91e774b3b4da84868c9420ab9e, type: 2}
    _serializedValues: 01000000
  _overridingMode: {fileID: 11400000, guid: fa0aa44b479b550448a370121727c74f, type: 2}
