%YAML 1.1
%TAG !u! tag:unity3d.com,2011:
--- !u!114 &11400000
MonoBehaviour:
  m_ObjectHideFlags: 0
  m_CorrespondingSourceObject: {fileID: 0}
  m_PrefabInternal: {fileID: 0}
  m_GameObject: {fileID: 0}
  m_Enabled: 1
  m_EditorHideFlags: 0
  m_Script: {fileID: 11500000, guid: 13bd8e0bc92b296469f51237b0538185, type: 3}
  m_Name: Level148
  m_EditorClassIdentifier: 
  _goals:
  - {fileID: 114475590530222638}
  - {fileID: 114454202134238764}
  _limitations:
  - {fileID: 114657747161585286}
  _scene:
    _path: Scenes/Levels/Main/Level148
    _guid: 106a2e210d6a0424398d332b3d6db956
  _difficulty: {fileID: 11400000, guid: bea5e69a1c1c70743bf3ea762362682c, type: 2}
  _magicHatMaxCharge: 11
  _moneyRewardCount: 50
  _mainRewardType: {fileID: 11400000, guid: e0996c4af434ec142b73190686271cb5, type: 2}
  _mainRewardAmount: 1
  _tipBooster: {fileID: 0}
  _randomSeeds: 
--- !u!114 &114431115756950150
MonoBehaviour:
  m_ObjectHideFlags: 0
  m_CorrespondingSourceObject: {fileID: 0}
  m_PrefabInternal: {fileID: 0}
  m_GameObject: {fileID: 0}
  m_Enabled: 1
  m_EditorHideFlags: 0
  m_Script: {fileID: 11500000, guid: 2043f6c4012e46e889902f32abac4d29, type: 3}
  m_Name: HiddenObjectRequirement
  m_EditorClassIdentifier: 
  _defaultHelperPrefab: {fileID: 114726090499463560, guid: 4672ec075fb52fd4ca64544e30d8e31f,
    type: 2}
  _requiredCount: 0
--- !u!114 &114454202134238764
MonoBehaviour:
  m_ObjectHideFlags: 0
  m_CorrespondingSourceObject: {fileID: 0}
  m_PrefabInternal: {fileID: 0}
  m_GameObject: {fileID: 0}
  m_Enabled: 1
  m_EditorHideFlags: 0
  m_Script: {fileID: 11500000, guid: 2043f6c4012e46e889902f32abac4d29, type: 3}
  m_Name: HiddenObjectRequirement
  m_EditorClassIdentifier: 
  _defaultHelperPrefab: {fileID: 114726090499463560, guid: 4672ec075fb52fd4ca64544e30d8e31f,
    type: 2}
  _requiredCount: 2
--- !u!114 &114475590530222638
MonoBehaviour:
  m_ObjectHideFlags: 0
  m_CorrespondingSourceObject: {fileID: 0}
  m_PrefabInternal: {fileID: 0}
  m_GameObject: {fileID: 0}
  m_Enabled: 1
  m_EditorHideFlags: 0
  m_Script: {fileID: 11500000, guid: 8481213a675149e3bb935a44a2e3d2be, type: 3}
  m_Name: ChipConsumptionGoal
  m_EditorClassIdentifier: 
  _defaultHelperPrefab: {fileID: 0}
  _requiredCount: 12
  _requiredChipTag: {fileID: 11400000, guid: 8b5a5692d1da96d4bae86ef4baf53437, type: 2}
--- !u!114 &114657747161585286
MonoBehaviour:
  m_ObjectHideFlags: 0
  m_CorrespondingSourceObject: {fileID: 0}
  m_PrefabInternal: {fileID: 0}
  m_GameObject: {fileID: 0}
  m_Enabled: 1
  m_EditorHideFlags: 0
  m_Script: {fileID: 11500000, guid: 0c557914ab6b44ef8d91caeb41b26470, type: 3}
  m_Name: MovesRequirement
  m_EditorClassIdentifier: 
  _defaultHelperPrefab: {fileID: 0}
  _requiredTurns: 29
  _rewardBonusPrice: 1
