%YAML 1.1
%TAG !u! tag:unity3d.com,2011:
--- !u!114 &11400000
MonoBehaviour:
  m_ObjectHideFlags: 0
  m_CorrespondingSourceObject: {fileID: 0}
  m_PrefabInternal: {fileID: 0}
  m_GameObject: {fileID: 0}
  m_Enabled: 1
  m_EditorHideFlags: 0
  m_Script: {fileID: 11500000, guid: 13bd8e0bc92b296469f51237b0538185, type: 3}
  m_Name: Level119
  m_EditorClassIdentifier: 
  _goals:
  - {fileID: 114299290563686434}
  - {fileID: 114596513908899534}
  _limitations:
  - {fileID: 114318757204550068}
  _scene:
    _path: Scenes/Levels/Main/Level119
    _guid: b9651fc95a997c24c802b2033d2efae0
  _difficulty: {fileID: 11400000, guid: bea5e69a1c1c70743bf3ea762362682c, type: 2}
  _magicHatMaxCharge: 11
  _moneyRewardCount: 50
  _mainRewardType: {fileID: 11400000, guid: e0996c4af434ec142b73190686271cb5, type: 2}
  _mainRewardAmount: 1
  _tipBooster: {fileID: 0}
  _randomSeeds: 
--- !u!114 &114161173819383244
MonoBehaviour:
  m_ObjectHideFlags: 0
  m_CorrespondingSourceObject: {fileID: 0}
  m_PrefabInternal: {fileID: 0}
  m_GameObject: {fileID: 0}
  m_Enabled: 1
  m_EditorHideFlags: 0
  m_Script: {fileID: 11500000, guid: 2043f6c4012e46e889902f32abac4d29, type: 3}
  m_Name: HiddenObjectRequirement
  m_EditorClassIdentifier: 
  _defaultHelperPrefab: {fileID: 114726090499463560, guid: 4672ec075fb52fd4ca64544e30d8e31f,
    type: 2}
  _requiredCount: 3
--- !u!114 &114299290563686434
MonoBehaviour:
  m_ObjectHideFlags: 0
  m_CorrespondingSourceObject: {fileID: 0}
  m_PrefabInternal: {fileID: 0}
  m_GameObject: {fileID: 0}
  m_Enabled: 1
  m_EditorHideFlags: 0
  m_Script: {fileID: 11500000, guid: 8481213a675149e3bb935a44a2e3d2be, type: 3}
  m_Name: ChipConsumptionGoal
  m_EditorClassIdentifier: 
  _defaultHelperPrefab: {fileID: 0}
  _requiredCount: 4
  _requiredChipTag: {fileID: 11400000, guid: 3fcacc740b7b6df40916c74e65ece558, type: 2}
--- !u!114 &114318757204550068
MonoBehaviour:
  m_ObjectHideFlags: 0
  m_CorrespondingSourceObject: {fileID: 0}
  m_PrefabInternal: {fileID: 0}
  m_GameObject: {fileID: 0}
  m_Enabled: 1
  m_EditorHideFlags: 0
  m_Script: {fileID: 11500000, guid: 0c557914ab6b44ef8d91caeb41b26470, type: 3}
  m_Name: MovesRequirement
  m_EditorClassIdentifier: 
  _defaultHelperPrefab: {fileID: 0}
  _requiredTurns: 22
  _rewardBonusPrice: 1
--- !u!114 &114596513908899534
MonoBehaviour:
  m_ObjectHideFlags: 0
  m_CorrespondingSourceObject: {fileID: 0}
  m_PrefabInternal: {fileID: 0}
  m_GameObject: {fileID: 0}
  m_Enabled: 1
  m_EditorHideFlags: 0
  m_Script: {fileID: 11500000, guid: 8481213a675149e3bb935a44a2e3d2be, type: 3}
  m_Name: ChipConsumptionGoal
  m_EditorClassIdentifier: 
  _defaultHelperPrefab: {fileID: 0}
  _requiredCount: 80
  _requiredChipTag: {fileID: 11400000, guid: ccf5b4cee4ef72f44a578fba2e9f1198, type: 2}
