%YAML 1.1
%TAG !u! tag:unity3d.com,2011:
--- !u!114 &11400000
MonoBehaviour:
  m_ObjectHideFlags: 0
  m_CorrespondingSourceObject: {fileID: 0}
  m_PrefabInternal: {fileID: 0}
  m_GameObject: {fileID: 0}
  m_Enabled: 1
  m_EditorHideFlags: 0
  m_Script: {fileID: 11500000, guid: 13bd8e0bc92b296469f51237b0538185, type: 3}
  m_Name: Level76
  m_EditorClassIdentifier: 
  _goals:
  - {fileID: 114461406775674090}
  _limitations:
  - {fileID: 114178410788789862}
  _scene:
    _path: Scenes/Levels/Main/Level76
    _guid: b0010ceff2b75794ba3d43a9c4a7521d
  _difficulty: {fileID: 11400000, guid: 981d0e7edceee2b41b2d48e7b2bcbd9a, type: 2}
  _magicHatMaxCharge: 11
  _moneyRewardCount: 100
  _mainRewardType: {fileID: 11400000, guid: e0996c4af434ec142b73190686271cb5, type: 2}
  _mainRewardAmount: 1
  _tipBooster: {fileID: 0}
  _randomSeeds: 
--- !u!114 &114178410788789862
MonoBehaviour:
  m_ObjectHideFlags: 0
  m_CorrespondingSourceObject: {fileID: 0}
  m_PrefabInternal: {fileID: 0}
  m_GameObject: {fileID: 0}
  m_Enabled: 1
  m_EditorHideFlags: 0
  m_Script: {fileID: 11500000, guid: 0c557914ab6b44ef8d91caeb41b26470, type: 3}
  m_Name: MovesRequirement
  m_EditorClassIdentifier: 
  _defaultHelperPrefab: {fileID: 0}
  _requiredTurns: 34
  _rewardBonusPrice: 1
--- !u!114 &114461406775674090
MonoBehaviour:
  m_ObjectHideFlags: 0
  m_CorrespondingSourceObject: {fileID: 0}
  m_PrefabInternal: {fileID: 0}
  m_GameObject: {fileID: 0}
  m_Enabled: 1
  m_EditorHideFlags: 0
  m_Script: {fileID: 11500000, guid: db058da3ab12ec54dbf506f769ee436f, type: 3}
  m_Name: GumballConsumptionRequirement
  m_EditorClassIdentifier: 
  _defaultHelperPrefab: {fileID: 0}
  _requiredCount: 25
  _gumballMachineChipTag: {fileID: 11400000, guid: 13eb42b3c5577994d968887ebad9717b,
    type: 2}
  _synchronizeGumballsCount: 0
