%YAML 1.1
%TAG !u! tag:unity3d.com,2011:
--- !u!114 &11400000
MonoBehaviour:
  m_ObjectHideFlags: 0
  m_CorrespondingSourceObject: {fileID: 0}
  m_PrefabInternal: {fileID: 0}
  m_GameObject: {fileID: 0}
  m_Enabled: 1
  m_EditorHideFlags: 0
  m_Script: {fileID: 11500000, guid: 13bd8e0bc92b296469f51237b0538185, type: 3}
  m_Name: Level50
  m_EditorClassIdentifier: 
  _goals:
  - {fileID: 114233596379451960}
  _limitations:
  - {fileID: 114155816963377998}
  _scene:
    _path: Scenes/Levels/Main/Level50
    _guid: 52cd3cdde2b95244dab10d8071e74e98
  _difficulty: {fileID: 11400000, guid: bea5e69a1c1c70743bf3ea762362682c, type: 2}
  _magicHatMaxCharge: 15
  _moneyRewardCount: 50
  _mainRewardType: {fileID: 11400000, guid: e0996c4af434ec142b73190686271cb5, type: 2}
  _mainRewardAmount: 1
  _tipBooster: {fileID: 0}
  _randomSeeds: 
--- !u!114 &114155816963377998
MonoBehaviour:
  m_ObjectHideFlags: 0
  m_CorrespondingSourceObject: {fileID: 0}
  m_PrefabInternal: {fileID: 0}
  m_GameObject: {fileID: 0}
  m_Enabled: 1
  m_EditorHideFlags: 0
  m_Script: {fileID: 11500000, guid: 0c557914ab6b44ef8d91caeb41b26470, type: 3}
  m_Name: MovesRequirement
  m_EditorClassIdentifier: 
  _defaultHelperPrefab: {fileID: 0}
  _requiredTurns: 26
  _rewardBonusPrice: 1
--- !u!114 &114233596379451960
MonoBehaviour:
  m_ObjectHideFlags: 0
  m_CorrespondingSourceObject: {fileID: 0}
  m_PrefabInternal: {fileID: 0}
  m_GameObject: {fileID: 0}
  m_Enabled: 1
  m_EditorHideFlags: 0
  m_Script: {fileID: 11500000, guid: 8481213a675149e3bb935a44a2e3d2be, type: 3}
  m_Name: ChipConsumptionGoal
  m_EditorClassIdentifier: 
  _defaultHelperPrefab: {fileID: 0}
  _requiredCount: 40
  _requiredChipTag: {fileID: 11400000, guid: 609d1e58bded7dd4886dbbd6d33e99ba, type: 2}
