%YAML 1.1
%TAG !u! tag:unity3d.com,2011:
--- !u!114 &11400000
MonoBehaviour:
  m_ObjectHideFlags: 0
  m_CorrespondingSourceObject: {fileID: 0}
  m_PrefabInternal: {fileID: 0}
  m_GameObject: {fileID: 0}
  m_Enabled: 1
  m_EditorHideFlags: 0
  m_Script: {fileID: 11500000, guid: 1d39e1e8813b4e979b5132c53c9ec388, type: 3}
  m_Name: Glasses_1
  m_EditorClassIdentifier: 
  _slot: {fileID: 11400000, guid: 9d25434ffdd933342945f12502abdc92, type: 2}
  _spineSkinNames:
  - glasses1
  _clothingModelParts:
  - {fileID: 11400000, guid: ffaab9677c24b6744a582d99b80515c6, type: 2}
