%YAML 1.1
%TAG !u! tag:unity3d.com,2011:
--- !u!114 &11400000
MonoBehaviour:
  m_ObjectHideFlags: 0
  m_CorrespondingSourceObject: {fileID: 0}
  m_PrefabInternal: {fileID: 0}
  m_GameObject: {fileID: 0}
  m_Enabled: 1
  m_EditorHideFlags: 0
  m_Script: {fileID: 11500000, guid: a07882e9c6694342ab860e9511ee7f8e, type: 3}
  m_Name: BottomDressCyan
  m_EditorClassIdentifier: 
  _slot: {fileID: 11400000, guid: fdc3f4793bdfbba4890d0fc80cba9aaf, type: 2}
  _skinnedMeshRenderer: {fileID: 13700000, guid: 69b4a78567347b646adc9cf6ed20c754,
    type: 3}
  _materials:
  - {fileID: 2100000, guid: b87f4bd4fc5834d48b0b01c861e4a018, type: 2}
