%YAML 1.1
%TAG !u! tag:unity3d.com,2011:
--- !u!687078895 &4343727234628468602
SpriteAtlas:
  m_ObjectHideFlags: 0
  m_CorrespondingSourceObject: {fileID: 0}
  m_PrefabInternal: {fileID: 0}
  m_Name: Jam
  m_EditorData:
    serializedVersion: 2
    textureSettings:
      serializedVersion: 2
      anisoLevel: 1
      compressionQuality: 50
      maxTextureSize: 2048
      textureCompression: 0
      filterMode: 1
      generateMipMaps: 0
      readable: 0
      crunchedCompression: 0
      sRGB: 1
    platformSettings:
    - serializedVersion: 2
      m_BuildTarget: DefaultTexturePlatform
      m_MaxTextureSize: 2048
      m_ResizeAlgorithm: 0
      m_TextureFormat: -1
      m_TextureCompression: 0
      m_CompressionQuality: 50
      m_CrunchedCompression: 0
      m_AllowsAlphaSplitting: 0
      m_Overridden: 0
      m_AndroidETC2FallbackOverride: 0
    packingSettings:
      serializedVersion: 2
      padding: 4
      blockOffset: 1
      allowAlphaSplitting: 0
      enableRotation: 1
      enableTightPacking: 1
    variantMultiplier: 1
    packables:
    - {fileID: 102900000, guid: 9b577da3fe9bf5144b543aae57bfbb35, type: 3}
    bindAsDefault: 1
  m_MasterAtlas: {fileID: 0}
  m_PackedSprites:
  - {fileID: 21300000, guid: 2f10b0400cd864de89ae913266b52204, type: 3}
  - {fileID: 21300000, guid: 0ea04d0187bb0504cb508bcbbba25cc7, type: 3}
  - {fileID: 21300000, guid: ef8998519c1cf4e4498d669a53663f5a, type: 3}
  - {fileID: 21300000, guid: 3fadb4e1fa5385e4b847804950915477, type: 3}
  - {fileID: 21300000, guid: ec1f9a52ad028bf478bc605353a9d528, type: 3}
  - {fileID: 21300000, guid: bcc1b546117ad4954918bf58d9cb1bc1, type: 3}
  - {fileID: 21300000, guid: 394fa376349954416877fb9d83ac2ec9, type: 3}
  - {fileID: 21300000, guid: b8ff74b6c07d3448b8f41b129ea9d495, type: 3}
  - {fileID: 21300000, guid: 5572da481d789495eb2af9e732f18795, type: 3}
  - {fileID: 21300000, guid: ac78231972c76124e83dc3a466919a94, type: 3}
  - {fileID: 21300000, guid: 006f10d9b0e8045cd810e4e92dcfbef8, type: 3}
  - {fileID: 21300000, guid: 80304bd9a5b7e4998aebfd33dca17050, type: 3}
  - {fileID: 21300000, guid: 98d744fa3a2f5402795abc8bf0343898, type: 3}
  - {fileID: 21300000, guid: cb701cfc450634443a6636e5a8dc09e3, type: 3}
  - {fileID: 21300000, guid: c8d2b51d362b717418bae0f53b670b85, type: 3}
  - {fileID: 21300000, guid: cd26993e8adc64aa48daf4ba7d7ce1cf, type: 3}
  - {fileID: 21300000, guid: 0057bb4e97d0341968da878e976cb547, type: 3}
  - {fileID: 21300000, guid: 4462446edf6d1e7408656b0cdc80b7ee, type: 3}
  - {fileID: 21300000, guid: a2f182eeec1004f16b3a3ec32c7b2c73, type: 3}
  - {fileID: 21300000, guid: 795f7b4fbc3a645c6a2e5d2876183113, type: 3}
  - {fileID: 21300000, guid: ffb97a7f515c64f13b17151322c229a8, type: 3}
  m_PackedSpriteNamesToIndex:
  - BG_jam_jumper_LB_01
  - BG_jam_CC
  - BG_jam_jumper_LT_01
  - Jam_trim_TNT_01
  - Jam_trim_dinomite_01
  - BG_jam_jumper_RB_01
  - BG_jam_jumper_02
  - BG_jam_CL_02
  - BG_jam_LT_01
  - Jam_trim_bomb_01
  - BG_jam_LB_01
  - BG_jam_jumper_01
  - BG_jam_CT_02
  - Jam_trim_hat_01
  - Jam_trim_petard_01
  - BG_jam_jumper_RT_01
  - BG_jam_CR_02
  - Jam_drop_01
  - BG_jam_RT_01
  - BG_jam_RB_01
  - BG_jam_CB_02
  m_Tag: Jam
  m_IsVariant: 0
