%YAML 1.1
%TAG !u! tag:unity3d.com,2011:
--- !u!114 &11400000
MonoBehaviour:
  m_ObjectHideFlags: 0
  m_CorrespondingSourceObject: {fileID: 0}
  m_PrefabInternal: {fileID: 0}
  m_GameObject: {fileID: 0}
  m_Enabled: 1
  m_EditorHideFlags: 0
  m_Script: {fileID: 11500000, guid: a07882e9c6694342ab860e9511ee7f8e, type: 3}
  m_Name: FeetShoesBlue
  m_EditorClassIdentifier: 
  _slot: {fileID: 11400000, guid: fa0efe665e5da424390fc378fc64b2ba, type: 2}
  _skinnedMeshRenderer: {fileID: 13700000, guid: 63f71dd2571ca9341b2e050ee2833e9c,
    type: 3}
  _materials:
  - {fileID: 2100000, guid: 8d13d5ae35d95b949b0f1aecfbd32324, type: 2}
