%YAML 1.1
%TAG !u! tag:unity3d.com,2011:
--- !u!114 &11400000
MonoBehaviour:
  m_ObjectHideFlags: 0
  m_CorrespondingSourceObject: {fileID: 0}
  m_PrefabInternal: {fileID: 0}
  m_GameObject: {fileID: 0}
  m_Enabled: 1
  m_EditorHideFlags: 0
  m_Script: {fileID: 11500000, guid: a07882e9c6694342ab860e9511ee7f8e, type: 3}
  m_Name: FeetShoesYellow
  m_EditorClassIdentifier: 
  _slot: {fileID: 11400000, guid: fa0efe665e5da424390fc378fc64b2ba, type: 2}
  _skinnedMeshRenderer: {fileID: 13700000, guid: 8883a3d095582da4bb96e2c3e1bb01a6,
    type: 3}
  _materials:
  - {fileID: 2100000, guid: 1242dbb843ae0714ea55ee3efec8d33d, type: 2}
