%YAML 1.1
%TAG !u! tag:unity3d.com,2011:
--- !u!114 &11400000
MonoBehaviour:
  m_ObjectHideFlags: 0
  m_CorrespondingSourceObject: {fileID: 0}
  m_PrefabInternal: {fileID: 0}
  m_GameObject: {fileID: 0}
  m_Enabled: 0
  m_EditorHideFlags: 0
  m_Script: {fileID: 11500000, guid: e473e9dc5090f5844b83adfcfa02d55d, type: 3}
  m_Name: MainBackgrounds
  m_EditorClassIdentifier: 
  _backgrounds:
    _serializedKeys: 0a000000140000001e000000
    _serializedValues:
    - {fileID: 21300000, guid: 72fb7e1d0bf104548858fef6f4329745, type: 3}
    - {fileID: 21300000, guid: 5445175c1a318b246954831bbbed970e, type: 3}
    - {fileID: 21300000, guid: 57cbe0c3450240e4ea3f3bb5153a9e2e, type: 3}
