%YAML 1.1
%TAG !u! tag:unity3d.com,2011:
--- !u!114 &11400000
MonoBehaviour:
  m_ObjectHideFlags: 0
  m_CorrespondingSourceObject: {fileID: 0}
  m_PrefabInternal: {fileID: 0}
  m_GameObject: {fileID: 0}
  m_Enabled: 1
  m_EditorHideFlags: 0
  m_Script: {fileID: 11500000, guid: a6b194f808b1af6499c93410e504af42, type: 3}
  m_Name: icecream_Atlas
  m_EditorClassIdentifier: 
  atlasFile: {fileID: 4900000, guid: 176a7a7493c578748b848878e7d84af2, type: 3}
  materials:
  - {fileID: 2100000, guid: 527ad16252ae3074893d2412ce421c9d, type: 2}
  - {fileID: 2100000, guid: a5c2cbdbf7faabb4aa27da1c674c961c, type: 2}
  - {fileID: 2100000, guid: e9f74f97a3b583242881a3f73fd581d4, type: 2}
