%YAML 1.1
%TAG !u! tag:unity3d.com,2011:
--- !u!114 &11400000
MonoBehaviour:
  m_ObjectHideFlags: 0
  m_CorrespondingSourceObject: {fileID: 0}
  m_PrefabInternal: {fileID: 0}
  m_GameObject: {fileID: 0}
  m_Enabled: 1
  m_EditorHideFlags: 0
  m_Script: {fileID: 11500000, guid: a6b194f808b1af6499c93410e504af42, type: 3}
  m_Name: Bob_Atlas
  m_EditorClassIdentifier: 
  atlasFile: {fileID: 4900000, guid: dcff3d822cd665f44ac8d9d261b4bead, type: 3}
  materials:
  - {fileID: 2100000, guid: 1e44b11ffd7245546b7c876d1b314ad4, type: 2}
  - {fileID: 2100000, guid: 56c11ccaab282464fb53ad77ae8bfba8, type: 2}
  - {fileID: 2100000, guid: 9c08a3996d1447a4ea5f9b0d8a6e9ff7, type: 2}
