%YAML 1.1
%TAG !u! tag:unity3d.com,2011:
--- !u!687078895 &4343727234628468602
SpriteAtlas:
  m_ObjectHideFlags: 0
  m_CorrespondingSourceObject: {fileID: 0}
  m_PrefabInternal: {fileID: 0}
  m_Name: Loc02BubblesIcons
  m_EditorData:
    serializedVersion: 2
    textureSettings:
      serializedVersion: 2
      anisoLevel: 1
      compressionQuality: 50
      maxTextureSize: 2048
      textureCompression: 0
      filterMode: 1
      generateMipMaps: 0
      readable: 0
      crunchedCompression: 0
      sRGB: 1
    platformSettings: []
    packingSettings:
      serializedVersion: 2
      padding: 4
      blockOffset: 1
      allowAlphaSplitting: 0
      enableRotation: 0
      enableTightPacking: 0
    variantMultiplier: 1
    packables:
    - {fileID: 102900000, guid: 1644ce7d70017054bbf91dfd73430623, type: 3}
    - {fileID: 102900000, guid: 3016b0ce3ef2f464e9dd24d885078451, type: 3}
    bindAsDefault: 1
  m_MasterAtlas: {fileID: 0}
  m_PackedSprites:
  - {fileID: 21300000, guid: 0e8291e03b389b3489674cb7f5575b0e, type: 3}
  - {fileID: 21300000, guid: 8358c9f0b37f15d4ebdb76fe826b6ebc, type: 3}
  - {fileID: 21300000, guid: 9f42eb81f4ebf444382de04248e2b1dc, type: 3}
  - {fileID: 21300000, guid: 7cd1d5b13c33bbb4e87e17f638b2cd8d, type: 3}
  - {fileID: 21300000, guid: e2d2a692f864239478c8c913de4969d2, type: 3}
  - {fileID: 21300000, guid: c6a2c3d2e16e6a34dbbfa49777bbb714, type: 3}
  - {fileID: 21300000, guid: 887863e2abad398449f4b813941dbf19, type: 3}
  - {fileID: 21300000, guid: 9763c3333e73b6a4d8553e5198b59cab, type: 3}
  - {fileID: 21300000, guid: a9429633ddc27f84aba2b2e19b869da1, type: 3}
  - {fileID: 21300000, guid: 1d158853b237bb84c926b97ab9071e16, type: 3}
  - {fileID: 21300000, guid: 03b3ac5399b381c47bb371ca4daf31cd, type: 3}
  - {fileID: 21300000, guid: 85a4cf93762e11e43b2c5ddd664fa4ff, type: 3}
  - {fileID: 21300000, guid: 8883a424b21653e4685158902d8dea04, type: 3}
  - {fileID: 21300000, guid: f45157348551fb446a33180a0f5bd9dd, type: 3}
  - {fileID: 21300000, guid: 08699c649c2ce30469857498a35e140b, type: 3}
  - {fileID: 21300000, guid: 640243b4e702ed143bb3a1570b61605a, type: 3}
  - {fileID: 21300000, guid: 257d68d46c8d7594c9a1679613357b47, type: 3}
  - {fileID: 21300000, guid: 35b81ad478582694d9933a1a5d46e439, type: 3}
  - {fileID: 21300000, guid: 2c7008159c47f964fbaac54e939067c1, type: 3}
  - {fileID: 21300000, guid: 6e35e815242d7bf488a67ccd64b1ba48, type: 3}
  - {fileID: 21300000, guid: c9d4c6851f6eeca4e816859222e6e680, type: 3}
  - {fileID: 21300000, guid: ffc608a5ce1f17445a69335e277a6782, type: 3}
  - {fileID: 21300000, guid: 25a961b551d3616448f6de55eb8ef755, type: 3}
  - {fileID: 21300000, guid: a4ebefc5b782c344ea64504f375786b1, type: 3}
  - {fileID: 21300000, guid: 2ac4a4e5729b72e42b13b2236d311b45, type: 3}
  - {fileID: 21300000, guid: 3adf701674315084eac71261f7bff23d, type: 3}
  - {fileID: 21300000, guid: ea5f1b36f1dc3234cb18a5cbb98fc24d, type: 3}
  - {fileID: 21300000, guid: bede9096ec3fd5647b3727f9a115b8c4, type: 3}
  - {fileID: 21300000, guid: bd7749d6068fd09439ac824d16a509a6, type: 3}
  - {fileID: 21300000, guid: 95a372e639f9748479ddc42e3715d111, type: 3}
  - {fileID: 21300000, guid: 90b2d927f41717e4fb152b4b488b7a88, type: 3}
  - {fileID: 21300000, guid: 90f5b5b7072469046a0840ee472f2681, type: 3}
  - {fileID: 21300000, guid: 7028a928db5b5a34b8dc3b946dd3715d, type: 3}
  - {fileID: 21300000, guid: 0746626892f4b1c41bb68d89bf396435, type: 3}
  - {fileID: 21300000, guid: 145f6139206a8c84da57dc1a6ca3c172, type: 3}
  - {fileID: 21300000, guid: c82d7c39df196c54bacdc193b8126f38, type: 3}
  - {fileID: 21300000, guid: 63f86069846fde74ab887795aee8a893, type: 3}
  - {fileID: 21300000, guid: 2aa8a1c973c5879428349ba2729c490b, type: 3}
  - {fileID: 21300000, guid: 0aa2a8f9b61f2e74e8b1545ea0dd9ba3, type: 3}
  - {fileID: 21300000, guid: 4900780ae37a32741965475d272a5d9e, type: 3}
  - {fileID: 21300000, guid: fadd891a4c5ee824c81e6800f49503dc, type: 3}
  - {fileID: 21300000, guid: ccb42c3aa9f80784ebabda6663549a96, type: 3}
  - {fileID: 21300000, guid: c34da18b1b41f5b47812cf0aa71aa22e, type: 3}
  - {fileID: 21300000, guid: 0811638bbbde3ad41bdc6f60ad910eab, type: 3}
  - {fileID: 21300000, guid: 541f9c9b9de95e440b8ffbbd536cfdc1, type: 3}
  - {fileID: 21300000, guid: b409fe9bdf6f8c247b04473c116b72d8, type: 3}
  - {fileID: 21300000, guid: ec00da5c77a972b4db828a2017b7e14b, type: 3}
  - {fileID: 21300000, guid: d716a97c29c1eaf44954a38485089225, type: 3}
  - {fileID: 21300000, guid: 9d3e41cc613aa8f479e900a3e34730c0, type: 3}
  - {fileID: 21300000, guid: d6806dcc0dfd64a46ace7ea25a17debf, type: 3}
  - {fileID: 21300000, guid: 994223dc1e5310d42969a798a9467c53, type: 3}
  - {fileID: 21300000, guid: 8718750de3aaadd48b2baffd6efceff3, type: 3}
  - {fileID: 21300000, guid: 3264ca0d8c0f8f746b0aaab3ade89dc3, type: 3}
  - {fileID: 21300000, guid: 070cd44d4c5974f4faee49ef49a19911, type: 3}
  - {fileID: 21300000, guid: 2539dabde47c7f742a4ddf4f6e516d87, type: 3}
  - {fileID: 21300000, guid: 8fa77edd351051c4f80988a10e7eaf8d, type: 3}
  - {fileID: 21300000, guid: dcb2083eafa3ebc4685df3d41988c3b4, type: 3}
  - {fileID: 21300000, guid: 7cafb0aeec99836479670e904835fbbf, type: 3}
  - {fileID: 21300000, guid: 6cc21bbe95d05b14996ad38e4a8fed1b, type: 3}
  - {fileID: 21300000, guid: abe2e7fee6df26b4cb0b832a03ce8b53, type: 3}
  - {fileID: 21300000, guid: 9f1bcb0f6bfd8d6479a593d7c0e1148b, type: 3}
  - {fileID: 21300000, guid: a97d611f68424e74f9a1e8d77fb24815, type: 3}
  - {fileID: 21300000, guid: e76fb41f2e56f884fa4035d391507dd2, type: 3}
  - {fileID: 21300000, guid: dd3a965ff463d8a4fbe5d44e26b3ca34, type: 3}
  - {fileID: 21300000, guid: 956d01ff44baf22458597edb295af501, type: 3}
  - {fileID: 21300000, guid: b79652ffddca9b440b67990fc845ad38, type: 3}
  - {fileID: 21300000, guid: 8795f2ffeab58a940b20b81a6c27b89f, type: 3}
  - {fileID: 21300000, guid: 2105cfff1aa47394a8ad10575b26d008, type: 3}
  m_PackedSpriteNamesToIndex:
  - trees_grade_1
  - loudspeakers_grade_3
  - Icon_bench_cut_01
  - lighter_grade_2
  - Icon girlanda 2
  - Buble_Road
  - Buble_Build
  - Icon carouselle color 1
  - Icon kiosk 3
  - Icon_car_wash_02
  - Icon popcorn 3
  - flowers_grade_1
  - grass_grade_2
  - Icon kiosk 1
  - Icon carouselle color 2
  - Icon_cut_lamp_03
  - Icon_cut_trash_boxes_01
  - Icon_car_wash_03
  - trees_grade_2
  - Icon carouselle color 3
  - Icon girlanda 1
  - Icon_cut_trash_boxes_02
  - Icon_cut_trash_boxes_03
  - Buble_Fence_01
  - lighter_grade_3
  - lighter_grade_1
  - Buble_Fence_02
  - Buble_Bench
  - flowers_grade_3
  - Icon_car_wash_01
  - Icon popcorn 1
  - Icon tickets box 2
  - Icon_fence_02
  - topiarium_grade_2
  - Icon_cut_lamp_01
  - Icon_border_03
  - Icon_bench_cut_03
  - loudspeakers_grade_1
  - grass_grade_1
  - Icon_fence_01
  - Icon_border_02
  - flowers_grade_2
  - Icon_border_01
  - admin_house_grade_1
  - loudspeakers_grade_2
  - trees_grade_3
  - topiarium_grade_1
  - bench_grade_1
  - radiopoint_grade_1
  - bench_grade_2
  - Icon popcorn 2
  - radiopoint_grade_2
  - Icon_fence_03
  - Icon girlanda 3
  - admin_house_grade_3
  - Buble_Man
  - bench_grade_3
  - topiarium_grade_3
  - grass_grade_3
  - radiopoint_grade_3
  - Icon tickets box 1
  - Buble_Ticket
  - Icon_cut_lamp_02
  - admin_house_grade_2
  - Icon_bench_cut_02
  - Icon kiosk 2
  - Icon tickets box 3
  - Buble_Characters
  m_Tag: Loc02BubblesIcons
  m_IsVariant: 0
