%YAML 1.1
%TAG !u! tag:unity3d.com,2011:
--- !u!114 &11400000
MonoBehaviour:
  m_ObjectHideFlags: 0
  m_CorrespondingSourceObject: {fileID: 0}
  m_PrefabInternal: {fileID: 0}
  m_GameObject: {fileID: 0}
  m_Enabled: 1
  m_EditorHideFlags: 0
  m_Script: {fileID: 11500000, guid: a6b194f808b1af6499c93410e504af42, type: 3}
  m_Name: trash_boxes_Atlas
  m_EditorClassIdentifier: 
  atlasFile: {fileID: 4900000, guid: 652722d1a8d771c4dab0d92d79fa48dc, type: 3}
  materials:
  - {fileID: 2100000, guid: 220ae6e05ba9707459ace01d5314df7e, type: 2}
  - {fileID: 2100000, guid: 3cac0ef459ab4b440b8a3b3621a75176, type: 2}
  - {fileID: 2100000, guid: ecb8c77919f4ec046a49e9d323e82d6a, type: 2}
