%YAML 1.1
%TAG !u! tag:unity3d.com,2011:
--- !u!114 &11400000
MonoBehaviour:
  m_ObjectHideFlags: 0
  m_CorrespondingSourceObject: {fileID: 0}
  m_PrefabInternal: {fileID: 0}
  m_GameObject: {fileID: 0}
  m_Enabled: 1
  m_EditorHideFlags: 0
  m_Script: {fileID: 11500000, guid: e434c9551d606ed48bdfd59306f8ab9e, type: 3}
  m_Name: KeyAudioSettings
  m_EditorClassIdentifier: 
  _audioEvents:
    _serializedKeys:
    - ConsumptionFlightBegin
    _serializedValues:
    - {fileID: 114530120843267224, guid: 21c877285850ea8478e658fa496c2658, type: 2}
  _fallbackSettings: {fileID: 11400000, guid: c4836ff33969f4146b6cffd134025805, type: 2}
