%YAML 1.1
%TAG !u! tag:unity3d.com,2011:
--- !u!114 &11400000
MonoBehaviour:
  m_ObjectHideFlags: 0
  m_CorrespondingSourceObject: {fileID: 0}
  m_PrefabInternal: {fileID: 0}
  m_GameObject: {fileID: 0}
  m_Enabled: 1
  m_EditorHideFlags: 0
  m_Script: {fileID: 11500000, guid: a6b194f808b1af6499c93410e504af42, type: 3}
  m_Name: Ritchie_Atlas
  m_EditorClassIdentifier: 
  atlasFile: {fileID: 4900000, guid: 3ab32f720a6e818488ee332a1c77bd4c, type: 3}
  materials:
  - {fileID: 2100000, guid: 8b4c0a90d92cc2541b298b684a7a2f75, type: 2}
  - {fileID: 2100000, guid: 679f7dfe2e363ef46979bc89b7a4ffa6, type: 2}
