%YAML 1.1
%TAG !u! tag:unity3d.com,2011:
--- !u!114 &11400000
MonoBehaviour:
  m_ObjectHideFlags: 0
  m_CorrespondingSourceObject: {fileID: 0}
  m_PrefabInternal: {fileID: 0}
  m_GameObject: {fileID: 0}
  m_Enabled: 1
  m_EditorHideFlags: 0
  m_Script: {fileID: 11500000, guid: 678ffc33853cd754dad0beced3a8a3f3, type: 3}
  m_Name: FieldBezelBrush
  m_EditorClassIdentifier: 
  _tiles:
  - {fileID: 11400000, guid: 38c5e1c66c111404e86d377fefd48f7c, type: 2}
  - {fileID: 11400000, guid: 98adf1ba7f70d1540b46714d65a8e62e, type: 2}
  - {fileID: 11400000, guid: 52abfedb666d28f47b3bf5cc790432d5, type: 2}
  - {fileID: 11400000, guid: 5425a8dc8d62be84e9e44cfe68b26a28, type: 2}
  - {fileID: 11400000, guid: 7d77b91d5a66d714195f6c65c45cc69a, type: 2}
  - {fileID: 11400000, guid: ad1d7ee64e21b6f4fa9ccbb12eaac186, type: 2}
  - {fileID: 11400000, guid: 625230824e454eb4db68ae57abe9fe0f, type: 2}
  - {fileID: 11400000, guid: d4156d0f25255bd43be3e1d5e0349c1a, type: 2}
  - {fileID: 11400000, guid: 73b0eb2bc19cc934da9f128b1a97aa99, type: 2}
  - {fileID: 11400000, guid: f1ccde52afcccc84c89132df55450796, type: 2}
  - {fileID: 11400000, guid: d23c3aea26ad52645b4f99ab53ad2ede, type: 2}
  - {fileID: 11400000, guid: 67d1fce7768a88b4fb4978322c88439d, type: 2}
  - {fileID: 11400000, guid: ae5247240f9a38144a9ddea73942b1bd, type: 2}
  - {fileID: 11400000, guid: 9e9eaa947a7d3ec449266aa96ccc52f4, type: 2}
  - {fileID: 11400000, guid: bd7d4a23445f64947965f34780a114c0, type: 2}
