%YAML 1.1
%TAG !u! tag:unity3d.com,2011:
--- !u!114 &11400000
MonoBehaviour:
  m_ObjectHideFlags: 0
  m_CorrespondingSourceObject: {fileID: 0}
  m_PrefabInternal: {fileID: 0}
  m_GameObject: {fileID: 0}
  m_Enabled: 1
  m_EditorHideFlags: 0
  m_Script: {fileID: 11500000, guid: eed248827ac647d38185d37e0783a748, type: 3}
  m_Name: ConveyorSystemTransportation
  m_EditorClassIdentifier: 
  _controls:
    _serializedKeys:
    - {fileID: 11400000, guid: edb923de71e5f9b44a249e988c6dacc6, type: 2}
    - {fileID: 11400000, guid: 850f6532ef7ed9c47a56170187d7d1f8, type: 2}
    - {fileID: 11400000, guid: d89a714aefe9908449368d49ed9dba95, type: 2}
    - {fileID: 11400000, guid: e97b434d68eb2cc438dfc39add0072d2, type: 2}
    - {fileID: 11400000, guid: 46cb765564141e84191c5fefb98b5eb7, type: 2}
    _serializedValues: 0000000000000000000000000000000000000000
