%YAML 1.1
%TAG !u! tag:unity3d.com,2011:
--- !u!114 &11400000
MonoBehaviour:
  m_ObjectHideFlags: 0
  m_CorrespondingSourceObject: {fileID: 0}
  m_PrefabInternal: {fileID: 0}
  m_GameObject: {fileID: 0}
  m_Enabled: 1
  m_EditorHideFlags: 0
  m_Script: {fileID: 11500000, guid: eed248827ac647d38185d37e0783a748, type: 3}
  m_Name: Match3Start
  m_EditorClassIdentifier: 
  _controls:
    _serializedKeys:
    - {fileID: 11400000, guid: 850f6532ef7ed9c47a56170187d7d1f8, type: 2}
    - {fileID: 11400000, guid: d89a714aefe9908449368d49ed9dba95, type: 2}
    - {fileID: 11400000, guid: e97b434d68eb2cc438dfc39add0072d2, type: 2}
    - {fileID: 11400000, guid: 76496e75e91977f47b2a8f888cc1accd, type: 2}
    - {fileID: 11400000, guid: 63bb29ffc8d715048bc66e908d669fc5, type: 2}
    - {fileID: 11400000, guid: c6cbd7c3239fb1a47abefa21864dbf92, type: 2}
    - {fileID: 11400000, guid: 75446df72e79ade418fb09dd8be139df, type: 2}
    - {fileID: 11400000, guid: 1bc854fd461e837459960e1e53c51e4f, type: 2}
    - {fileID: 11400000, guid: 46cb765564141e84191c5fefb98b5eb7, type: 2}
    - {fileID: 11400000, guid: f7045f2b290319048aaf0c0f600bec57, type: 2}
    - {fileID: 11400000, guid: 14d4d509d49a2e54993f576b437ad19e, type: 2}
    - {fileID: 11400000, guid: 273f59fb6969ae846a430c742214b7b1, type: 2}
    - {fileID: 11400000, guid: da775a5ed921fb4438cccfca9281946e, type: 2}
    - {fileID: 11400000, guid: a8962e20d332c534f928196f7fb40078, type: 2}
    _serializedValues: 0100000001000000010000000100000001000000000000000000000000000000010000000100000001000000010000000100000001000000
