%YAML 1.1
%TAG !u! tag:unity3d.com,2011:
--- !u!114 &11400000
MonoBehaviour:
  m_ObjectHideFlags: 0
  m_CorrespondingSourceObject: {fileID: 0}
  m_PrefabInternal: {fileID: 0}
  m_GameObject: {fileID: 0}
  m_Enabled: 1
  m_EditorHideFlags: 0
  m_Script: {fileID: 11500000, guid: eed248827ac647d38185d37e0783a748, type: 3}
  m_Name: Match3TutorialMode
  m_EditorClassIdentifier: 
  _controls:
    _serializedKeys:
    - {fileID: 11400000, guid: 273f59fb6969ae846a430c742214b7b1, type: 2}
    _serializedValues: 00000000
