%YAML 1.1
%TAG !u! tag:unity3d.com,2011:
--- !u!114 &11400000
MonoBehaviour:
  m_ObjectHideFlags: 0
  m_CorrespondingSourceObject: {fileID: 0}
  m_PrefabInternal: {fileID: 0}
  m_GameObject: {fileID: 0}
  m_Enabled: 1
  m_EditorHideFlags: 0
  m_Script: {fileID: 11500000, guid: a6b194f808b1af6499c93410e504af42, type: 3}
  m_Name: John_Atlas
  m_EditorClassIdentifier: 
  atlasFile: {fileID: 4900000, guid: 6dede36bc56489c4c9d0116fa4deba40, type: 3}
  materials:
  - {fileID: 2100000, guid: 4c40b1546e7d36e4a898596a84425d3d, type: 2}
  - {fileID: 2100000, guid: 736a3dc76799d7547b964779ad938c52, type: 2}
