%YAML 1.1
%TAG !u! tag:unity3d.com,2011:
--- !u!114 &11400000
MonoBehaviour:
  m_ObjectHideFlags: 0
  m_CorrespondingSourceObject: {fileID: 0}
  m_PrefabInternal: {fileID: 0}
  m_GameObject: {fileID: 0}
  m_Enabled: 1
  m_EditorHideFlags: 0
  m_Script: {fileID: 11500000, guid: 166df6972979417ab7a7346458111d08, type: 3}
  m_Name: HammerUnlockPopupNotification
  m_EditorClassIdentifier: 
  _typeReference:
    _serializedType: DreamTeam.Inventory.Items.Booster, Assembly-CSharp, Version=0.0.0.0,
      Culture=neutral, PublicKeyToken=null
  _boosterGroup: {fileID: 11400000, guid: 74ea09b5eabb29744af43f1689df8479, type: 2}
