{
  "L1_CUTSCENE_000_Dialogs": "Dialogs",
  "CUTSCENES_000_MESSAGE_0": "Привет, босс! Очень рада вас видеть! Простите, я немножечко задержалась: пропускала через шоссе семейство уточек.",
  "CUTSCENES_000_MESSAGE_1": "Знаете, мне ужасно неловко: во время собеседования по телефону, я не расслышала ваше имя. Вы не представитесь еще раз?",
  "CUTSCENES_000_MESSAGE_2": "Знаете, @player_name, я безумно счастлива, что вы победили на аукционе и приобрели парк. Иначе, его бы снесли.  Представляете? Я бы не пережила.",
  "CUTSCENES_000_MESSAGE_3": "Ведь в этом парке прошли мои детство и юность. Качели-карусели, танцы, свидания, первые поцелуи. Да что там! Парк – часть жизни всех горожан.",
  "CUTSCENES_000_MESSAGE_4": "Сейчас парк слегка запущен, но с вашим опытом и моей энергией, он станет чудесным местом! Пойдемте, @player_name. Не терпится вам тут все показать.",
  "CUTSCENES_000_MESSAGE_5": "Ничего, @player_name, наверняка у вас масса идей, как преобразить парк.",
  "CUTSCENES_000_MESSAGE_6": "Кстати об идеях: лично я черпаю вдохновение в игре, которой научилась в университете.",
  "CUTSCENES_000_MESSAGE_7": "На первый взгляд, это обычная головоломка. Зато, как говорит моя тетя Сью, отлично помогает \"зарядить мозги\". Позвольте, я вам ее покажу.",
  "L1_CUTSCENE_001_Dialogs": "Dialogs",
  "CUTSCENES_001_MESSAGE_0": "Ну как, @player_name, понравилось? В этой головоломке еще столько интересных задачек! А сейчас я пожалуй, займусь ремонтом  <color=#008000ff>главного входа</color>.",
  "CUTSCENES_001_MESSAGE_1": "Так мы и красоту наведем и бесплатную рекламу получим: все, кто проедет мимо, заметят, что парк реставрируют. ",
  "CUTSCENES_001_MESSAGE_2": "Новость мигом разнесется по городу.",
  "L1_CUTSCENE_002_Dialogs": "Dialogs",
  "CUTSCENES_002_MESSAGE_0": "Блеск! Вход в парк перестал напоминать вход в павильон фильма ужасов. И мне кажется, он стал симпатичнее, чем в моем в детстве.",
  "CUTSCENES_002_MESSAGE_1": "@player_name, посмотрите: единорог машет нам лапкой. Или копытом? А, неважно. Люблю животных, но никогда не была сильна в зоологии.",
  "CUTSCENES_002_MESSAGE_2": "Признаюсь, @player_name, когда я была маленькой и уходила из парка, то всегда махала единорожке в ответ.",
  "CUTSCENES_002_MESSAGE_3": "Все выглядело бы очень веселым и красивым в окружении <color=#008000ff>флагов</color>…",
  "CUTSCENES_002_MESSAGE_4": "@player_name, вы поможете выбрать расцветку?",
  "L1_CUTSCENE_003_Dialogs": "Dialogs",
  "CUTSCENES_003_MESSAGE_0": "О, @player_name, шикарный выбор!",
  "CUTSCENES_003_MESSAGE_1": "Флажки такой расцветки отлично заметны издали и обязательно привлекут внимание.",
  "CUTSCENES_003_MESSAGE_2": "Жаль, что в темноте ни вход, ни флаги никто не увидит. Хотя, о чем это я? Можно, <color=#008000ff>починить подсветку</color> на вывеске и у парка будет круглосуточная реклама!",
  "L1_CUTSCENE_004_Dialogs": "Dialogs",
  "CUTSCENES_004_MESSAGE_0": "Ура! Подсветка сияет словно радуга! У нас была примета: если угадать цвет одной из лампочек на счет «десять», задуманное желание должно было исполниться.",
  "CUTSCENES_004_MESSAGE_1": "Мне никогда не везло, но однажды я правильно угадала цвет и пожелала, чтобы Ричи Даймонд - самый популярный парень в школе, пригласил меня на выпускной бал.",
  "CUTSCENES_004_MESSAGE_2": "Спрашиваете, сбылось мое ли желание? Даже не знаю. На бал-то Ричи меня пригласил, да вот пошел туда с другой девушкой.",
  "CUTSCENES_004_MESSAGE_3": "Ох, простите, я опять заболталась. С парком связано столько воспоминаний.",
  "CUTSCENES_004_MESSAGE_4": "Привет! Что случилось? Моя машина мешает парковке?  Но здесь еще достаточно места.",
  "CUTSCENES_004_MESSAGE_5": "Вот «это» - ваша машина? Надо же! А я был уверен, что новый владелец парка ездит на чем-то более… престижном.",
  "CUTSCENES_004_MESSAGE_6": "Или, чтобы обойти меня на аукционе и купить участок, вы отдали последние сбережения?",
  "CUTSCENES_004_MESSAGE_7": "Нет. Парком владеет @player_name.  А я – главный менеджер по строительству и дизайну парка.",
  "CUTSCENES_004_MESSAGE_8": "В любом случае это ненадолго. В законе есть чудесная поправка о срыве сроков строительства. Неужели не слышали?",
  "CUTSCENES_004_MESSAGE_9": "Если вы не восстановите парк к оговоренному сроку, землю отберут и снова выставят на торги. А время-то идет с момента продажи парка, ха-ха!",
  "CUTSCENES_004_MESSAGE_10": "За оставшееся время вам ни за что не управится. Я выкуплю парк, как и задумывал и построю на его месте заводик по переработке мусора.",
  "CUTSCENES_004_MESSAGE_11": "Как бы не так, Ричи Даймонд! Ты жалкий хвастун! Одни пустые обещания. Знай: @player_name - суперпрофи! Мы все сможем! Или я не Бэтти Кейдж, вот!",
  "CUTSCENES_004_MESSAGE_12": "Что?! Он сказал «сек-ре-тар-шей»?! Вот нахал! Хотя иногда Ричи бывал очень милым… но в остальное время он совершенно невыносим!",
  "CUTSCENES_004_MESSAGE_13": "Правда это не его вина: из-за строгого отца у Ричи было тяжелое детство. @player_name,  вы уже догадались, что я была влюблена в этого парня?",
  "CUTSCENES_004_MESSAGE_14": "Ну и пусть! Как говорит моя тетя Сью: лучшее лекарство от любви – работа.  А чтобы она шла быстрее, нужна музыка.",
  "CUTSCENES_004_MESSAGE_15": "Если включить <color=#008000ff>проигрыватель</color>, он привлечет внимание прохожих. Пусть все знают, что парк возрождается!",
  "L1_CUTSCENE_005_Dialogs": "Dialogs",
  "CUTSCENES_005_MESSAGE_0": "@player_name,  а вам нравится группа «Поющая четверка»? По-моему, нечто невероятное.  Увидите: они обязательно войдут в историю.",
  "CUTSCENES_005_MESSAGE_1": "Как раз перед моим возвращением в Дайсон-Сити, вышел их новый альбом. Хотела купить, но нигде не нашла.  Разлетелся, как мороженое в жару.",
  "CUTSCENES_005_MESSAGE_2": "О, началась моя любимая песня! Она прямо наполняет энергией.  В самый раз, чтобы <color=#008000ff>очистить территорию от листьев</color>.",
  "L1_CUTSCENE_006_Dialogs": "Dialogs",
  "CUTSCENES_006_MESSAGE_0": "Листьев накопилось столько, словно здесь несколько лет подряд была одна осень.",
  "CUTSCENES_006_MESSAGE_1": "Так, пока не стемнело, надо успеть поскорее <color=#008000ff>починить фонари</color>. Да и дизайн тоже неплохо бы обновить.",
  "CUTSCENES_006_MESSAGE_2": "@player_name, вы только, пожалуйста, не уходите, пока я все не закончу. Не то, что я трусиха, но мне так будет спокойнее.",
  "L1_CUTSCENE_007_Dialogs": "Dialogs",
  "CUTSCENES_007_MESSAGE_0": "Ваш вкус, @player_name,  остается безупречным в любое время суток.",
  "L1_CUTSCENE_008_Dialogs": "Dialogs",
  "CUTSCENES_008_MESSAGE_1": "Не знаю, можно ли про фонарные столбы сказать, что они очаровательны,  но это действительно так. ",
  "CUTSCENES_008_MESSAGE_2": "И света как раз достаточно, чтобы не заблудиться на пути к парковке. Да, @player_name, я прощаюсь с вами до завтра.  Пока-пока!",
  "CUTSCENES_008_MESSAGE_3": "Как настроение, @player_name? Как дела? А у меня новости.",
  "CUTSCENES_008_MESSAGE_4": "Вчера вечером я купила и прочитала сборник местных законов о строительстве.",
  "CUTSCENES_008_MESSAGE_5": "К сожалению, Ричи не солгал: если не восстановить парк в срок, участок отберут. Ох, с бывшей городской недвижимостью связано столько дурацких правил.",
  "CUTSCENES_008_MESSAGE_6": "@player_name, босс, но вы не волнуйтесь, мы все успеем. Я буду молниеносна как метеор.",
  "CUTSCENES_008_MESSAGE_7": "Чудесно, @player_name! Горожане уже заметили, что в парке начался ремонт и активно интересуются.",
  "CUTSCENES_008_MESSAGE_8": "Парк был излюбленным местом отдыха. Жителям Дайсон-Сити его очень не хватает.",
  "CUTSCENES_008_MESSAGE_9": "Люди очень рады, что теперь все в руках лучшего архитектора. Да-да, многие знают, что это вы  спроектировали Kingdom Park.",
  "CUTSCENES_008_MESSAGE_10": "Меня это так вдохновило!  Я буквально чувствую прилив бодрости и готова горы свернуть. Или <color=#008000ff>парковые лавочки</color>. Шучу-шучу, не свернуть, а восстановить.",
  "CUTSCENES_008_MESSAGE_11": "И лучше всего - под музыку.",
  "L1_CUTSCENE_009_Dialogs": "Dialogs",
  "CUTSCENES_009_MESSAGE_0": "Очень удобные скамейки. Так и мхочется присесть, почитать книжку, съесть мороженку. Нет-нет, @player_name, не думайте, я не намекаю на перерыв.",
  "CUTSCENES_009_MESSAGE_1": "Ведь еще о стольких вещах надо позаботиться. О тех же киосках с мороженым, например. Зачем терять выгоду? К нам уже начали заглядывать посетители.",
  "L1_CUTSCENE_010_Dialogs": "Dialogs",
  "CUTSCENES_010_MESSAGE_0": "После пончиков, я больше всего люблю мороженое! Ванильное с лимонным сиропом мое любимое.",
  "CUTSCENES_010_MESSAGE_1": "Вечером обязательно зайду в «Ледяных гурманов».",
  "CUTSCENES_010_MESSAGE_2": "@player_name, вы тоже загляните туда при случае. В этом кафе самое вкусное мороженое в Дайсон-Сити. И уютная обстановка.",
  "CUTSCENES_010_MESSAGE_3": "А вот у нас уюта пока не хватает. <color=#008000ff>Засохшие деревья</color>, <color=#008000ff>увядшие цветы</color>, <color=#008000ff>пожелтевшие газоны</color>... бр-р-р, как в пустыне. Которую мы превратим в цветущий оазис!",
  "L1_CUTSCENE_011_Dialogs": "Dialogs",
  "CUTSCENES_011_MESSAGE_0": "Стало значительно лучше!",
  "CUTSCENES_011_MESSAGE_0_1": "Но какой-то изюминки не хватает, правда же, @player_name? Но, это легко исправить. В Дайсон-Сити есть магазин \"Зеленые острова\".",
  "CUTSCENES_011_MESSAGE_1": "Сейчас выберу подходящий, и закажу что-нибудь оригинальное.",
  "CUTSCENES_011_MESSAGE_2": "Что с <color=#008000ff>таксофоном</color>, @player_name?! Монетку слопал, а соединить с абонентом отказался. Хорошо я успела подыскать для вас отличного механика.",
  "CUTSCENES_011_MESSAGE_3": "Да, именно как вы хотели: мастера на все руки. Добавлю, что руки у этого мастера – золотые.",
  "CUTSCENES_011_MESSAGE_4": "Его зовут Боб Тореззи. Он работал механиком в передвижном шоу знаменитого Вайса Гудвина. Нет такого устройства, которое Боб не починит.",
  "L1_CUTSCENE_012_Dialogs": "Dialogs",
  "CUTSCENES_012_MESSAGE_0": "О, это он. Пунктуален, как хронометр.",
  "CUTSCENES_012_MESSAGE_1": "Здравствуйте, @player_name! Бэтти сказала, у вас есть для меня работенка? Ва бене, я люблю чинить. Но я не люблю делать это presto.",
  "CUTSCENES_012_MESSAGE_2": "Когда presto – плохой результат, новая поломка. Presto нужно бежать от злая собака. А чинить надо не спеша, с умом. Я покажу.",
  "CUTSCENES_012_MESSAGE_3": "He has got hands of gold. I think he will help us more than once.",
  "L1_CUTSCENE_013_Dialogs": "Dialogs",
  "CUTSCENES_013_MESSAGE_0": "Здравствуйте! Джон Вуйкович на проводе. Чем могу быть полезен?",
  "CUTSCENES_013_MESSAGE_1": "Добрый день, Джон! Вы будете очень полезны, если доставите в городской парк какие-нибудь симпатичные растения в комплекте с подходящим декором.",
  "CUTSCENES_013_MESSAGE_2": "Разумеется, Бэтти. У меня как раз свежая поставка космей и петуний. А к ним большой выбор бордюров.",
  "CUTSCENES_013_MESSAGE_3": "Прекрасно. Но… минуточку, мы разве знакомы?",
  "CUTSCENES_013_MESSAGE_4": "Опс! Похоже, ты меня забыла. А я сразу узнал тебя по голосу. Это я - Верзила Джон из старшей школы.",
  "CUTSCENES_013_MESSAGE_5": "Мы вместе ходили в пончиковую «Круглое счастье». И я приглашал тебя на выпускной бал.",
  "CUTSCENES_013_MESSAGE_6": "Джон? Ну конечно! Рада тебя слышать!",
  "CUTSCENES_013_MESSAGE_7": "Правда, рада? Тогда я уже бегу. Лечу. Мчусь! У тебя будут самые лучшие образцы растений и декор!",
  "L1_CUTSCENE_014_Dialogs": "Dialogs",
  "CUTSCENES_014_MESSAGE_0": "Планы, да. У меня тоже есть план. Бэтти... я... ты.... Что если мы сходим куда-нибудь сегодня вечером? В «Круглое счастье» или на танцы?",
  "CUTSCENES_014_MESSAGE_1": "О, Джон. Ценю твое приглашение, но самое большее, на что я буду способна к вечеру, лежать на диване и слушать любимые песни.",
  "CUTSCENES_014_MESSAGE_2": "Ладно, тогда может быть в другой раз. А ты по-прежнему поклонница «Поющей четверки»? У тебя есть их новый альбом?",
  "CUTSCENES_014_MESSAGE_3": "К сожалению, нет. Ладно, Джон, рада был повидать, но у меня еще много дел. Спасибо за пончики и цветы.",
  "CUTSCENES_014_MESSAGE_4": "Конечно-конечно. До свидания, Бэтти! Увидимся.",
  "CUTSCENES_014_MESSAGE_5": "Джон чудесный парень. Пытался ухаживать за мной в старшей школе. Но иначе как друга, я его не воспринимаю. Может, потому, что он немного неуверенный?",
  "CUTSCENES_014_MESSAGE_6": "@player_name, новость о вашем парке разнеслась по городу. Я рада, что любопытствующих все больше, но если я буду всем отвечать, то когда работать?",
  "CUTSCENES_014_MESSAGE_7": "Давайте я установлю <color=#008000ff>информационную тумбу</color>? Она отлично расскажет обо всех планах и сроках вместо меня.",
  "L1_CUTSCENE_015_Dialogs": "Dialogs",
  "CUTSCENES_015_MESSAGE_0": "Тумба готова. Что повесим туда для начала? <color=#008000ff>Плакат с рекламой</color>? Информацию об открытии? План будущего парка?",
  "CUTSCENES_015_MESSAGE_1": "Я бы еще указала, кто собственник парка. И обязательно упомянула о ваших профессиональных достижениях.",
  "CUTSCENES_015_MESSAGE_2": "Ведь когда горожане узнают, что этот парк строит архитектор знаменитого “Kingdom Park”, ажиотаж возрастет.",
  "L1_CUTSCENE_016_Dialogs": "Dialogs",
  "CUTSCENES_016_MESSAGE_0": "Здорово, что вы решили указать дату открытия, это отлично мотивирует. Я бы сказала, бросает вызов.",
  "CUTSCENES_016_MESSAGE_1": "Помню, как-то я на спор пришла ночью в парк прямо к фонтану ведьмы.",
  "CUTSCENES_016_MESSAGE_2": "Я сказала «ведьмы»? Это оговорка. Раньше фонтан украшала статуя феи. Время ее не пощадило и фея стала похожа на ведьму.",
  "CUTSCENES_016_MESSAGE_3": "Естественно, все дети ее боялись. Поэтому любимым предметом споров было условие сходить ночью к \"ведьме\". Кто же меня подначил, назвав трусихой?",
  "CUTSCENES_016_MESSAGE_4": "Неужели Ричи? Да, кажется он. А Джон вроде бы вызвался пойти вместе со мной. Ах, простите, я снова погрузилась в воспоминания.",
  "CUTSCENES_016_MESSAGE_5": "Ах, простите, вместо того чтобы заняться фонтаном, я снова погрузилась в воспоминания.  ",
  "CUTSCENES_016_MESSAGE_6": "@player_name, а чья статуя будет украшать <color=#008000ff>фонтан</color>? Не бойтесь, я сохраню секрет до поры до времени. Даже тетушке Сью не скажу.",
  "L1_CUTSCENE_017_Dialogs": "Dialogs",
  "CUTSCENES_017_MESSAGE_0": "Замечательно! Это же один из символов нашей эпохи. Кумир миллионов людей.",
  "CUTSCENES_017_MESSAGE_1": "@player_name, мне очень нравится ваш замысел. Было бы чудесно оформить в таком же духе еще несколько зон парка.",
  "CUTSCENES_017_MESSAGE_2": "Например, показать самые знаменитые и культовые вещи нашего времени. Ведь сейчас пора перемен, открытий, свобода мысли и творчества...",
  "CUTSCENES_017_MESSAGE_3": "Ой, я кажется, увлеклась.  А вы так и планировали? Ура! Как чудесно, что вы взяли меня на работу! У меня никогда не было таких интересных заданий.",
  "CUTSCENES_017_MESSAGE_4": "@player_name, как же приятно создавать что-то красивое и полезное. И раз я заговорила о пользе, пора <color=#008000ff>подключить фонтан к водопроводу</color>.",
  "CUTSCENES_017_MESSAGE_5": "Надо же: дело к вечеру, а жара не спадает. Ничего, сейчас я запущу фонтан, и здесь сразу станет прохладно.",
  "L1_CUTSCENE_018_Dialogs": "Dialogs",
  "CUTSCENES_018_MESSAGE_0": "@player_name, смотрите: в кране застрял этот камень. Как он туда попал? Неужели затянуло насосом?",
  "CUTSCENES_018_MESSAGE_1": "Необычный камешек. В детстве у меня была собственная коллекция, но такого блестящего я еще не находила. Интересно, как он называется?",
  "CUTSCENES_018_MESSAGE_2": "Узнаю завтра у одного знакомого: он немного разбирается в геологии. И попрошу Боба проверить фильтры на водопроводе.",
  "CUTSCENES_018_MESSAGE_3": "Если на сегодня больше поручений не будет, я, пожалуй, пойду. Тетя Сью обещала приготовить на ужин мой любимый пирог с черникой.",
  "L1_CUTSCENE_019_Dialogs": "Dialogs",
  "CUTSCENES_019_MESSAGE_0": "Так вот зачем ты выспрашивал меня про музыкальные вкусы Бэтти!",
  "CUTSCENES_019_MESSAGE_1": "Я не такой ботаник, чтобы держать все в голове. У настоящего мужчины есть дела и поважнее.",
  "CUTSCENES_019_MESSAGE_2": "Мальчики не ссорьтесь. Мне все равно очень приятно.",
  "CUTSCENES_019_MESSAGE_3": "Тогда может, сходим на танцы?",
  "CUTSCENES_019_MESSAGE_4": "В кинотеатр на премьеру “Блюз без девушек”",
  "CUTSCENES_019_MESSAGE_5": "Или в пончиковую “Круглое счастье”?",
  "CUTSCENES_019_MESSAGE_6": "Лучше в ресторан “Новая Венеция”.",
  "CUTSCENES_019_MESSAGE_7": "Простите, но я устала и хочу домой. Спасибо за приглашения, но в другой раз.",
  "CUTSCENES_019_MESSAGE_8": "@player_name, вы слышали? Ричи пригласил меня на свидание! Мне было жаль Джона, поэтому я отказалась. Но в следующий раз…",
  "CUTSCENES_019_MESSAGE_9": "Ладно-ладно, не буду вас отвлекать. Вам тоже нужно передохнуть и набраться сил.",
  "CUTSCENES_019_MESSAGE_10": "Ведь завтра вы хотели строить новый аттракцион. Еще раз до свидания.",
  "CUTSCENES_019_MESSAGE_11": "Вчера мы отлично потрудились, но сроки все равно поджимают. Если мы не откроем парк вовремя, мэрия отберет землю. Какой у нас план на сегодня?",
  "CUTSCENES_019_MESSAGE_12": "О, вы хотите оформить эту часть парка в космическом антураже? Да, то, что надо! Ведь нынешнее десятилетие войдет в историю как начало космической эры!",
  "CUTSCENES_019_MESSAGE_13": "@player_name, отличная идея поставить новые аттракционы на старых местах: посетители не запутаются и, в то же время, получат сюрприз.",
  "CUTSCENES_019_MESSAGE_14": "Вроде этой карусели, у которой вместо лошадок будут… ой, чуть не проговорилась.  Но идея просто улетная! Да еще и в духе времени… Ой!",
  "CUTSCENES_019_MESSAGE_15": "Все-все: рот на замок, иду выполнять ваше первое задание. Здание администрации само себя не построит. Иначе где нам хранить метлы и сейф для выручки?",
  "L2_CUTSCENE_LOC02_TASK01_Dialogs": "Dialogs",
  "CUTSCENE_LOC02_TASK01_MESSAGE_0": "Может и хорошо, что «дирекция» развалилось: оно выглядело как унылая коробка из кирпича.",
  "CUTSCENE_LOC02_TASK01_MESSAGE_1": "Зато, судя по вашему эскизу, новый корпус станет еще одним украшением парка.",
  "CUTSCENE_LOC02_TASK01_MESSAGE_2": "Как тут просторно!  Есть даже душ и комната отдыха. Прежний администратор ютился в кабинетике, где едва помещались стол, стул, вешалка и метла.",
  "CUTSCENE_LOC02_TASK01_MESSAGE_3": "И раз я заговорила об администраторе. По вашей просьбе я наняла к нам в штат  бывший управляющего парком – Ральфа.",
  "CUTSCENE_LOC02_TASK01_MESSAGE_4": "Ральф проработал здесь чуть ли не всю свою жизнь, и он очень ответственный...",
  "CUTSCENE_LOC02_TASK01_MESSAGE_5": "Думаю, это и он. Очень вовремя. У меня есть вопрос, который не дает мне покоя со вчерашнего вечера. Надеюсь, Ральф меня просветит.",
  "CUTSCENE_LOC02_TASK01_MESSAGE_6": "Странно, а где же Ральф? Он только что был тут. Надо его найти.",
  "L2_CUTSCENE_LOC02_TASK02_Dialogs": "Dialogs",
  "CUTSCENE_LOC02_TASK02_MESSAGE_0": "Вот это я выловила в центральном фонтане. Никогда раньше не видела такого камня. Ты же увлекаешься геологией, не подскажешь, как он называется?",
  "CUTSCENE_LOC02_TASK02_MESSAGE_1": "Позвольте-позвольте. Как интересно! Кто бы мог подумать…",
  "CUTSCENE_LOC02_TASK02_MESSAGE_2": "Ральф, прошу тебя, не тяни. Что с камнем? Ты так его держишь, словно у тебя в руках кусок динамита.",
  "CUTSCENE_LOC02_TASK02_MESSAGE_3": "Если наш босс не против, я ненадолго отлучусь и проконсультируюсь у эксперта.",
  "CUTSCENE_LOC02_TASK02_MESSAGE_4": "Что за странности? Напустил таинственности, а я теперь должна мучиться от любопытства.",
  "CUTSCENE_LOC02_TASK02_MESSAGE_5": "Ральф тоже заметил, что <color=#008000ff>стоянка в ужасном состоянии</color>. А ведь еще и в парке полно работы. Взять хотя бы <color=#008000ff>скамейки</color>: на них без риска для одежды, не сядешь.",
  "L2_CUTSCENE_LOC02_TASK07_Dialogs": "Dialogs",
  "CUTSCENE_LOC02_TASK07_MESSAGE_0": "Знаете,  @player_name, я никогда не пропускаю новости про полеты в космос и хожу на все фантастические фильмы, но…",
  "CUTSCENE_LOC02_TASK07_MESSAGE_1": "Совершенно не представляю, как должны выглядеть скамейки на космическую тему… Как кресла астронавтов или пилотов НЛО? Или что-то совсем необычное?",
  "CUTSCENE_LOC02_TASK07_MESSAGE_2": "А может сделать сиденья в стиле хайтек? Ох, голова кругом! @player_name, давайте я закажу несколько вариантов, а вы поможете выбрать. Хорошо? Спасибо!",
  "CUTSCENE_LOC02_TASK07_MESSAGE_3": "Очень удобно! Пока сидела, придумала «космическое воплощение»  для фонарей. Нельзя оставлять их в таком виде: они словно нашествие марсиан пережили.",
  "L2_CUTSCENE_LOC02_TASK08_Dialogs": "Dialogs",
  "CUTSCENE_LOC02_TASK08_MESSAGE_0": "@player_name, я тут упомянула нашествие марсиан и вспомнила забавный случай. Мне было лет тринадцать, когда по радио дали постановку «Войны миров».",
  "CUTSCENE_LOC02_TASK08_MESSAGE_1": "Тетя Сью пропустила начало и поверила, что марсиане атакуют нас на самом деле. Я с трудом убедила ее не запасать продукты и не прятаться в погребе.",
  "CUTSCENE_LOC02_TASK08_MESSAGE_2": "Однако у тети Сью остались опасения, и она решила принять меры на случай нашествия: всю следующую неделю мы приводили погреб в порядок.",
  "CUTSCENE_LOC02_TASK08_MESSAGE_3": "Сколько же хлама мы тогда выгребли! Так что к борьбе с мусором я приучена с детства и очередная  <color=#008000ff>уборка территории</color> меня не пугает.",
  "L2_CUTSCENE_LOC02_TASK09_Dialogs": "Dialogs",
  "CUTSCENE_LOC02_TASK09_MESSAGE_0": "Спасибо, Боб. Хотя мне немного досадно: прогресс идет полным ходом, люди осваивают в космос, а мы до сих пор пользуемся швабрами и совками.",
  "CUTSCENE_LOC02_TASK09_MESSAGE_1": "Когда, наконец, изобретут робота-уборщика? Или робота-повара?",
  "CUTSCENE_LOC02_TASK09_MESSAGE_2": "Помню, в передвижном цирке Вайса Гудвина, был механический человек, который помогал убирать арену.",
  "CUTSCENE_LOC02_TASK09_MESSAGE_3": "Вот здорово: механический андроид! А ты не мог бы сделать такого же? Это сэкономило бы нам силы и время.",
  "CUTSCENE_LOC02_TASK09_MESSAGE_4": "Не знаю. Вайс Гудвин был гением и великим изобретателем, а я – простой подмастерье. Хотя мне нравится твоя идея. Пожалуй, ее стоит обдумать.",
  "CUTSCENE_LOC02_TASKGENERAL_MESSAGE_0": "Ральф, наконец-то вы перезвонили! @player_name и я очень хотим узнать про самородок. Как он очутился в фонтане?",
  "CUTSCENE_LOC02_TASKGENERAL_MESSAGE_1": "Во времена золотой лихорадки Дайсон-Сити был городом старателей. Шахты, в которых добывали золото, соединялись с пещерами и подземной рекой.",
  "CUTSCENE_LOC02_TASKGENERAL_MESSAGE_2": "Наверное, самородок затянуло из водопровода насосом, ведь часть этого лабиринта находится как раз под Парком.",
  "CUTSCENE_LOC02_TASKGENERAL_MESSAGE_3": "Есть даже легенда, что там пропал старатель, призрак которого до сих пор можно встретить в парке. Говорят, он может показать, где спрятал клад.",
  "CUTSCENE_LOC02_TASKGENERAL_MESSAGE_4": "Странно, никогда не слышала этой истории. Постойте, а что с кладом? Он вправду существует или это очередная байка?",
  "CUTSCENE_LOC02_TASKGENERAL_MESSAGE_5": "Бэтти, здесь Ричи Даймонд и, кажется, он подслушивает. А ему ни к чему знать о наших делах. Поговорим завтра. Счастливо!",
  "CUTSCENE_LOC02_TASKGENERAL_MESSAGE_6": "Вообще патефону не место под открытым небом – вдруг пойдет дождь. Да и музыку должно быть слышно на весь парк.",
  "CUTSCENE_LOC02_TASKGENERAL_MESSAGE_7": "Кататься на аттракционах в тишине, тоже, что есть торт без вишенок. К счастью, в парке есть <color=#008000ff>радиорубка</color>. Надо взглянуть, какой <color=#008000ff>ремонт</color> ей потребуется.",
  "CUTSCENE_LOC02_TASK03_MESSAGE_1": "Наконец я убрала эти баки. Хватит им портить вид и позорить меня как водителя. Я отлично езжу по прямой, но парковка с препятствиями - это слишком.",
  "CUTSCENE_LOC02_TASK03_MESSAGE_2": "Теперь все на своих местах. Больше никаких столкновений. Хотя нормальная езда по такому покрытию невозможна.",
  "CUTSCENE_LOC02_TASK03_MESSAGE_3": "<color=#008000ff>Асфальт</color> будто пережил небольшое землетрясение. Ничего, хороший каток и опытная бригада мигом все исправят.",
  "CUTSCENE_LOC02_TASK04_MESSAGE_1": "Помню, я опаздывала в школу и решила сократить путь там, где недавно меняли дорожное покрытие. Разумеется, мои туфельки остались в Лейн-роуд.",
  "CUTSCENE_LOC02_TASK04_MESSAGE_2": "Так что мне полностью пришлось менять гардероб: к новой обуви потребовалась другая сумочка, к сумочке – перчатки, а к ним – подходящее платье.",
  "CUTSCENE_LOC02_TASK04_MESSAGE_3": "Сейчас почти как тогда: стоило обновить на стоянке асфальт и видно, что <color=#008000ff>газоны</color> тоже требуют замены.",
  "CUTSCENE_LOC02_TASK10_MESSAGE_0": "Ничего себе разгром! Без Боба я не справлюсь. ",
  "CUTSCENE_LOC02_TASK10_MESSAGE_0_1": "Бо-об, ау? Ты мне нужен.",
  "CUTSCENE_LOC02_TASK10_MESSAGE_1": "Боб прости, что поздно спохватилась, но будет здорово, если ты приведешь радиорубку в порядок. Справишься за сегодня?  ",
  "CUTSCENE_LOC02_TASK10_MESSAGE_2": "Постараюсь. Хоть я и не люблю оставаться в парке после наступления темноты, не уйду, пока не закончу.",
  "CUTSCENE_LOC02_TASK10_MESSAGE_3": "Боб, неужели ты тоже боялся старой статуи? Но ведь ее заменили. Или у тебя есть своя «страшилка»? Расскажешь?",
  "CUTSCENE_LOC02_TASK10_MESSAGE_4": "Лучше мы поговорим, когда я закончу с радиорубкой.",
  "CUTSCENE_LOC02_TASK10_MESSAGE_5": "Ты обещал рассказать, почему не хочешь оставаться в парке затемно.",
  "CUTSCENE_LOC02_TASK10_MESSAGE_6": "Из-за призрака Старателя, который сгинул в шахтах под парком. Разве ты о нем никогда не слышала?",
  "CUTSCENE_LOC02_TASK10_MESSAGE_7": "Ральф упомянул эту легенду как раз сегодня. Но ведь это все выдумки. Чего их бояться?",
  "CUTSCENE_LOC02_TASK10_MESSAGE_8": "«Выдумки»?  Старатель был реальным человеком. Он полюбил одну девушку, но ее отец-банкир, отказался выдавать дочь за нищего.",
  "CUTSCENE_LOC02_TASK10_MESSAGE_9": "Чтобы добыть приданое парень полез в шахты в поисках самородков и пропал. А потом людям стал мерещиться его призрак.",
  "CUTSCENE_LOC02_TASK10_MESSAGE_10": "Боб, призраков не бывает. Значит, Старатель выбрался из подземелья.",
  "CUTSCENE_LOC02_TASK10_MESSAGE_11": "Может быть. Но если позволишь, я продолжу работу. Не люблю делать престо, но лучше наладить <color=#008000ff>музыкальную трансляцию</color> до темноты.",
  "CUTSCENE_LOC02_TASK011_MESSAGE_0": "Мы молодцы! Боб, включай пластинку на свое усмотрение.",
  "CUTSCENE_LOC02_TASK011_MESSAGE_1": "Боб, как ты угадал мою любимую песню! Спасибо, отличное окончание дня.",
  "CUTSCENE_LOC02_TASK011_MESSAGE_2": "Пор фавор, сеньора, уже темнеет. Пойдем, я провожу тебя до стоянки, чтобы ты не боялась. Вдруг призрак Старателя придет взглянуть, что здесь за шум.",
  "CUTSCENE_LOC02_TASK011_MESSAGE_3": "Боб, я тебя умоляю: не будь таким суеверным. Лучше скажи: в реальной жизни Старатель женился на своей девушке?",
  "CUTSCENE_LOC02_TASK011_MESSAGE_4": "Извини, это было очень давно, а я не уроженец Дайсона и не знаю, что произошло на самом деле.",
  "CUTSCENE_LOC02_TASK011_MESSAGE_5": "Как жаль! Такая романтическая история обязательно должна счастливо закончиться.",
  "CUTSCENE_LOC02_TASK011_MESSAGE_6": "Пожалуй, расспрошу Ральфа. Он живет в Дайсон-Сити с детства и наверняка что-нибудь слышал.",
  "CUTSCENE_LOC02_TASK011_MESSAGE_7": "Ариведерчи, босс!",
  "CUTSCENE_LOC02_TASK012_MESSAGE_0": "Извините, я немножечко опоздал. У соседей прорвало трубу, спасал их дом от потопа.",
  "CUTSCENE_LOC02_TASK012_MESSAGE_1": "Потоп? Бр-р-р. Знаешь, на всякий случай проверь, пожалуйста, сантехнику в доме администрации. А я пока расскажу боссу последние новости.",
  "CUTSCENE_LOC02_TASK012_MESSAGE_2": "@player_name, Ральф просил передать, что банк дает за самородок хорошую цену. А еще они хотят сделать вам выгодное предложение.",
  "CUTSCENE_LOC02_TASK012_MESSAGE_3": "У банка есть партнерская программа с автосалоном. Если на часть выручки вы приобретете новую машину, ее отдадут с пятидесятипроцентной скидкой.",
  "CUTSCENE_LOC02_TASK012_MESSAGE_4": "Да и налог с продажи самородка при безналичном расчете будет намного ниже. А личное авто в нашей стране как вторые ноги: без него никак.",
  "CUTSCENE_LOC02_TASK012_MESSAGE_5": "Я  <color=#008000ff>позвоню Ральфу</color>, чтобы он оформил все документы и принес их вам на подпись.",
  "CUTSCENE_LOC02_TASK05_MESSAGE_1": "Бэтти, камень из фонтана – золотой самородок. Мой эксперт это подтвердил и рекомендовал продать его банку, так как сейчас у золота очень выгодный курс.",
  "CUTSCENE_LOC02_TASK05_MESSAGE_2": "Кто бы мог подумать? Самородок! Но как он попал в фонтан?",
  "CUTSCENE_LOC02_TASK05_MESSAGE_3": "Дело в том… Ой, Бэтти, прибыла охрана, которую я вызвал, чтобы перевезти самородок. Я перезвоню позже.",
  "CUTSCENE_LOC02_TASK05_MESSAGE_4": "Ральф такой предусмотрительный. @player_name, можете не волноваться, он присмотрит за вашим сокровищем.",
  "CUTSCENE_LOC02_TASK05_MESSAGE_5": "А теперь, @player_name, нам надо бы установить ограждением на парковке.",
  "CUTSCENE_LOC02_TASK05_MESSAGE_6": "Интересно, бригада асфальтоукладчиков сможет в этом помочь  или лучше обратиться к каменщикам. А может быть к сварщикам?",
  "CUTSCENE_LOC02_TASK05_MESSAGE_7": "С другой стороны, какая разница? Главное, чтобы они <color=#008000ff>установили ограду</color> быстро и качественно.",
  "CUTSCENE_LOC02_TASK06_MESSAGE_1": "Отлично: еще несколько штрихов и у парковки будет законченный вид.",
  "CUTSCENE_LOC02_TASK06_MESSAGE_2": "Что-то я устала. Проверю, правда ли, что лучший отдых – это смена деятельности. Попробую, посидеть. ",
  "CUTSCENE_LOC02_TASK13_MESSAGE_0": "Привет, Ральф! Автосалон точно предложит новую машину со скидкой, а не модели прошлых сезонов?",
  "CUTSCENE_LOC02_TASK13_MESSAGE_1": "Да, я специально уточнил. Салон предлагает целый ряд новых автомобиля разных марок.",
  "CUTSCENE_LOC02_TASK13_MESSAGE_2": "Великолепно! Обожаю, когда есть выбор! Прямо как в моих любимых «Ледяных гурманах»: у них всегда несколько сортов мороженого.",
  "CUTSCENE_LOC02_TASK13_MESSAGE_3": "Раз все в порядке, принеси, пожалуйста, документы быстрее: пусть @player_name получит машину уже сегодня.",
  "CUTSCENE_LOC02_TASK13_MESSAGE_4": "Я как раз закончу <color=#008000ff>оборудовать стоянку</color>. Или вначале <color=#008000ff>продолжить работу в парке</color>? Все так нужно. Ай, ладно: брошу монетку. Орел – парк, решка – стоянка.",
  "CUTSCENE_LOC02_TASK14_MESSAGE_0": "Старый пожарный гидрант, м-да. Готова спорить, он здесь еще с начала века. Настоящий раритет, которому самое место в музее.",
  "CUTSCENE_LOC02_TASK14_MESSAGE_1": "Ничего, старый труженик, я подберу тебе достойную смену.",
  "CUTSCENE_LOC02_TASK14_MESSAGE_2": "Вот это я понимаю: современная мойка! Вода сразу смешивается с моющим средством. Никакого дрызганья с ведром и тряпками.",
  "CUTSCENE_LOC02_TASK14_MESSAGE_3": "Все-таки не зря я выписываю журнал для автолюбителей «На шоссе». Это из их рекламы я узнала о ручном автодуше.",
  "CUTSCENE_LOC02_TASK14_MESSAGE_4": "Ой, а что если кому-то понадобится помыть машину поздно вечером? Зимой у нас рано темнеет и без <color=#008000ff>фонарей</color> на стоянке не обойтись. Пойду, найду Боба.",
  "CUTSCENE_LOC02_TASK15_MESSAGE_0": "Боб, правда, ты также хорошо разбираешься в электричестве, как я в моде?",
  "CUTSCENE_LOC02_TASK15_MESSAGE_1": "Видишь ли, я плохо разбираюсь в моде, чтобы оценить твои навыки. Но если проблема в фонарях, я справлюсь.",
  "CUTSCENE_LOC02_TASK15_MESSAGE_2": "Сейчас фонари кажутся не очень яркими, но вечером и ночью на парковке будет светло как днем.",
  "CUTSCENE_LOC02_TASK15_MESSAGE_3": "Ва бэне! Теперь я не буду шарахаться от каждой тени.",
  "CUTSCENE_LOC02_TASK15_MESSAGE_4": "Боб, тебе надо меньше смотреть ужастиков.",
  "CUTSCENE_LOC02_TASK15_MESSAGE_5": "Ужастики не причем. Просто мне кажется, что ты нашла самородок не просто так. Его подбросил призрак Старателя. И сейчас он где-то здесь.",
  "CUTSCENE_LOC02_TASK15_MESSAGE_6": "Ура, кажется все! @player_name, новая парковка для вашей новой машины готова… Ох, нет, совсем я забыла про <color=#008000ff>разметку</color>.",
  "CUTSCENE_LOC02_TASK16_MESSAGE_0": "Самое удобное место будет забронировано для вашей машины,@player_name. А чтобы его никто не занимал, я сделаю на асфальте надпись: «VIP».",
  "CUTSCENE_LOC02_TASK16_MESSAGE_1": "Ты вчера так не дорассказал легенду о призраке Старателя. Боб кое-что добавил, но ты наверняка знаешь больше. Чем она закончилось?",
  "CUTSCENE_LOC02_TASK16_MESSAGE_2": "Старатель долго пропадал в шахтах, но однажды он постучал в дом своей невесты. Отец-банкир открыл дверь и увидел Старателя с мешком золота.",
  "CUTSCENE_LOC02_TASK16_MESSAGE_3": "Тот сказал, что достал приданое и можно сыграть свадьбу. Старатель пообещал, что зайдет завтра, чтобы узнать дату торжества и… исчез.",
  "CUTSCENE_LOC02_TASK16_MESSAGE_4": "Только тогда банкир догадался, что говорил с призраком. Он так испугался, что не притронулся к золоту, а на следующий день, вместе с дочерью уплыл за океан.",
  "CUTSCENE_LOC02_TASK16_MESSAGE_5": "С тех пор Старатель ищет возлюбленную по всему городку, а тому, кто скажет, где она, обещает отдать свой клад.",
  "CUTSCENE_LOC02_TASK16_MESSAGE_6": "Боб говорил, что Старатель был реальным человеком. Что стало с ним и его возлюбленной по-настоящему?",
  "CUTSCENE_LOC02_TASK16_MESSAGE_7": "Ой, я тебя совсем заболтала. Тебе ведь надо в <color=#008000ff>автосалон</color>. Вдруг он закроется на перерыв или самую лучшую машину купит кто-то другой?",
  "CUTSCENE_LOC02_TASK17_MESSAGE_0": "@player_name, я же забыла спросить, какую машину вы выбрали из тех, что предлагает автосалон? Нет, не говорите, я сама попробую догадаться.",
  "CUTSCENE_LOC02_TASK17_MESSAGE_1": "Ой, сил нет, как я сгораю от любопытства. Прямо как в детстве, в ожидании подарков на рождество.",
  "CUTSCENE_LOC02_TASK17_MESSAGE_2": "Однажды я даже не пошла спать и спряталась в гостиной, чтобы подкараулить Санту.",
  "CUTSCENE_LOC02_TASK17_MESSAGE_3": "Нет, надо как-то отвлечься…  Вернусь в парк, там сразу о делах думается. ",
  "CUTSCENE_LOC02_TASK18_MESSAGE_0": "Говорят, в Англии, чтобы вырастить идеальный газон, его нужно стричь и поливать не меньше ста лет.",
  "CUTSCENE_LOC02_TASK18_MESSAGE_1": "Столько времени у нас нет, поэтому я предлагаю не привередничать, и приобрести газоны в ближайшем садовом магазине.",
  "CUTSCENE_LOC02_TASK18_MESSAGE_2": "По-моему, наш газон не хуже английского. Густой и зеленый. Может несколько травинок чуть выше остальных, но первая стрижка это исправит.",
  "CUTSCENE_LOC02_TASK18_MESSAGE_3": "А вот <color=#008000ff>цветы</color> я бы взяла только в <color=#008000ff>магазине Джона</color>. У него самый большой выбор и он с удовольствием подберет нам самые лучшие сорта и расцветки.",
  "CUTSCENE_LOC02_TASK19_MESSAGE_0": "Привет, Джон! Ты еще не распродал свои замечательные цветы? Что-нибудь космических расцветок: синие, желтые, белые и оранжевые.",
  "CUTSCENE_LOC02_TASK19_MESSAGE_1": "Здравствуй, Бэтти!  Космические расцветки? Игрок хочет сделать тематическое зонирование парка? Прекрасное решение!",
  "CUTSCENE_LOC02_TASK19_MESSAGE_2": "Разумеется, я привезу все, что нужно. Тем более, я как раз собирался навестить тебя, чтобы… как бы сказать… Ладно, при встрече ты сама все увидишь.",
  "CUTSCENE_LOC02_TASK19_MESSAGE_3": "Джон приготовил мне какой-то сюрприз? Было бы здорово, если он привез пончики: я что-то проголодалась.",
  "CUTSCENE_LOC02_TASK19_MESSAGE_4": "Салют, Бэтти! Срок сдачи парка на исходе, а вы только отремонтировали стоянку? Но спасибо: она мне пригодится, когда я перекуплю Парк.",
  "CUTSCENE_LOC02_TASK19_MESSAGE_5": "Ричи, если ты приехал изощряться в остроумии, то зря жег бензин. @player_name восстановит Парк к дате открытия. И я больше не хочу слушать твои подначки.",
  "CUTSCENE_LOC02_TASK19_MESSAGE_6": "А когда-то ты находила мои остроты милыми и смешными. Ладно, прости. Я здесь действительно не за этим. Держи, это тебе. Подарок.",
  "CUTSCENE_LOC02_TASK19_MESSAGE_7": "Прими в качестве извинений. Вчера я немного погорячился из-за Джона: раздражает, что он вечно путается под ногами. ",
  "CUTSCENE_LOC02_TASK19_MESSAGE_7_1": "А-а-а! Сколько можно? Опять он!",
  "CUTSCENE_LOC02_TASK19_MESSAGE_8": "Бэтти, я сделал заказ на студии звукозаписи и скупил у них все новинки.",
  "CUTSCENE_LOC02_TASK19_MESSAGE_9": "Пластинки? Да ты, парень, отстал от жизни. Кому они нужны, когда музыку можно слушать прямо в машине. Бэтти, в коробке автомагнитола с парой кассет.",
  "CUTSCENE_LOC02_TASK19_MESSAGE_10": "Бэтти, а вот здесь все альбомы «Поющей четверки» , твои любимые «Парни с пляжа» и еще…",
  "CUTSCENE_LOC02_TASK19_MESSAGE_11": "Большое спасибо вам обоим!  Джон, твои пластинки я буду слушать на работе, а магнитолу с кассетами – по пути домой. Я, правда, не умею ей пользоваться.",
  "CUTSCENE_LOC02_TASK19_MESSAGE_12": "Я научу тебя в два счета. Как насчет урока сегодня вечером?",
  "CUTSCENE_LOC02_TASK19_MESSAGE_13": "Лучше завтра. Сегодня у меня еще много дел. Но если хочешь, можешь остаться и помочь мне вместе с Джоном.",
  "CUTSCENE_LOC02_TASK19_MESSAGE_14": "Ну, я знаешь ли, тоже не с цветочками прохлаждаюсь. У настоящего мужчины и дела настоящие. Пока, до завтра!",
  "CUTSCENE_LOC02_TASK19_MESSAGE_15": "До чего напыщенный тип! Еще со школы строит из себя крутого мачо.  С чего он взял, что ландшафтный дизайн не мужская работа?",
  "CUTSCENE_LOC02_TASK19_MESSAGE_16": "Конечно мужская. Мне, например, не под силу таскать тяжеленные бордюры и огромными ящиками с цветами, чтобы <color=#008000ff>украсить газоны</color>.",
  "CUTSCENE_LOC02_TASK20_MESSAGE_0": "Бэтти, у тебя есть еще какие-нибудь серьезные поручения, которые лучше переложить на плечи настоящего мужчины?",
  "CUTSCENE_LOC02_TASK20_MESSAGE_1": "Ты даже не представляешь, сколько! Только, пожалуйста, не надо копировать Ричи. Ты хорош, такой, какой есть.",
  "CUTSCENE_LOC02_TASK20_MESSAGE_2": "Тогда, ты не откажешься сходить со мной вечером в пончиковую?",
  "CUTSCENE_LOC02_TASK20_MESSAGE_3": "Джон, а ты парень не промах, но к концу дня я, честно говоря, устаю и предпочитаю домашние чаепития в компании с тетей Сью. Они действуют на меня умиротворяющее.",
  "CUTSCENE_LOC02_TASK20_MESSAGE_4": "Но это не значит, что я отказываю. Мы вполне можем отметить открытие парка в «Круглой радости»",
  "CUTSCENE_LOC02_TASK20_MESSAGE_5": "Нет, в честь такого события я отведу тебя в лучший ресторан Дайсон-Сити!",
  "CUTSCENE_LOC02_TASK20_MESSAGE_6": "Договорились. ",
  "CUTSCENE_LOC02_TASK21_MESSAGE_0": "Чудесные деревья, Джон! Как думаешь, когда человечество посадит такие же на другой планете?",
  "CUTSCENE_LOC02_TASK21_MESSAGE_1": "Я считаю, мы высадимся на Марсе лет через десять. Возможно, столько же уйдет на обустройство планеты.",
  "CUTSCENE_LOC02_TASK21_MESSAGE_2": "Так что мы с тобой еще прогуляемся по марсианским рощам.",
  "CUTSCENE_LOC02_TASK21_MESSAGE_3": "Машина в полном порядке. Я не хотел чтобы она запылилась... А какой у нее мягкий ход!",
  "CUTSCENE_LOC02_TASK21_MESSAGE_4": "Спасибо, что ты так о ней позаботился, но уверена, @player_name очень хочет увидеть свою машину!",
  "CUTSCENE_LOC02_TASK21_MESSAGE_5": "@player_name, как мне не терпится узнать, что вы выбрали. Можно Ральф, <color=#008000ff>снимет чехол</color>?",
  "CUTSCENE_LOC02_TASK21_MESSAGE_6": "Джон, твои цветы великолепны!",
  "CUTSCENE_LOC02_TASK21_MESSAGE_7": "Спасибо, ты - мастер!  Пойдем, я тебя провожу.",
  "CUTSCENE_LOC02_GENERAL_2_MESSAGE_0": "Бэтти мне кажется тут не хватает деревьев, давай посадим, мне как раз на прошлой недели подвезли просто изумительные экземпляры.",
  "CUTSCENE_LOC02_GENERAL_2_MESSAGE_1": "Отличная идея, Джон! @player_name, давайте <color=#008000ff>посадим</color>, они дадут приятную тень и холодок в жаркий солнечный день.",
  "CUTSCENE_LOC02_TASK22_MESSAGE_0": "Ральф, раз уж ты заговорил о самородке, доскажи, пожалуйста, реальную историю про Старателя.",
  "CUTSCENE_LOC02_TASK22_MESSAGE_1": "В жизни все было прозаичнее, Бэтти. Когда Старатель вернулся, то оказалось, что его возлюбленная уехала. Старатель поспешил на поиски невесты.",
  "CUTSCENE_LOC02_TASK22_MESSAGE_2": "Думаю, после блужданий в шахтах, он выглядел не лучшим образом и те, кто видели его в Дайсон-Сити, приняли парня за призрака. Так и родилась легенда.",
  "CUTSCENE_LOC02_TASK22_MESSAGE_3": "Ах! Ральф, все словно в романе. Вот бы узнать, отыскал ли Старатель свою невесту.",
  "CUTSCENE_LOC02_TASK22_MESSAGE_4": "Бэтти,  а ведь я давно хочу написать книгу о Дайсон-Сити. История Старателя могла бы стать отличным началом. Надо лишь выяснить, чем все закончилось.",
  "CUTSCENE_LOC02_TASK22_MESSAGE_5": "Ральф, если ты напишешь книгу, ты расскажешь о парке? А Игрок будет среди героев книги?",
  "CUTSCENE_LOC02_TASK22_MESSAGE_6": "Разумеется! Ведь книга будет не только о прошлом, но и настоящем. А восстанавливая Парк, @player_name в буквальном смысле творит историю.",
  "CUTSCENE_LOC02_TASK22_MESSAGE_7": "Однако как говорит тетя Сью, браться за дело, нужно хорошо выспавшись. Завтра мы будем устанавливать новую карусель, и я хочу быть готовой.",
  "CUTSCENE_LOC02_TASK22_MESSAGE_8": "Именно призрака я и увидел: призрак Старателя! Он был весь в черном, с киркой и фонарем. И он поманил меня за собой.",
  "CUTSCENE_LOC02_TASK22_MESSAGE_9": "Ральф минуту назад рассказал, что никакого призрака не было. Старатель не пропадал в шахтах - он просто  ушел из города в поисках невесты.",
  "CUTSCENE_LOC02_TASK22_MESSAGE_10": "Кого же тогда я сейчас видел?",
  "CUTSCENE_LOC02_TASK22_MESSAGE_11": "Может, какой-нибудь рабочий проходил через парк, чтобы сократить путь. Или ты принял за призрака куст или дерево.",
  "CUTSCENE_LOC02_TASK22_MESSAGE_12": "Не знаю. В любом случае, давайте побыстрее уйдем отсюда.",
  "CUTSCENE_LOC02_TASK23_MESSAGE_0": "Такой же наряд Боб видел вчера на \"призраке\" Старателя. ",
  "CUTSCENE_LOC02_TASK23_MESSAGE_1": "Но зачем кому-то выдавать выдать себя за призрак?",
  "CUTSCENE_LOC02_TASK23_MESSAGE_2": "Это ты мне объясни, Ричи Даймонд, что случилось. Почему у тебя в багажнике костюм призрака и ты пугаешь наших сотрудников?! Хочешь, чтобы мы не успели восстановить парк, и ты смог заполучить этот участок?",
  "CUTSCENE_LOC02_TASK23_MESSAGE_3": "Как ты могла подумать?! Я бы никогда не опустился до грязных трюков.  Когда я увидел, как ты и @player_name дружно взялись за дело, то понял, что проиграл.",
  "CUTSCENE_LOC02_TASK23_MESSAGE_4": "Настоящие мужчины умеют проигрывать с честью, поэтому я решил вам помочь.",
  "CUTSCENE_LOC02_TASK23_MESSAGE_5": "Я услышал, как Ральф рассказывает о призраке и сразу смекнул, что небольшой «маскарад» наверняка привлечет к парку внимание прессы.",
  "CUTSCENE_LOC02_TASK23_MESSAGE_6": "Спасибо, только лучше бы ты предупредил о своей задумке.  Бесплатная реклама – это супер, но получать ее сомнительными способами - вредить репутации.",
  "CUTSCENE_LOC02_TASK23_MESSAGE_7": "Извини. В следующий раз я обязательно так и сделаю! До встречи!",
  "CUTSCENE_LOC02_TASK23_MESSAGE_8": "Привет, @player_name! Простите, Ричи появился так внезапно, что я не успела поздороваться. ",
  "CUTSCENE_LOC02_TASK23_MESSAGE_9": "Сегодня самый интересный день: мы установим новую карусель.",
  "CUTSCENE_LOC02_TASK23_MESSAGE_10": "Боб,  я поймала \"призрак\" Старателя. ",
  "CUTSCENE_LOC02_TASK23_MESSAGE_11": "Перфэтто! Как тебе удалось?",
  "CUTSCENE_LOC02_TASK23_MESSAGE_12": "Легко! Им оказался ряженый Ричи Даймонд.  Так что ты можешь не бояться работать в парке в сумерках.",
  "CUTSCENE_LOC02_TASK23_MESSAGE_13": "Это не значит, что тебе придется оставаться допоздна, хотя сегодня у нас и впрямь много дел. Для начала, <color=#008000ff>демонтируй</color>, пожалуйста, <color=#008000ff>старую карусель</color>.",
  "CUTSCENE_LOC02_TASK23_MESSAGE_14": "И если тебе понадобится подержать гаечный ключ или подать отвертку, не стесняйся, зови. Я буду поблизости: надо <color=#008000ff>установить автомат для попкорна</color>.",
  "CUTSCENE_LOC02_TASK24_MESSAGE_0": "Недавно прочитала в фантастическом романе про антигравитационный двигатель. Вот бы нам такой для автомата с попкорном.",
  "CUTSCENE_LOC02_TASK24_MESSAGE_1": "Чтобы он подлетал как его позовешь: вж-ж-жик и автомат тут как тут с пакетиком покорна.",
  "CUTSCENE_LOC02_TASK24_MESSAGE_2": "Ничего, когда-нибудь так и будет. А пока обойдемся обычными, но стильными образцами. Внешний вид тоже создает настроение.",
  "CUTSCENE_LOC02_TASK24_MESSAGE_3": "Попкорн в парке, также обязателен, как индейка на Рождество. @player_name, вы не представляете, как вкусно ее готовит моя тетя Сью!",
  "CUTSCENE_LOC02_TASK24_MESSAGE_4": "Приходите и, готова поспорить, вы попросите добавки. А если вы вегетарианец, то у тети есть другое коронное блюдо – фруктовый салат с мороженым.",
  "CUTSCENE_LOC02_TASK24_MESSAGE_5": "<color=#008000ff>Мороженое</color>! Ну конечно: одного попкорна посетителям будет недостаточно. Только тележки нужно как-нибудь «космически» обыграть или разукрасить.",
  "CUTSCENE_LOC02_TASK25_MESSAGE_0": "@player_name, думаете, за сколько дней один человек, без вреда для здоровья, съест все мороженое из такой тележки?",
  "CUTSCENE_LOC02_TASK25_MESSAGE_1": "Как-то я не подготовилась к контрольной и решила «простудиться» с помощью мороженого.",
  "CUTSCENE_LOC02_TASK25_MESSAGE_2": "Съела десять порций и хоть бы разок чихнула. А вот живот заболел. Прямо во время контрольной.",
  "CUTSCENE_LOC02_TASK26_MESSAGE_0": "Спасибо, Боб! Хоть ты и не любишь ничего делать «presto», ты справился даже раньше, чем я ожидала.",
  "CUTSCENE_LOC02_TASK26_MESSAGE_1": "Замечательно! Я немедленно <color=#008000ff>закажу карусель</color>.",
  "CUTSCENE_LOC02_TASK30_MESSAGE_0": "Попкорн, мороженое, карусель, музыка. Для праздничной атмосферы не хватает только яркой иллюминации.",
  "CUTSCENE_LOC02_TASK30_MESSAGE_1": "Не зря же здесь когда-то протянули эти <color=#008000ff>гирлянды</color>. Заменим их на <color=#008000ff>новые</color>, с какими-нибудь необычными лампочками.",
  "CUTSCENE_LOC02_TASK28_MESSAGE_0": "Ого, сколько здесь всего!",
  "CUTSCENE_LOC02_TASK28_MESSAGE_1": "Надеюсь Боба это не остановит!",
  "CUTSCENE_LOC02_TASK31_MESSAGE_0": "@player_name, огоньки напоминают далекие звезды. Смотришь на них, и сразу веселее становится.",
  "CUTSCENE_LOC02_TASK31_MESSAGE_1": "Надо будет обязательно пригласить на открытие тетю Сью. И папу с мамой. Им будет приятно. Они тоже ходили в этот парк, когда были маленькими.",
  "CUTSCENE_LOC02_GENERAL3_MESSAGE_0": "«… хотя до открытия парка осталось совсем мало времени, здесь царит полный разгром. Это подтверждает подозрения редакции, что…»",
  "CUTSCENE_LOC02_GENERAL3_MESSAGE_1": "Простите, а кто вы и о каких подозрениях идет речь?",
  "CUTSCENE_LOC02_GENERAL3_MESSAGE_2": "Я – младший репортер «Вестника Дайсона». Провожу расследование о незаконном строительстве, начатом под видом восстановления парка.",
  "CUTSCENE_LOC02_GENERAL3_MESSAGE_3": "Не объясните, почему я не вижу ни одного аттракциона? Только антураж для отвода глаз и уютный жилой коттеджик.",
  "CUTSCENE_LOC02_GENERAL3_MESSAGE_4": "Коттедж – здание администрации. А карусель мы еще не успели смонтировать.",
  "CUTSCENE_LOC02_GENERAL3_MESSAGE_5": "При всем уважении, это только слова. Мне нужны факты. Принесите до вечера фото аттракциона, и я напишу другую статью.",
  "CUTSCENE_LOC02_GENERAL3_MESSAGE_6": "Ничего не понимаю: почему в газете решили, что мы занимаемся чем-то незаконным? Ладно, @player_name, не волнуйтесь: я все улажу.",
  "CUTSCENE_LOC02_GENERAL3_MESSAGE_7": "Боб, прости, но чтобы <color=#008000ff>собрать карусель</color> нам придется поторопиться.",
  "CUTSCENE_LOC02_GENERAL4_MESSAGE_0": "Карусель восхитительна! Мне не терпится прокатиться.",
  "CUTSCENE_LOC02_GENERAL4_MESSAGE_1": "Что тебя останавливает? Садись и готовься к старту. ",
  "CUTSCENE_LOC02_GENERAL4_MESSAGE_2": "Вначале <color=#008000ff>испытаем карусель</color> на небольшой скорости. Но все равно не забудь пристегнуться. ",
  "CUTSCENE_LOC02_TASK29_MESSAGE_0": "В инструкции сказано, что: \"аттракцион предполагает несколько цветовых схем для воплощения самых смелых творческих замыслов. Краска прилагается\".",
  "CUTSCENE_LOC02_TASK29_MESSAGE_1": "Смело было предложить нам подобное. Ох, если я отнесу в редакцию такое фото, там опять что-нибудь заподозрят. А времени у нас все меньше и меньше.",
  "CUTSCENE_LOC02_TASK29_MESSAGE_2": "Ого! Какое неожиданное цветовое решение.",
  "CUTSCENE_LOC02_TASK29_MESSAGE_3": "Привет, Ральф, до чего же вы вовремя. Нам не хватает рабочих рук. Вы умеете пользоваться малярной кистью?",
  "CUTSCENE_LOC02_TASK29_MESSAGE_4": "Это мое любимое занятие! Каждый второй аттракцион в парке был покрашен мной!",
  "CUTSCENE_LOC02_TASK29_MESSAGE_5": "Тогда за дело! Надо <color=#008000ff>покрасить карусель</color> как можно быстрее. @player_name, вы поможете подобрать правильные цвета? Спасибо!",
  "CUTSCENE_LOC02_TASK29_MESSAGE_6": "Так, пока карусель в надежных руках, мне надо подготовиться к получению прибыли и <color=#008000ff>установить кассы</color>. Все-таки парк – коммерческое предприятие.",
  "CUTSCENE_LOC02_TASK32_MESSAGE_0": "Вот это я понимаю: настоящий творческий подход, а не то розовое не пойми что.",
  "CUTSCENE_LOC02_TASK32_MESSAGE_1": "Наших заслуг в этом немного: мы с Бобом были просто махали кистями. А автор замысла - @player_name.",
  "CUTSCENE_LOC02_TASK32_MESSAGE_2": "Бэтти, если у нас еще есть время, я готов украсить карусель дополнительной подсветкой.",
  "CUTSCENE_LOC02_TASK32_MESSAGE_3": "@player_name, вы не против? В темноте вращающиеся огоньки карусели будет выглядеть фантастически.",
  "CUTSCENE_LOC02_TASK33_MESSAGE_0": "@player_name, Бэтти, я проработал в парке лет тридцать и хочу сказать, что эта карусель - лучшая.",
  "CUTSCENE_LOC02_TASK33_MESSAGE_1": "Боб, благодаря подсветке, кабинки карусели выглядят как настоящие. Даже НЛО. Спасибо! ",
  "CUTSCENE_LOC02_TASK34_MESSAGE_0": "Боб, ну что, мы уже можем испытать карусель?",
  "CUTSCENE_LOC02_TASK34_MESSAGE_1": "Да, синьорита! Всё готово к старту. ",
  "CUTSCENE_LOC02_TASK34_MESSAGE_2": "Здорово! Давай же скроее её включим. Мне так не терпиться прокатиться.",
  "CUTSCENE_LOC02_TASK34_MESSAGE_3": "@player_name, невероятные ощущения! Словно я очутилась в машине времени и побывала в детстве. Вам тоже надо обязательно попробовать.",
  "CUTSCENE_LOC02_TASK34_MESSAGE_4": "Самое время <color=#008000ff>сделать сфото карусели</color> и всего остального великолепия. Ральф, Боб, вставайте вот сюда. Будет нимок на память.",
  "CUTSCENE_LOC02_TASK35_MESSAGE_0": "Ральф, отнеси, пожалуйста, фото в редакцию «Вестника Дайсона» и отдай корреспондентке Рэйчел Хоуп, пока она не написала разгромную статью о парке.",
  "CUTSCENE_LOC02_TASK35_MESSAGE_1": "Я знаю Рэйчел. Она, конечно, несколько порывиста, но никогда не станет писать неправду. Возможно, ее ввели в заблуждение.",
  "CUTSCENE_LOC02_TASK35_MESSAGE_2": "Не волнуйтесь, я отдам фото и поговорю с ней. До свидания!",
  "CUTSCENE_LOC02_TASK35_MESSAGE_3": "Бэтти, я получила фото аттракциона из парка и хочу извиниться. Я слишком доверилась своему источнику информации.",
  "CUTSCENE_LOC02_TASK35_MESSAGE_4": "Это он сообщил о якобы незаконном строительстве в парке. Я искренне сожалею о происшедшем, и напишу новую статью.",
  "CUTSCENE_LOC02_TASK35_MESSAGE_5": "Ваша команда восстанавливает парк в рекордные сроки и это достойно восхищения. Хочу, чтобы горожане узнали о скором открытии.",
  "CUTSCENE_LOC02_TASK35_MESSAGE_6": "Спасибо, Рэйчел! Скажите, кто хотел оговорить нас?",
  "CUTSCENE_LOC02_TASK35_MESSAGE_7": "К сожалению, я не могу назвать этого человека. Настоящий журналист никогда не раскрывает свои источники информации.",
  "CUTSCENE_LOC02_TASK35_MESSAGE_8": "Из-за этого «источника» вы едва не написали клеветническую статью. Поэтому ваше правило не должно на него распространяться.",
  "CUTSCENE_LOC02_TASK35_MESSAGE_9": "Хм… думаю, вы правы. Начать расследование мне посоветовал Ричи Даймонд.",
  "CUTSCENE_LOC02_TASK36_MESSAGE_0": "Я готов научить тебя пользоваться магнитолой. Мы вчера договорились, что я заеду. Эй, Бэтти, ты чего?",
  "CUTSCENE_LOC02_TASK36_MESSAGE_1": "Ты такой двуличный, Ричи Даймонд. Говоришь, никогда бы не опустился до грязных трюков? А как насчет корреспондентки, которой ты дал ложную информацию?",
  "CUTSCENE_LOC02_TASK36_MESSAGE_2": "И костюм призрака ты использовал вовсе не для того, чтобы помочь… Все, уходи! Не желаю тебя больше видеть! И забери свою магнитолу обратно!",
  "CUTSCENE_LOC02_TASK36_MESSAGE_3": "Если бы не @player_name со своим проектом, участок с парком должен был стать моим. Что я, по-твоему, должен делать?",
  "CUTSCENE_LOC02_TASK36_MESSAGE_4": "Помогать вам? Ты серьезно так думаешь? Ох, Бэтти-Бэтти. Ты до сих пор остаешься наивной простушкой. Я сам больше не хочу тебя видеть.",
  "CUTSCENE_LOC02_TASK36_MESSAGE_5": "@player_name, я так расстроена. Мне нужно поговорить с кем-то дружелюбным и понимающим. И еще что-то съесть. Что-то вкусное. Например, пончик. А лучше два.",
  "CUTSCENE_LOC02_TASK36_MESSAGE_6": "О! Кажется, я знаю, кто захочет составить мне компанию. Только бы он был дома.",
  "L1_CUTSCENE_000_Bubbles": "Bubbles",
  "CUTSCENES_000_TEXTBUBBLE_0": "Ой! Кажется, я погорячилась, когда сказала, что парк слегка запущен…",
  "CUTSCENES_000_TEXTBUBBLE_1": "Похоже, тут потребуется серьезный ремонт.",
  "L1_CUTSCENE_004_Bubbles": "Bubbles",
  "CUTSCENES_004_TEXTBUBBLE_0": "Бывают же совпадения. Стоило о нем заговорить и вот вам, пожалуйста.",
  "CUTSCENES_004_TEXTBUBBLE_1": "Бэтти Кейдж? Бэтти-пончик? Вот так сюрприз!",
  "CUTSCENES_004_TEXTBUBBLE_2": "Не думал, что ты так похорошеешь.  Как насчет встречи в кафе сегодня вечером?",
  "CUTSCENES_004_TEXTBUBBLE_3": "Еще чего! Ты испортил мне настроение и у меня много работы. Прощай!",
  "CUTSCENES_004_TEXTBUBBLE_4": "Да брось! Подумаешь, потеряешь работу на этой свалке.",
  "CUTSCENES_004_TEXTBUBBLE_5": "Я с удовольствием возьму тебя секретаршей…",
  "CUTSCENES_004_TEXTBUBBLE_6": "Ладно, я еще заскочу.",
  "L1_CUTSCENE_005_Bubbles": "Bubbles",
  "CUTSCENES_005_TEXTBUBBLE_0": "А вот и наш граммофон. Давайте его включим, @player_name!",
  "CUTSCENES_005_TEXTBUBBLE_1": "У меня как раз сохранилась первая пластинка моей любимой группы.",
  "L1_CUTSCENE_008_Bubbles": "Bubbles",
  "CUTSCENES_008_TEXTBUBBLE_0": "Раз-два-три, елочка… Ой.",
  "CUTSCENES_008_TEXTBUBBLE_1": "Фонари, включитесь!",
  "CUTSCENES_008_TEXTBUBBLE_2": "Привет, @player_name!",
  "CUTSCENES_008_TEXTBUBBLE_3": "Не понимаю, почему этот бак все время у меня на пути?!",
  "CUTSCENES_008_TEXTBUBBLE_4": "Здравствуйте, добро пожаловать в парк. Правда мы еще не открыты.",
  "CUTSCENES_008_TEXTBUBBLE_5": "Но ты можешь побегать по площади",
  "CUTSCENES_008_TEXTBUBBLE_6": "Как хорошо, что парк снова откроется. ",
  "CUTSCENES_008_TEXTBUBBLE_10": "У меня здесь прошло первое свидание с будущим мужем.",
  "CUTSCENES_008_TEXTBUBBLE_7": "А вот тут он сделал мне предложение. Ах, фонтан в тот день буквально сверкал!",
  "CUTSCENES_008_TEXTBUBBLE_8": "В этом парке было столько красивых историй.",
  "CUTSCENES_008_TEXTBUBBLE_9": "Обязательно приходите на открытие!",
  "L1_CUTSCENE_011_Bubbles": "Bubbles",
  "CUTSCENES_011_TEXTBUBBLE_0": "Hello ... Hello ... Oh! It doesn't work",
  "L1_CUTSCENE_012_Bubbles": "Bubbles",
  "CUTSCENES_012_TEXTBUBBLE_0": "Бэтти, бамбина! Когда ты успела стать взрослой и красивой синьориной?",
  "CUTSCENES_012_TEXTBUBBLE_1": "Спасибо, Боб! Ну, у меня было на это лет десять.",
  "CUTSCENES_012_TEXTBUBBLE_2": "Надо же! Казалось, я только вчера чинил твой велосипед.",
  "CUTSCENES_012_TEXTBUBBLE_3": "А сегодня нужно починить вон тот таксофон.",
  "CUTSCENES_012_TEXTBUBBLE_4": "Боб, познакомься с владельцем парка. Это @player_name.",
  "CUTSCENES_012_TEXTBUBBLE_5": "Рад знакомству!",
  "CUTSCENES_012_TEXTBUBBLE_6": "Чао, бамбина!",
  "CUTSCENES_012_TEXTBUBBLE_7": "Ариведерчи, @player_name! Зовите когда понадоблюсь.",
  "CUTSCENES_012_TEXTBUBBLE_8": "Спасибо, Боб! До свиданья!",
  "L1_CUTSCENE_013_Bubbles": "Bubbles",
  "CUTSCENES_013_TEXTBUBBLE_0": "Здравствуйте! Соедините, пожалуйста, с магазином «Зеленые острова».",
  "CUTSCENES_013_TEXTBUBBLE_1": "Здравствуй, Бэтти, Это тебе!",
  "CUTSCENES_013_TEXTBUBBLE_2": "Твои любимые пончики. И тюльпаны.",
  "CUTSCENES_013_TEXTBUBBLE_3": "Джон! Как мило!",
  "CUTSCENES_013_TEXTBUBBLE_4": "Я так рад тебя видеть!",
  "CUTSCENES_013_TEXTBUBBLE_5": "Джон, познакомься с новым владельцем парка. @player_name, это Джон.",
  "CUTSCENES_013_TEXTBUBBLE_6": "Здравствуйте, @player_name! Спасибо, что спасли парк от сноса.",
  "CUTSCENES_013_TEXTBUBBLE_7": "Надеюсь, вам понравятся мои товары. Сейчас покажу.",
  "CUTSCENES_013_TEXTBUBBLE_8": "Вот, пожалуйста, выбирайте!",
  "L1_CUTSCENE_014_Bubbles": "Bubbles",
  "CUTSCENES_014_TEXTBUBBLE_0": "@player_name, спасибо, что помогли с выбором.",
  "CUTSCENES_014_TEXTBUBBLE_1": "То ли еще будет! На этот парк у моего босса множество задумок и планов.",
  "CUTSCENES_014_TEXTBUBBLE_2": "Какие у вас цветы и деревья! Я бы хотела посадить такие же у себя на лужайке.",
  "CUTSCENES_014_TEXTBUBBLE_3": "О, спасибо, это только начало. Мы еще только начали наводить красоту.",
  "CUTSCENES_014_TEXTBUBBLE_4": "А кто ваш садовник? Можете нас познакомить?",
  "CUTSCENES_014_TEXTBUBBLE_5": "О, конечно! Это мой бывший однокласник Джон.",
  "CUTSCENES_014_TEXTBUBBLE_7": "Отличный парень и, скажу по секрету, не женат. Я дам его телефон.",
  "CUTSCENES_014_TEXTBUBBLE_8": "Спасибо большое! Я ему обязательно позвоню!",
  "CUTSCENES_014_TEXTBUBBLE_6": "Замечательная девушка! Они с Джоном могут стать отличной парой.",
  "L1_CUTSCENE_015_Bubbles": "Bubbles",
  "CUTSCENES_015_TEXTBUBBLE_0": "Замечательно!",
  "L1_CUTSCENE_016_Bubbles": "Bubbles",
  "CUTSCENES_016_TEXTBUBBLE_0": "Да! Как раз то, что надо!",
  "CUTSCENES_016_TEXTBUBBLE_1": "@player_name, вы гений!",
  "L1_CUTSCENE_018_Bubbles": "Bubbles",
  "CUTSCENES_018_TEXTBUBBLE_0": "Ура, фонтан заработал! ",
  "CUTSCENES_018_TEXTBUBBLE_1": "Ой! А вон в той чаше, что-то не так с подачей воды.",
  "L1_CUTSCENE_019_Bubbles": "Bubbles",
  "CUTSCENES_019_TEXTBUBBLE_0": "@player_name, до свидания! Хорошего вечера!",
  "CUTSCENES_019_TEXTBUBBLE_1": "Бэтти, в соседнем городе нашлась запись «Поющей четверки». И я подумал…",
  "CUTSCENES_019_TEXTBUBBLE_2": "Пока он думал, я купил тебе их новый альбом.",
  "CUTSCENES_019_TEXTBUBBLE_3": "Эй, я хотел подарить ей эту пластинку!",
  "CUTSCENES_019_TEXTBUBBLE_4": "Зачем ей такая же, неудачник?",
  "CUTSCENES_019_TEXTBUBBLE_5": "Спасибо вам обоим, мальчики. Я очень тронута.",
  "CUTSCENES_019_TEXTBUBBLE_6": "Доброй ночи, @player_name! Пока, Бэтти!",
  "CUTSCENES_019_TEXTBUBBLE_7": "Ну вот, опять! Этот бак словно намагниченный! Мы все время сталкиваемся.",
  "CUTSCENES_019_TEXTBUBBLE_8": "Привет, @player_name! Я уже иду!",
  "L2_CUTSCENE_LOC02_TASK01_Bubbles": "Bubbles",
  "CUTSCENE_LOC02_TASK01_TEXTBUBBLE_0": "Потрясающее! Мне не терпится зайти внутрь. Можно?",
  "L2_CUTSCENE_LOC02_TASK02_Bubbles": "Bubbles",
  "CUTSCENE_LOC02_TASK02_TEXTBUBBLE_0": "Здравствуйте, @player_name. Бэтти сказала, вы ищете администратора.",
  "CUTSCENE_LOC02_TASK02_TEXTBUBBLE_1": "Я не так молод, как ваша помощница, зато у меня огромный опыт работы в парке.",
  "CUTSCENE_LOC02_TASK02_TEXTBUBBLE_2": "Привет Ральф! Вижу, ты и @player_name уже познакомились. Чудесно!",
  "CUTSCENE_LOC02_TASK02_TEXTBUBBLE_3": "Пожалуйста, заходи. У меня есть к тебе разговор.",
  "CUTSCENE_LOC02_TASK02_TEXTBUBBLE_4": "А вот и Ральф.",
  "L2_CUTSCENE_LOC02_TASK07_Bubbles": "Bubbles",
  "CUTSCENE_LOC02_TASK07_TEXTBUBBLE_0": "Неожиданно, но симпатично. Надо опробовать!",
  "L2_CUTSCENE_LOC02_TASK08_Bubbles": "Bubbles",
  "CUTSCENE_LOC02_TASK08_TEXTBUBBLE_0": "Отличный эффект! А в сумерках такие лампы будут выглядеть потрясающе.",
  "CUTSCENE_LOC02_TASK09_TEXTBUBBLE_1": "Чистота и красота!",
  "CUTSCENE_LOC02_TASK09_TEXTBUBBLE_2": "Здравствуйте, босс! Чао, Бэтти!",
  "CUTSCENE_LOC02_TASK09_TEXTBUBBLE_3": "Здесь порядка больше, чем в мастерской дяди Марио. А он и пылинки не пропустит.",
  "CUTSCENE_LOC02_TASK09_TEXTBUBBLE_4": "У меня тоже есть пара мыслей.",
  "CUTSCENE_LOC02_TASK09_TEXTBUBBLE_5": "Запишу пока не забыла.",
  "CUTSCENE_LOC02_TASKGENERAL_TEXTBUBBLE_0": "Алло, Ральф, это вы? ",
  "CUTSCENE_LOC02_TASKGENERAL_TEXTBUBBLE_1": "Уверена, что ни Ричи, ни кто-то другой не помешают открыть парк вовремя.",
  "CUTSCENE_LOC02_TASKGENERAL_TEXTBUBBLE_2": "Мы взяли отличный темп!",
  "CUTSCENE_LOC02_TASK10_TEXTBUBBLE_0": "Боб, радиорубка вышла очень современной, спасибо!",
  "CUTSCENE_LOC02_TASK10_TEXTBUBBLE_1": "Теперь последний штрих за вами, @player_name!",
  "CUTSCENE_LOC02_TASK05_TEXTBUBBLE_0": "Ура! Стоянка преображается на глазах.",
  "CUTSCENE_LOC02_TASK05_TEXTBUBBLE_1": "Первый звонок. Интересно, кто это?",
  "CUTSCENE_LOC02_TASK05_TEXTBUBBLE_2": "Алло?",
  "CUTSCENE_LOC02_TASK11_TEXTBUBBLE_0": "Великолепно! Отличное звучание!",
  "CUTSCENE_LOC02_TASK12_TEXTBUBBLE_0_0": "Хорошего вечера, @player_name. Увидимся завтра!",
  "CUTSCENE_LOC02_TASK12_TEXTBUBBLE_0": "Привет, @player_name!",
  "CUTSCENE_LOC02_TASK12_TEXTBUBBLE_1": "Бодрое утро, @player_name! Чао, Бэтти!",
  "CUTSCENE_LOC02_TASK12_TEXTBUBBLE_2": "Салют, Боб! Рада тебя видеть.",
  "CUTSCENE_LOC02_TASK06_TEXTBUBBLE_0": "Да, так гораздо лучше",
  "CUTSCENE_LOC02_TASK13_TEXTBUBBLE_0": "Алло-алло?",
  "CUTSCENE_LOC02_TASK14_TEXTBUBBLE_0": "@player_name, смотрите, как здорово!",
  "CUTSCENE_LOC02_TASK14_TEXTBUBBLE_1": "С таким оборудованием мытье машины превратится в веселый аттракцион!",
  "CUTSCENE_LOC02_TASK15_TEXTBUBBLE_0": "Ой! Что-то мне не хочется связываться со старой проводкой.",
  "CUTSCENE_LOC02_TASK15_TEXTBUBBLE_1": "Лучше позвать профессионала.",
  "CUTSCENE_LOC02_TASK15_TEXTBUBBLE_1_2": "Боб! Пожалуйста, мне нужна помощь!",
  "CUTSCENE_LOC02_TASK15_TEXTBUBBLE_2": "Отлично, все работает!",
  "CUTSCENE_LOC02_TASK15_TEXTBUBBLE_3": "Асфальт, мойка, газоны, ограждения, фонари.",
  "CUTSCENE_LOC02_TASK15_TEXTBUBBLE_4": "А сейчас я их выключу: лишний счет за электроэнергию нам ни к чему.",
  "CUTSCENE_LOC02_TASK16_TEXTBUBBLE_0": "Если Ральф не задержится, ваша машина скоро будет стоять на этом самом месте.",
  "CUTSCENE_LOC02_TASK16_TEXTBUBBLE_1": "Ура, а вот и он!",
  "CUTSCENE_LOC02_TASK16_TEXTBUBBLE_2": "@player_name, мое почтение! Бэтти, день добрый!",
  "CUTSCENE_LOC02_TASK16_TEXTBUBBLE_3": "@player_name, документы готовы, вам осталось их подписать и я сразу еду в салон!",
  "CUTSCENE_LOC02_TASK16_TEXTBUBBLE_4": "Ральф, пожалуйста, погоди минутку.",
  "CUTSCENE_LOC02_TASK17_TEXTBUBBLE_0": "Ральф, только, пожалуйста, будте осторожнее за рулем.",
  "CUTSCENE_LOC02_TASK17_TEXTBUBBLE_1": "Не волнуйтесь, я самый аккуратный и неторопливый водитель в городе.",
  "CUTSCENE_LOC02_TASK17_TEXTBUBBLE_2": "Все будет в порядке.",
  "CUTSCENE_LOC02_TASK18_TEXTBUBBLE_0": "Даже если я вызову поливальную машину, этот газон уже вряд ли зазеленеет.",
  "CUTSCENE_LOC02_TASK18_TEXTBUBBLE_1": "Ура! И ста лет ждать не пришлось.",
  "CUTSCENE_LOC02_TASK19_TEXTBUBBLE_0": "О, шум мотора. Неужели Джон так быстро добрался?",
  "CUTSCENE_LOC02_TASK19_TEXTBUBBLE_1": "Нет, его пикап не ревет как бешеный ягуар. Кто это так торопится?",
  "CUTSCENE_LOC02_TASK20_TEXTBUBBLE_0": "@player_name, вам нравится?",
  "CUTSCENE_LOC02_TASK20_TEXTBUBBLE_1": "Думаю, да. Кто, по-твоему, делал финальный выбор?",
  "CUTSCENE_LOC02_TASK21_TEXTBUBBLE_0": "Я слышу шум мотора, @player_name, наверное это Ральф с вашей машиной!",
  "CUTSCENE_LOC02_TASK21_TEXTBUBBLE_1": "Ой, а почему она под чехлом?! Что с ней стряслось?",
  "CUTSCENE_LOC02_TASK22_TEXTBUBBLE_0": "@player_name, поздравляю! Это лучшее, что вы могли выбрать. Хит сезона!",
  "CUTSCENE_LOC02_TASK22_TEXTBUBBLE_1": "Да, она очень надежна и современна. Отличное приобретение.",
  "CUTSCENE_LOC02_TASK22_TEXTBUBBLE_2": "А как сверкает! Как золотой самородок на солнце.  @player_name, я очень рад.",
  "CUTSCENE_LOC02_TASK22_TEXTBUBBLE_3": "Стойте! Подождите меня!",
  "CUTSCENE_LOC02_TASK22_TEXTBUBBLE_4": "Там... Там...",
  "CUTSCENE_LOC02_TASK22_TEXTBUBBLE_5": "Что \"там\", Боб? Что случилось? ",
  "CUTSCENE_LOC02_TASK22_TEXTBUBBLE_6": "У тебя такой вид, будто ты призрака увидел .",
  "CUTSCENE_LOC02_TASK23_TEXTBUBBLE_0": "Как скажешь, Боб. Всем хорошего вечера! До свиданья!",
  "CUTSCENE_LOC02_TASK23_TEXTBUBBLE_1": "До завтра, @player_name! Если захотите опробовать ваше авто – ключи в бардачке.",
  "CUTSCENE_LOC02_TASK23_TEXTBUBBLE_2": "Пока, Бэтти! Всего доброго, @player_name, Ральф.",
  "CUTSCENE_LOC02_TASK23_TEXTBUBBLE_3": "Аривэдречи, @player_name! На всякий случай, не гуляйте в одиночку по парку. ",
  "CUTSCENE_LOC02_TASK23_TEXTBUBBLE_4": "Эй, дамочка! Что вы ищите в моей машине?! ",
  "CUTSCENE_LOC02_TASK23_TEXTBUBBLE_5": "А, Бэтти, это ты. Извини, не узнал. Что случилось?",
  "CUTSCENE_LOC02_TASK23_TEXTBUBBLE_6": "Поверить не могу: она купилась. Ай да Бэтти-пончик!",
  "CUTSCENE_LOC02_TASK23_TEXTBUBBLE_7": "Такая же доверчивая, как и в школьные годы. Ха!",
  "CUTSCENE_LOC02_TASK23_TEXTBUBBLE_8": "С добрым утром ,@player_name! Чао, Бэтти!",
  "CUTSCENE_LOC02_TASK26_TEXTBUBBLE_0": "Жаль избавляться от этих скакунов.",
  "CUTSCENE_LOC02_TASK26_TEXTBUBBLE_1": "Если их отреставрировать, они еще долго прослужат.",
  "CUTSCENE_LOC02_TASK26_TEXTBUBBLE_2": "Синьорина, место под карусель свободно.",
  "CUTSCENE_LOC02_TASK28_TEXTBUBBLE_0": "Здравствуйте! Мне нужна модель карусели «7-К».",
  "CUTSCENE_LOC02_TASK28_TEXTBUBBLE_1": "Доставьте, пожалуйста, в бывший городской парк Дайсон-Сити.",
  "CUTSCENE_LOC02_GENERAL3_TEXTBUBBLE_0": "Ну, что, Боб, давай начнем?",
  "CUTSCENE_LOC02_GENERAL3_TEXTBUBBLE_1": "Конечно, сеньорина!",
  "CUTSCENE_LOC02_GENERAL4_TEXTBUBBLE_0": "Привет, Боб!",
  "CUTSCENE_LOC02_TASK36_TEXTBUBBLE_0": "Джон, привет! Давай сходим в пончиковую, если ты не занят.",
  "CUTSCENE_LOC02_TASK36_TEXTBUBBLE_1": "Ура! Тогда встретимся в «Круглом счастье».",
  "CUTSCENE_LOC02_TASK36_TEXTBUBBLE_2": "@player_name, Ральф, Боб! Спасибо, вы замечательно потрудились!",
  "CUTSCENE_LOC02_TASK36_TEXTBUBBLE_3": "Всем пока, я побежала. До завтра!",
  "CUTSCENE_LOC02_TASK29_TEXTBUBBLE_0": "Боб, что это?",
  "CUTSCENE_LOC02_TASK29_TEXTBUBBLE_1": "Карусель.",
  "CUTSCENE_LOC02_TASK29_TEXTBUBBLE_2": "Но почему она такого странного цвета?",
  "CUTSCENE_LOC02_TASK29_TEXTBUBBLE_3": "Сеньорина, не переживайте! Здесь всего-то нужен опытный маляр.",
  "CUTSCENE_LOC02_TASK29_TEXTBUBBLE_4": "Всем доброго дня!",
  "CUTSCENE_LOC02_TASK34_TEXTBUBBLE_0": "Синьорита готова? Поехали!",
  "CUTSCENE_LOC02_TASK34_TEXTBUBBLE_1": "Хьюстон, как слышите? Посадка прошла успешно.",
  "CUTSCENE_LOC02_TASK35_TEXTBUBBLE_0": "Алло? Да, это я.",
  "CUTSCENE_LOC02_TASK35_TEXTBUBBLE_1": "Жаль это слышать, но спасибо!",
  "CUTSCENE_LOC02_TASK35_TEXTBUBBLE_2": "До свидания, Рэйчел!",
  "CUTSCENE_LOC02_TASK35_TEXTBUBBLE_3": "@player_name, простите! Оказывается, Ричи всю дорогу меня обманывал.",
  "CUTSCENE_LOC02_TASK36_TEXTBUBBLE_4": "Салют, Бэтти! Заждалась?",
  "QUEST_TITLE_DAY0_0": "Отремонтировать вход в парк",
  "QUEST_TITLE_DAY0_1": "Добавить флаги на башни",
  "QUEST_TITLE_DAY0_2": "Включить подсветку на вывеске",
  "QUEST_TITLE_DAY0_3": "Установить проигрыватель",
  "QUEST_TITLE_DAY0_4": "Убрать листья с площади",
  "QUEST_TITLE_DAY0_5": "Починить фонари",
  "QUEST_TITLE_DAY0_6": "Начать новый день",
  "QUEST_TITLE_DAY1_0": "Отремонтировать лавочки",
  "QUEST_TITLE_DAY1_1": "Поставить тележку с мороженым",
  "QUEST_TITLE_DAY1_2": "Озелените площадь",
  "QUEST_TITLE_DAY1_3": "Починить таксофон",
  "QUEST_TITLE_DAY1_4": "Заказать садовый декор",
  "QUEST_TITLE_DAY1_5": "Завершить озеленение площади",
  "QUEST_TITLE_DAY1_6": "Поставить информационную тумбу",
  "QUEST_TITLE_DAY1_7": "Повесить плакат",
  "QUEST_TITLE_DAY1_8": "Отреставрировать статую на фонтане",
  "QUEST_TITLE_DAY1_9": "Запустить фонтан",
  "QUEST_TITLE_DAY1_10": "Открыть новую локацию",
  "QUEST_TITLE_LOC02_DAY1_TASK01": "Построить домик администрации",
  "QUEST_TITLE_LOC02_DAY1_TASK02": "Поговорить с Ральфом",
  "QUEST_TITLE_LOC02_DAY1_TASK03": "Убрать мусорные баки",
  "QUEST_TITLE_LOC02_DAY1_TASK04": "Заасфальтировать автостоянку",
  "QUEST_TITLE_LOC02_DAY1_TASK05": "Обновить газон",
  "QUEST_TITLE_LOC02_DAY1_TASK06": "Установить ограждение",
  "QUEST_TITLE_LOC02_DAY1_TASK07": "Заменить скамейки",
  "QUEST_TITLE_LOC02_DAY1_TASK08": "Заменить фонари",
  "QUEST_TITLE_LOC02_DAY1_TASK09": "Убрать мусор",
  "QUEST_TITLE_LOC02_DAY1_TASK10": "Восстановить радиорубку",
  "QUEST_TITLE_LOC02_DAY1_TASK11": "Подключить громкоговорители",
  "QUEST_TITLE_LOC02_DAY1_TASK12": "Продолжить работу",
  "QUEST_TITLE_LOC02_DAY2_TASK13": "Позвонить Ральфу",
  "QUEST_TITLE_LOC02_DAY2_TASK14": "Установить мойку",
  "QUEST_TITLE_LOC02_DAY2_TASK15": "Заменить фонари",
  "QUEST_TITLE_LOC02_DAY2_TASK16": "Начертить разметку",
  "QUEST_TITLE_LOC02_DAY2_TASK17": "Отправить Ральфа в автосалон",
  "QUEST_TITLE_LOC02_DAY2_TASK18": "Обновить газон",
  "QUEST_TITLE_LOC02_DAY2_TASK19": "Заказать цветы",
  "QUEST_TITLE_LOC02_DAY2_TASK20": "Украсить газоны",
  "QUEST_TITLE_LOC02_DAY2_TASK21": "Посадить деревья",
  "QUEST_TITLE_LOC02_DAY2_TASK22": "Сделать топиарий",
  "QUEST_TITLE_LOC02_DAY2_TASK23": "Снять с автомобиля чехол",
  "QUEST_TITLE_LOC02_DAY2_TASK24": "Продолжить работу",
  "QUEST_TITLE_LOC02_DAY2_TASK25": "Установить автомат для попкорна",
  "QUEST_TITLE_LOC02_DAY2_TASK26": "Поставить тележки с мороженым",
  "QUEST_TITLE_LOC02_DAY2_TASK27": "Разобрать старую карусель",
  "QUEST_TITLE_LOC02_DAY2_TASK28": "Заказать новую карусель",
  "QUEST_TITLE_LOC02_DAY2_TASK29": "Установить карусель",
  "QUEST_TITLE_LOC02_DAY2_TASK30": "Установить кассы",
  "QUEST_TITLE_LOC02_DAY2_TASK31": "Развесить гирлянды",
  "QUEST_TITLE_LOC02_DAY2_TASK32": "Покрасить карусель",
  "QUEST_TITLE_LOC02_DAY2_TASK33": "Сделать подсветку карусели",
  "QUEST_TITLE_LOC02_DAY2_TASK34": "Включить карусель",
  "QUEST_TITLE_LOC02_DAY2_TASK35": "Сделать фото карусели",
  "QUEST_TITLE_LOC02_DAY2_TASK36": "Открыть новую локацию",
  "INTRO_VIDEO_SUB_00": "Sometimes your games from childhood",
  "INTRO_VIDEO_SUB_01": "become serious hobbies.",
  "INTRO_VIDEO_SUB_02": "Over time, the results of your creativity improve",
  "INTRO_VIDEO_SUB_03": "and a hobby turns into a profession.",
  "INTRO_VIDEO_SUB_04": "You are striving for recognition, get a \n well-deserved award, and ... don't stop here,",
  "INTRO_VIDEO_SUB_05": "because you have ideas and opportunities,",
  "INTRO_VIDEO_SUB_06": "to finally realise a childhood dream.",
  "INTRO_VIDEO_SUB_07": "A new assistant is hired and now its time to go \n there - to a place where a new story begins.",
  "BOOSTER_TWO_BOMBS": "Two bombs",
  "BOOSTER_TWO_BOMBS_DESCRIPTION": "Start the game with two Bombs",
  "BOOSTER_DYNAMITE_PLUS_HAT": "Magic Hat + Dynamite",
  "BOOSTER_DYNAMITE_PLUS_HAT_DESCRIPTION": "Start the game with a Magic Hat and a Dynamite",
  "BOOSTER_HAT": "Magic Hat",
  "BOOSTER_HAT_DESCRIPTION": "Start the game with a Magic Hat",
  "BOOSTER_HAMMER": "Hammer",
  "COUNTED_ITEM_LIVES": "Lives",
  "POPUP_ASK_LIVES_FL": "You've already asked all your friends for lives today! Wait until tomorrow to ask for more.",
  "POPUP_ASK_LIVES_GML": "Ask for Lives!",
  "POPUP_ASK_LIVES_LABEL": "Select All!",
  "POPUP_ASK_LIVES_TEXT": "ASK",
  "POPUP_BANK": "Shop",
  "POPUP_BUSTER_PURCHASE_TEXT": "Buy this booster!",
  "POPUP_BUSTER_TIP_TXT": "What a difficult level! This booster might help",
  "POPUP_BUSTER_TIP_HEAD": "Booster Tip!",
  "POPUP_BUSTER_TIP_USE": "Use",
  "POPUP_BUSTER_UNLOCK_HEAD": "Booster Unlocked",
  "POPUP_BUSTER_UNLOCK_CONTINUE": "CONTINUE",
  "POPUP_BUSTER_UNLOCK_TRY": "TRY",
  "POPUP_BUSTER_CHANGE_NAME_HEAD": "Change Name",
  "POPUP_BUSTER_CHANGE_NAME_CHANGE": "Change your name",
  "POPUP_BUSTER_CHANGE_NAME_PET": "Change pet name",
  "POPUP_CONFIRM_STRING_PLACE": "Enter text...",
  "POPUP_CONFIRM_STRING_BUTTON": "OK",
  "POPUP_DECORATION_BUTTON": "TRY",
  "POPUP_DECORATION_HEAD": "New Item!",
  "POPUP_GRIND_COMPLETED_HEAD": "Event Completed!",
  "POPUP_GRIND_COMPLETED_MESSAGE_1": "Congratulation!",
  "POPUP_GRIND_COMPLETED_MESSAGE_2": "К сожалению Вы не набрали достаточного кол-ва билетов для покупки сундуков.Но не расстраивайтесь, в следующий раз Вам обязательно повезет",
  "POPUP_GRIND_COMPLETED_GET": "Get",
  "POPUP_GRIND_COMPLETED_OK": "OK",
  "POPUP_GRIND_LFT_BUTTON": "Speedup for",
  "POPUP_GRIND_LFT_NEW_LEVELS": "Новые уровни очень скоро появятся, а пока давай откроем мои подарочные сундучки!",
  "POPUP_GRIND_LFT_RESTART": "Новые сундуки будут доступны через:",
  "POPUP_GRIND_LFT_GML": "Stay tuned!",
  "POPUP_GRIND_LFT_TICKETS": "Look for tickets!",
  "POPUP_GRIND_COUNTER": "{0}",
  "POPUP_GRIND_DESCRIPTION": "Проходите уровни и получайте билетики для открытия сундуков!",
  "POPUP_GRIND_PLAY": "PLAY",
  "POPUP_ENTER_NAME_OK": "OK",
  "POPUP_ENTER_NAME_PLACEHOLDER": "Enter text...",
  "POPUP_WHEEL_JACKPOT_HEADER": "JACKPOT",
  "POPUP_WHEEL_JACKPOT_TAP": "Tap to continue",
  "POPUP_WHEEL_STOP": "STOP",
  "POPUP_WHEEL_SPIN": "Spin the wheel every day to earn special prizes!",
  "POPUP_WHEEL_REWARD_HEAD": "Your Reward",
  "POPUP_WHEEL_REWARD_PRIZE": "Claim Prize",
  "POPUP_LEVES_EXCHANGE_CAPTION": "Incoming",
  "POPUP_LEVES_EXCHANGE_TEXT_1": "Invite",
  "POPUP_LEVES_EXCHANGE_TEXT_2": "GET AND SEND ALL",
  "POPUP_LEVES_EXCHANGE_TEXT_3": "GET ALL",
  "POPUP_LEVES_EXCHANGE_TEXT_4": "SEND ALL",
  "POPUP_LIVES_SEND": "SEND LIVES",
  "POPUP_LIVES_ASK": "ASK FOR LIVES",
  "POPUP_LIVES_BUY": "BUY MORE LIVES",
  "POPUP_LIVES_FULL": "You have maximum Lifes. It's time to play now!",
  "POPUP_LIVES_GET_MORE": "Get More Lives!",
  "POPUP_LIVES_SEND_FRIENDS": "Send lives to your friends and ask them to return the favor!",
  "POPUP_LIVES_MAX": "Maximum of Lives!",
  "POPUP_LIVES_TIMER": "Time to next Life:",
  "POPUP_LOCATION_FINISHED_BUTTON": "CONTINUE",
  "POPUP_LOCATION_FINISHED_CAPTION": "Congratulations!",
  "POPUP_LOCATION_FINISHED_MESSAGE": "The plote was restored!",
  "POPUP_LOCATION_OPTIONS_NEWS": "Comming soon",
  "POPUP_LOCATION_OPTIONS_COMMUNITY": "Comming soon",
  "POPUP_LOCATION_OPTIONS_SETTINGS": "Settings",
  "POPUP_LOCATION_OPTIONS_NEWS_2": "News",
  "POPUP_LOCATION_OPTIONS_COMMUNITY_2": "Community",
  "POPUP_LOCATION_OPTIONS_HS": "Help and Support",
  "POPUP_LOCATION_OPTIONS_RATE": "Rate US",
  "POPUP_LOCATION_OPTIONS_FACEBOOK_1": "Facebook - Disconnected",
  "POPUP_LOCATION_OPTIONS_NAME": "Change name",
  "POPUP_LOCATION_OPTIONS_NOTIFICATIONS_ON": "Notifications ON",
  "POPUP_LOCATION_OPTIONS_NOTIFICATIONS_OFF": "Notifications OFF",
  "POPUP_LOCATION_OPTIONS_LANGUAGE": "Language",
  "POPUP_LOCATION_OPTIONS_FACEBOOK_2": "Connect your game to Facebook to play on multiple devices",
  "POPUP_NOTIFICATIONS_DISABLED_SYSTEM_TITLE": "Error",
  "POPUP_NOTIFICATIONS_DISABLED_SYSTEM_MESSAGE": "Turn on notifications in your device settings.",
  "POPUP_MAX_LIVES": "Already maximum lives.",
  "POPUP_MISSION_BRIEFING_CAPTION": "Level {0}",
  "POPUP_MISSION_BRIEFING_CHOOSE": "Choose Boosters:",
  "POPUP_MISSION_BRIEFING_PLAY": "PLAY",
  "POPUP_MISSION_COMPLETE_CONGRATS": "GREAT!",
  "POPUP_MISSION_COMPLETE_TAP": "Please tap to continue",
  "POPUP_MISSION_DEBRIEFING_LVL": "Level {0}",
  "POPUP_MISSION_DEBRIEFING_CHOOSE": "Choose Boosters:",
  "POPUP_MISSION_DEBRIEFING_REPLAY": "REPLAY",
  "POPUP_MISSION_GOALS_PANEL": "All Goals Completed!",
  "POPUP_MISSION_GOALS_LEVEL": "Level {0}",
  "POPUP_MISSION_GOALS_OVERVIEW_GOALS": "All Goals Completed!",
  "POPUP_MISSION_GOALS_OVERVIEW_LEVEL": "Level",
  "POPUP_ENOUGH_STARS_DESCRIPTION": "Beat levels to earn stars.",
  "POPUP_ENOUGH_STARS_CONTINUE": "CONTINUE",
  "POPUP_ENOUGH_STARS_HEAD": "Not enough stars",
  "POPUP_ENOUGH_TICKETS_DESCRIPTION": "Beat levels to earn tickets.",
  "POPUP_ENOUGH_TICKETS_CONTINUE": "CONTINUE",
  "POPUP_ENOUGH_TICKETS_HEAD": "Not enough tickets",
  "POPUP_OUT_MOVES_GIVEUP": "Give Up",
  "POPUP_OUT_MOVES_PURCHASE": "Play On",
  "POPUP_OUT_MOVES_HEAD": "Out of Moves!",
  "POPUP_QUEST_AND_FRIENDS_SOON": "Coming soon",
  "POPUP_QUEST_AND_FRIENDS_GOALS": "Goals",
  "POPUP_QUEST_AND_FRIENDS_FRIENDS": "Friends",
  "POPUP_QUEST_AND_FRIENDS_STAFF": "The Dream Team staff is working to make new areas available for you as soon as possible.",
  "POPUP_QUIT_HEAD": "Quit?",
  "POPUP_QUIT_LIFE": "You'll lose a life?",
  "POPUP_QUIT_CONTINUE": "CONTINUE",
  "POPUP_QUIT_QUIT": "QUIT",
  "POPUP_REWARDS_HEADER": "DAY IS OVER",
  "POPUP_REWARDS_TAP": "Tap to continue",
  "POPUP_SEND_LIVES_FULL": "You've already send all your friends for lives today! Wait until tomorrow to ask for more.",
  "POPUP_SEND_LIVES_GET_HEAD": "Send Lives!",
  "POPUP_SEND_LIVES_GET_LABEL": "Select All",
  "POPUP_SEND_LIVES_GET_ASK": "ASK",
  "POPUP_SEND_LIVES_GET_SEND": "SEND",
  "POPUP_SYNCHRONE_CURRENT": "Your current progress is this:",
  "POPUP_SYNCHRONE_OTHER": "Would you like to load your other saved game data?",
  "POPUP_SYNCHRONE_HEAD": "Synchronization",
  "POPUP_SYNCHRONE_LEVEL": "Level",
  "POPUP_SYNCHRONE_CURRENT_USE": "Use current",
  "POPUP_SYNCHRONE_OTHER_LOAD": "Load from server",
  "BANK_REWARD_STARTERPACK": "Starter Pack",
  "BANK_REWARD_FUNPACK": "Fun Pack",
  "BANK_REWARD_SUPERPACK": "Super Pack",
  "BANK_REWARD_MEGAPACK": "Mega Pack",
  "BANK_REWARD_GIANTPACK": "Giant Pack",
  "BANK_REWARD_CHAMPIONPACK": "Champion Pack",
  "MATCH3_LEVEL": "Lv. {0}",
  "POPUP_NOTIFICATIONSINFORMATION_CAPTION": "Notification",
  "POPUP_NOTIFICATIONSINFORMATION_DESCRIPTION": "Включите уведомления,чтобы всегда быть в курсе событий в парке!",
  "POPUP_LATER_STRING_BUTTON": "Later",
  "POPUP_SEND_LETTER_1": "Муниципалитет города и община строителей обратили внимание на Ваши старания и высылает Вам небольшую материальную помощь для развития парка!\r\n",
  "POPUP_MISSION_BRIEFING_CAPTION_GRIND": "Level {0}/{1}",
  "POPUP_LETTER_1": "Здравствуйте!",
  "POPUP_LETTER_2": "Муниципалитет города и община строителей обратили внимание на Ваши старания и высылает Вам небольшую материальную помощь для развития парка!",
  "POPUP_LETTER_3": "Бэнджамин",
  "FACEBOOK_CONNECTED": "Connected",
  "FACEBOOK_SEND_LIFE_FRIEND": "Send a Life to a Friend!",
  "FACEBOOK_LIFE_FOR_YOU": "Here's a life for you! Have a nice day!",
  "FACEBOOK_ASK_LIFE": "Ask for Lives!",
  "FACEBOOK_OUT_OF_LIVES": "I'm out of lives. Would you mind sending me one?",
  "FACEBOOK_CONNECTION_LOST": "Connection Lost",
  "FACEBOOK_CONNECTION_CHECK": "Please check your internet connection and try again.",
  "FACEBOOK_CONNECTION_RETRY": "Retry",
  "FACEBOOK_INVITE_TITLE": "Invite friends",
  "FACEBOOK_INVITE_MESSAGE": "Play with your friends!",
  "RATE_US_HAPPY": "Happy",
  "RATE_US_CONFUCED": "Confused",
  "RATE_US_UNHAPPY": "Unhappy",
  "RATE_US_TEXT": "- How do you feel about the game?",
  "POPUP_GDPR_CONFIRMATION_DESCRIPTION": "By tapping CONTINUE, you agree to Dream Team's Terms of Service and acknowledge Dream Team's Privacy Policy applies.",
  "POPUP_GDPR_CONFIRMATION_TITLE": "Welcome!",
  "POPUP_GDPR_CONFIRMATION_CONTINUE": "Continue",
  "POPUP_GDPR_ABOUT_DESCRIPTION": "Dream Team: Fun Story (TM). All rights reserved.\nPlease view privacy policy and terms of usage.",
  "POPUP_GDPR_ABOUT_TITLE": "About",
  "POPUP_GDPR_ADSCONSENT_DESCRIPTION": "Want to see personalized ads while playing the game? If yes, please allow our ad partners to collect and process the data about your device. Check out our privacy policy to learn who our ad partners are and what kind of data they collect. You must be at least 16 years old to agree, and you may opt-out of personalized ads at any time by following the instructions in our privacy policy.",
  "POPUP_GDPR_ADSCONSENT_TITLE": "Important information",
  "POPUP_GDPR_ADSCONSENT_YES": "Yes",
  "POPUP_GDPR_ADSCONSENT_NO": "No",
  "PRIVACY_POLICY_TEXT": "PRIVACY POLICY",
  "TERMS_OF_SERVICE_TEXT": "TERMS OF SERVICE",
  "POPUP_MISSION_HARD_BRIEFING_CAPTION": "Hot Level {0}",
  "POPUP_MISSION_EXTRAHARD_BRIEFING_CAPTION": "Super Hot Level {0}",
  "POPUP_MISSION_HARD_BRIEFING_CAPTION_GRIND": "Hot Level {0}/{1}",
  "POPUP_MISSION_EXTRAHARD_BRIEFING_CAPTION_GRIND": "Super Hot Level {0}/{1}",
  "MATCH3_FINISH_TAP_TO_SKIP": "Нажмите, чтобы продолжить",
  "NOTIFICATION_RETENTION_TITLE": "Please return to Fun Story",
  "NOTIFICATION_RETENTION_0": "Без тебя Бэтти не знает, что делать! Помоги ей!",
  "NOTIFICATION_RETENTION_1": "Возвращайся и покажи мастерство! Сумеешь ли пройти уровень @level?",
  "NOTIFICATION_RETENTION_2": "Жителям по душе, когда ты в парке! Возвращайся!",
  "NOTIFICATION_RETENTION_3": "В парке тебя заждались! Вернись в игру.",
  "NOTIFICATION_RETENTION_4": "Без тебя Бэтти не знает, что делать! Помоги ей!",
  "NOTIFICATION_RETENTION_5": "Возвращайся и покажи мастерство! Сумеешь ли пройти уровень @level?",
  "NOTIFICATION_RETENTION_6": "Жителям по душе, когда ты в парке! Возвращайся!",
  "NOTIFICATION_FORTUNE_WHEEL": "Испытай удачу - зайди и покрути колесо фортуны!",
  "NOTIFICATION_LIVES": "Твои жизни восстановлены. ❤️ Давай играть!",
  "NOTIFICATION_ENDLESS_GRIND": "Сундуки ждут тебя - возвращайся!",
  "CHARACTER_NAMES": "Names",
  "CHARACTER_BETTY": "Betty",
  "CHARACTER_BENJAMIN": "Benjamin",
  "CHARACTER_BOB": "Bob",
  "CHARACTER_DICKENS": "Dickens",
  "CHARACTER_JOHN": "John",
  "CHARACTER_RACHEL": "Rachel",
  "CHARACTER_RALPH": "Ralph",
  "CHARACTER_RICHIE": "Richie",
  "CHARACTER_SUE": "Sue",
  "CHARACTER_INTRO": "Intro",
  "INTRO_BETTY": "Это Бэтти - главный менеджер по строительству и дизайну парка",
  "INTRO_BENJAMIN": "Это Бэнджамин, аукционер Дайсон-Сити",
  "INTRO_BOB": "Это Боб, он мастер на все руки и давний друг Бэтти, именно он помог ей починить ее первый велосипед",
  "INTRO_DICKENS": "Котенок Ральфа и пушистый сторож парка, охраняющий его от нападения крыс и мышей",
  "INTRO_JOHN": "Джон - лучший садовник Дайсон-Сити. Учился с Бэтти в одном классе. Влюблен в нее со школьных времен",
  "INTRO_RACHEL": "Это Рейчел - младший корреспондент газеты Вестник Дайсона",
  "INTRO_RALPH": "Ральф - администратор парка развлечений. Помощник и наставник Линды.",
  "INTRO_RICHIE": "Это Ричи Даймонд владелец недвижимости и земельных участков Дайсон-Сити",
  "INTRO_SUE": "Тетя Бэтти. Заменила ей родителей, когда та переехала в Дайсон-Сити",
  "LOCATION_COMMON_AN_HOUR": "Час спустя",
  "LOCATION_COMMON_BOUGHT": "BOUGHT",
  "LOCATION_COMMON_COMPLETE_AREA": "Участок завершен!",
  "LOCATION_COMMON_LOCATION_LOCKED": "Perform tasks to open new territories",
  "LOCATION_COMMON_NEW_DAY": "NEW DAY!",
  "LOCATION_COMMON_SOME_TIME": "Некоторое время спустя...",
  "COMMON_FORMAT_STRING_0": "{0}",
  "TUTOR_MATCH3_1_1": "Собирайте 3 одинаковые фишки в ряд, чтобы убрать их с поля.",
  "TUTOR_MATCH3_1_2": "Отлично! Продолжайте собирать фишки, чтобы пройти уровень.",
  "TUTOR_MATCH3_2_1": "@player_name,  давайте посмотрим, что произойдет, если если объединить 4 фишки.",
  "TUTOR_MATCH3_2_2": "Чудесно! У нас появился новый бонус <color=#008000ff>Петарда</color>. Поменяйте его местами с соседней фишкой, чтобы взорвать.",
  "TUTOR_MATCH3_2_3": "Давайте сделаем еще одну <color=#008000ff>Петарду</color>. @player_name, соедините эти 4 фишки.",
  "TUTOR_MATCH3_2_4": "Чтобы активировать любой бонус, достаточно дважды тапнуть на него. Попробуйте!",
  "TUTOR_MATCH3_2_5": "Великолепно! Скорее пройдите уровень, чтобы приступить к следующему. Вас ждет еще много интересного!",
  "TUTOR_MATCH3_3_1": "Давайте попробуем собрать еще один бонус. Объедините эти 5 фишек.",
  "TUTOR_MATCH3_3_2": "Эта маленькая Бомбочка может сделать большой ба-бах! Давайте ее активируем.",
  "TUTOR_MATCH3_3_3": "Вы получите <color=#008000ff>Бомбу</color> за любую комбинацию из 5 фишек. Не теряйте времени и попробуйте!",
  "TUTOR_MATCH3_3_4": "Не будем останавливаться на достигнутом, давайте еще одну!",
  "TUTOR_MATCH3_3_5": "Вы молодец, @player_name! Расскажу маленький секрет - чем больше фишек объедините, тем мощнее будет бонус!",
  "TUTOR_MATCH3_3_6": "<color=#008000ff>Динамит</color>, очень мощный бонус, его вы можете собрать из 6 фишек, а радиус его действия будет целых 3 клетки!",
  "TUTOR_MATCH3_3_7": "<color=#008000ff>ТНТ</color> - самый мощный бонус, но и получить его непросто, надо собрать комбинацию из 7 и более фишек. Результат вас поразит!",
  "TUTOR_MATCH3_4_1": "Следите за числом <color=#008000ff>ходов</color> на уровне - оно ограничено!",
  "TUTOR_MATCH3_4_2": "Каждое использование бонуса на поле заряжает <color=#008000ff>Магическую шляпу</color>. Зарядите ее полностью - вам это понравится!",
  "TUTOR_MATCH3_4_3": "<color=#008000ff>Магическая шляпа</color> готова к использованию. Поменяйте ее местами с фишкой и уберите с поля все фишки этого типа.",
  "TUTOR_MATCH3_POPKORN": "Опустите весь <color=#008000ff>попкорн</color> вниз и завершите уровень.",
  "TUTOR_MATCH3_BOXES": "Уничтожайте <color=#008000ff>ящики</color>, собирая рядом комбинации из фишек и взрывая бонусы.",
  "TUTOR_MATCH3_BUBLE_GUM": "Активируйте <color=#008000ff>баблгам-машины</color>, собирая рядом комбинации из фишек и используя бонусы.",
  "TUTOR_MATCH3_CHAINS": "Разбивайте <color=#008000ff>цепи</color>, собирая комбинации одинаковых фишек, либо используя бонусы.",
  "TUTOR_MATCH3_BEARS": "Освободите <color=#008000ff>медвежат</color>, собирая комбинации из фишек и используя бонусы.",
  "TUTOR_MATCH3_BEARS_1": "Освободите <color=#008000ff>медвежат</color>, собирая комбинации из фишек и используя бонусы.",
  "TUTOR_MATCH3_BEARS_2": "Отлично! Найдите всех <color=#008000ff>медведей</color>, чтобы пройти уровень.",
  "TUTOR_MATCH3_BALL": "Уберите <color=#008000ff>мячи</color>, собирая рядом комбинации из фишек и используя бонусы.",
  "TUTOR_MATCH3_ICE": "Растопите <color=#008000ff>лед</color>, собирая комбинации соответствующих фишек и используя бонусы.",
  "TUTOR_MATCH3_CONVEYOR": "<color=#008000ff>Конвейер</color> двигается вместе с фишками каждый ход.",
  "TUTOR_MATCH3_WALLS": "Разрушайте <color=#008000ff>стены</color>, используя бонусы.",
  "TUTOR_MATCH3_COLOR_BOXES": "Для уничтожения <color=#008000ff>цветных коробок</color> собирайте комбинации из фишек того же цвета, что и коробки.",
  "TUTOR_MATCH3_FRISBI": "Получайте дополнительные ходы собирая рядом комбинации из фишек и используя бонусы",
  "TUTOR_MATCH3_JAM": "Чтобы убрать <color=#008000ff>джем</color>, каждый ход собирайте рядом комбинации из фишек и используйте бонусы.",
  "TUTOR_MATCH3_STONE": "<color=#008000ff>Кирпич</color> очень крепкий, для его уничтожения используйте бонусы.",
  "TUTOR_MATCH3_SAND_AND_KEYS": "Убирайте <color=#008000ff>песок</color>, составляя рядом с ним комбинации из фишек.",
  "TUTOR_MATCH3_LOVER": "Соберите <color=#008000ff>пончики</color>, составляя рядом комбинации из фишек и используя бонусы.",
  "TUTOR_MATCH3_CARS": "Зарядите <color=#008000ff>машинки</color> собирая комбинации из фишек одинаковых цветов.",
  "TUTOR_MATCH3_STATUE": "Используйте бонусы рядом с <color=#008000ff>камнями</color>, чтобы создавать статуи.",
  "TUTOR_MATCH3_FIREWORKS": "Собирайте комбинации из фишек вместе с <color=#008000ff>фейерверками</color>, чтобы активировать их.",
  "TUTOR_MATCH3_MANTIA": "Соберите необходимое количество соответствующих  фишек, чтобы снять <color=#008000ff>мантию</color>.",
  "TUTOR_MATCH3_HAMMER": "С помощью молотка Вы можете убрать любую фишку с поля, ударив по ней.",
  "TUTOR_MAIN_NOTEBOOK": "Это - мой блокнот. @player_name, я сюда записываю все наши задачи на сегодняшний день.",
  "TUTOR_MAIN_NOTEBOOK_1": "Давайте отреставрируем вход в парк. Для этого нажмите вот сюда.",
  "TUTOR_MAIN_DECOR_1": "Нажмите на любую из крыш и удерживайте палец на экране, чтобы активировать режим кастомизации объекта",
  "TUTOR_MAIN_DECOR_2": "@player_name, а давай-ка теперь разукрасим наш вход в парк так, как хочется Вам. Давай попробуем начать с крыши",
  "TUTOR_MAIN_DECOR_3": "Нажмите на любую из крыш и удерживайте палец на экране, чтобы активировать режим кастомизации объекта",
  "TUTOR_MAIN_DECOR_4": "Как вы думаете, @player_name, какая расцветка будет смотреться лучше всего?",
  "TUTOR_MAIN_DECOR_5": "Просто невероятное сочетание! @player_name, под вашим руководством парк превратиться в настоящее произведение искусства.",
  "TUTOR_MAIN_DECORATION_1": "Кстати, Вы в любой момент можете поменять декорации в <color=#008000ff>нашем парке</color>!",
  "TUTOR_MAIN_FINISH_DAY": "Замечательно, @player_name, мы выполнили все задачи на сегодня, теперь можете забрать заслуженную <color=#008000ff>награду</color>!",
  "TUTOR_MAIN_FORTUNE_WHEEL": "@player_name, давайте крутанем <color=#008000ff>колесо фортуны</color>. Я думаю вам обязательно повезет!",
  "TUTOR_BOOSTER_BOMB": "Воспользуйтесь этим бустером, чтобы начать уровень с <color=#008000ff>двумя Бомбами</color>.",
  "TUTOR_BOOSTER_MAGIC_HAT": "Воспользуйтесь этим бустером, чтобы начать уровень с <color=#008000ff>Магической Шляпой</color>.",
  "TUTOR_BOOSTER_DYNAMITE_AND_MAGIC_HAT": "Воспользуйтесь этим бустером, чтобы начать уровень с <color=#008000ff>Динамитом и Магической Шляпой</color>.",
  "TUTOR_MAIN_KLUMBA": "Давайте пересадим эту клумбу",
  "LOCATION_INTERACTION_LANTERN_0": "Как хорошо, что мы сделали фонари @player_name, теперь вечером - светло как днем",
  "LOCATION_INTERACTION_LANTERN_1": "Фонари отлично вписываются в общую композицию, правда, @player_name?",
  "LOCATION_INTERACTION_LANTERN_2": "Ах! При свете фонарей парк выглядит таким загадочным и волшебным.",
  "LOCATION_INTERACTION_LANTERN_3": "Наши фонари светят ярче, чем фонари на центральной городской площади.",
  "LOCATION_INTERACTION_LANTERN_3_2": "Неужели мэр экономит на электричестве?",
  "LOCATION_INTERACTION_BENCH_1": "Можно присесть и отдохнуть, но совсем не долго",
  "LOCATION_INTERACTION_BENCH_2": "Очень удобно, думаю посетителям понравится.",
  "LOCATION_INTERACTION_BENCH_3": "Чудесная скамейка! Жаль только массаж спины не делает.",
  "LOCATION_INTERACTION_BENCH_4": "Когда я была маленькой, то умудрилась приклеиться к свежевыкрашенной скамейке.",
  "LOCATION_INTERACTION_BENCH_5": "Люблю деревянные скамейки. Каменные слишком холодные, а пластиковые - неуютные.",
  "LOCATION_INTERACTION_BENCH_OLD_1": "Это же насколько надо устать, чтобы присесть на такую лавочку?!",
  "LOCATION_INTERACTION_BENCH_OLD_2": "Интересно, сколько людей посидело на этой скамейке, пока она тут стоит?Тысяча?",
  "LOCATION_INTERACTION_ENTRANCE_1": "И Ваш любимый парк снова открыт!",
  "LOCATION_INTERACTION_ENTRANCE_2": "Хотя, может по другому?",
  "LOCATION_INTERACTION_ENTRANCE_3": "Добро пожаловать в Парк Развлечений!",
  "LOCATION_INTERACTION_ENTRANCE_4": "Да, так лучше.",
  "LOCATION_INTERACTION_ENTRANCE_5": "Каждый раз, когда я вхожу в парк, появляется ощущение праздника.",
  "LOCATION_INTERACTION_ENTRANCE_6": "Привет, единорожки! Я тоже вам рада!",
  "LOCATION_INTERACTION_ENTRANCE_7": "Если театр начинается с вешалки, то парк отдыха - с нарядного входа.",
  "LOCATION_INTERACTION_UNICORNS_1": "Знаете, @player_name, а ведь в школе мы любили водить хороводы",
  "LOCATION_INTERACTION_UNICORNS_2": "Как приятно вспомнить веселые деньки, а теперь давайте вернемся к работе",
  "LOCATION_INTERACTION_PHONE_1": "У Вас не будет монетки, @player_name? А, впрочем, телефон все равно не работает",
  "LOCATION_INTERACTION_PHONE_2": "Вот досада: телефон решил поиграть со мной в \"молчанку\".",
  "LOCATION_INTERACTION_PHONE_3": "В трубке - тишина. Это с аппаратом проблемы или на телефонной станции?",
  "LOCATION_INTERACTION_PHONE_NEW_1": "@player_name, мне показалось или телефон только что позвонил?",
  "LOCATION_INTERACTION_PHONE_NEW_2": "Алло, здравствуйте! Нет, это не цирк, а городской парк. ",
  "LOCATION_INTERACTION_PHONE_NEW_2_2": "Но скоро у нас будет так же весело. Приходите!",
  "LOCATION_INTERACTION_PHONE_NEW_3": "Алло, добрый день! Хочу ли я полететь на Марс?",
  "LOCATION_INTERACTION_PHONE_NEW_3_2": "Это такая шутка? Ах, опрос для газеты. Хм, а почему бы и нет?",
  "LOCATION_INTERACTION_PHONE_NEW_4": "Добрый день! Метеостанция? Подскажите, пожалуйста, точный прогноз на завтра.",
  "LOCATION_INTERACTION_FOUNTAIN_1": "Раз!",
  "LOCATION_INTERACTION_FOUNTAIN_2": "Два!",
  "LOCATION_INTERACTION_FOUNTAIN_3": "Три!",
  "LOCATION_INTERACTION_FOUNTAIN_4": "Ах, я бы могла танцевать целый день возле этого фонтана!",
  "LOCATION_INTERACTION_FOUNTAIN_5": "@player_name, а Вы любите танцевать?",
  "LOCATION_INTERACTION_FOUNTAIN_6": "@player_name, смотрите, как скульптор точно передал сходство с оригиналом! ",
  "LOCATION_INTERACTION_FOUNTAIN_7": "Ой, а я только вчера видела эту знаменитость по телевизору!",
  "LOCATION_INTERACTION_FOUNTAIN_8": "Журчание фонтана очень умиротворяет. Так бы и слушала.",
  "LOCATION_INTERACTION_FOUNTAIN_OLD_1": "Что это на дне фонтана? Монетка? Наверное кто-то бросил на счастье.",
  "LOCATION_INTERACTION_GRAMOPHONE_1": "Очень заводная песня, не возможно пройти мимо!",
  "LOCATION_INTERACTION_GRAMOPHONE_2": "@player_name, а у вас большая коллекция пластинок?",
  "LOCATION_INTERACTION_GRAMOPHONE_3": "На этом граммофоне моя любимая композиция звучит потрясающе!",
  "LOCATION_INTERACTION_GRAMOPHONE_4": "@player_name, узнаете? Первый альбом \"Поющей четверки\".",
  "LOCATION_INTERACTION_ICECREAM_1": "Что же взять? Может фисташковое?",
  "LOCATION_INTERACTION_ICECREAM_2": "@player_name, а вы бы рискнули съесть на спор десять стаканчиков мороженого?",
  "LOCATION_INTERACTION_ICECREAM_3": "Жаль, что мороженое такое калорийное: ела бы его на завтрак, обед и ужин.",
  "LOCATION_INTERACTION_INFO_1": "Так, скоро открытие...",
  "LOCATION_INTERACTION_INFO_2": "Нужно срочно обновить афишу!",
  "LOCATION_INTERACTION_INFO_3": "Афиша без плакатов и расписаний, хуже чем сломанный телевизор. ",
  "LOCATION_INTERACTION_INFO_NEW_1": "Отличная афиша! Почти как картина - смотришь и не оторваться. ",
  "LOCATION_INTERACTION_FLOWERS_1": "Очень красивые цветы, надо посадить такие же дома.",
  "LOCATION_INTERACTION_FLOWERS_2": "Такие же цветы выращивала мама на ферме.",
  "LOCATION_INTERACTION_FLOWERS_3": "До чего симпатичный цветок! Как же он называется?",
  "LOCATION_INTERACTION_FLOWERS_4": "Какой приятный аромат от цветов с этой клумбы. Мне бы такие духи!",
  "LOCATION_INTERACTION_FLOWERS_OLD_1": "Эти кусты наводят на мысль о засухе или пустыне. ",
  "LOCATION_INTERACTION_FLOWERS_OLD_2": "Охо-хо, без присмотра бедные растения совсем засохли и пожелтели.",
  "LOCATION_INTERACTION_BROOM_1": "Недавно только убирала!",
  "LOCATION_INTERACTION_BROOM_2": "Ничего труд - облагораживает. Вот так значительно лучше!",
  "LOCATION_02_INTERACTION_ADMINHOUSE_OLD_1": "Ох, косметическим ремонтом здесь явно не обойдешься. Надо всё перестраивать.",
  "LOCATION_02_INTERACTION_ADMINHOUSE_OLD_2": "Пожалуй, внутрь я заходить не стану: вдруг пол проломится или крыша рухнет.",
  "LOCATION_02_INTERACTION_ADMINHOUSE_NEW_1": "Вы только посмотрите: не дом, а дворец!",
  "LOCATION_02_INTERACTION_ADMINHOUSE_NEW_2": "Не знаю, что это за архитектуный стиль, но выглядит потрясающе!",
  "LOCATION_02_INTERACTION_BENCH_NEW_1": "Отлично: краска на скамейках высохла. Наконец-то можно присесть.",
  "LOCATION_02_INTERACTION_BENCH_NEW_2": "Из всех вариантов, эти лавочки - самые симпатичные.",
  "LOCATION_02_INTERACTION_BENCH_NEW_3": "Закончу рабочий день, обязательно посижу подольше.",
  "LOCATION_02_INTERACTION_LANTERN_NEW_1": "С новыми фонарями вечером в парке станет намного уютней.",
  "LOCATION_02_INTERACTION_LANTERN_NEW_2": "Ура! С таким освещением можно хоть всю ночь веселиться.",
  "LOCATION_02_INTERACTION_RADIOPOINT_OLD_1": "Когда мы починим радиорубку, можно я сделаю какое-нибудь объявление? Спасибо!",
  "LOCATION_02_INTERACTION_RADIOPOINT_NEW_1_1": "Раз-два. Проверка микрофона. Порядок! ",
  "LOCATION_02_INTERACTION_RADIOPOINT_NEW_1_2": "Можно начинать музыкальную трансляцию. Поставлю-ка я что-нибудь бодрое. ",
  "LOCATION_02_INTERACTION_LOUDSPEAKERS_OLD_1_1": "Эти громокоговорители стоят в парке лет тридцать-сорок.",
  "LOCATION_02_INTERACTION_LOUDSPEAKERS_OLD_1_2": "Помню, как в одном из рупоров свила гнездо какая-то птица. ",
  "LOCATION_02_INTERACTION_LOUDSPEAKERS_NEW_1": "А вам не кажется, что правый громкоговоритель, звучит громче левого? Нет? О'кей.",
  "LOCATION_02_INTERACTION_LAWN_OLD_1": "Газоны сейчас не в лучшем виде, но обещаю, что приведу их в порядок.",
  "LOCATION_02_INTERACTION_LAWN_OLD_2": "Какие цветы будем сажать? Анемоны, флоксы, гортензии? А может быть розы?",
  "LOCATION_02_INTERACTION_LAWN_NEW_1": "Какой аромат! Будь я пчелкой, полетела бы собирать нектар на ту клумбу.",
  "LOCATION_02_INTERACTION_LAWN_NEW_2": "Пусть это прозвучит нескромно, но по-моему, газоны выглядят идеально. ",
  "LOCATION_02_INTERACTION_TREES": "Мое любимое дерево - клен. А ваше?",
  "LOCATION_02_INTERACTION_POPCORNBOOTH_1_1": "Вот здорово: новый автомат готовит попкорн просто молниеносно!",
  "LOCATION_02_INTERACTION_POPCORNBOOTH_1_2": "О! А наш попкорн вкуснее, чем в городском кинотеатре.",
  "LOCATION_02_INTERACTION_ICECREAMBOOTH_1": "В таком большом киоске запасов мороженого хватит на месяц.",
  "LOCATION_02_INTERACTION_ICECREAMBOOTH_2": "Какой аппетитный дизайн: на киоск только глянешь, и сразу мороженого хочется.",
  "LOCATION_02_INTERACTION_TICKETBOX_OLD_1": "А было время, когда входной билет в парк стоил пять центов. Даже не верится. ",
  "LOCATION_02_INTERACTION_TICKETBOX_OLD_2": "Если сделать кассу в виде ракеты, то может нарядить кассира астронавтом? ",
  "LOCATION_02_INTERACTION_TICKETBOX_NEW_1": "На билеты для детей и школьников у нас есть хорошая скидка. ",
  "LOCATION_02_INTERACTION_TICKETBOX_NEW_2": "Касса готова, осталось нанять кассира.",
  "LOCATION_02_INTERACTION_CAROUSELLE_OLD_1": "Интересно, сколько миль накрутили эти лошадки за свою жизнь?",
  "LOCATION_02_INTERACTION_CAROUSELLE_OLD_2": "Когда я была ребенком, могла кататься на карусели с утра до вечера. ",
  "LOCATION_02_INTERACTION_CAROUSELLE_OLD_3": "А вы знали, что карусель изобрели во Франции, в восемнадцатом веке?",
  "LOCATION_02_INTERACTION_CAROUSELLE_NEW_1": "Отличный аттракцион для будущих астронавтов.",
  "LOCATION_02_INTERACTION_CAROUSELLE_NEW_2": "На чем бы мне прокатиться? На спутнике или на летающей тарелке?",
  "LOCATION_02_INTERACTION_CAROUSELLE_NEW_3": "Хьюстон, докладываю: межзвездная карусель к старту готова.",
  "LOCATION_02_INTERACTION_CAROUSELLE_NEW_4": "Как бы назвать новый аттракцион? \"Покорители космоса\"? \"Погоня в космосе\"? ",
  "LOCATION_02_INTERACTION_CAROUSELLE_LIGHTS_1": "Думаю, что в темноте карусель будет немножко похожа на НЛО. ",
  "LOCATION_02_INTERACTION_CAROUSELLE_LIGHTS_2": "Огоньки карусели так загадочно подмигивают... словно передают тайный сигнал.",
  "LOCATION_02_INTERACTION_GARLAND_1": "Хотите создать праздничную атмосферу? Развесьте гирлянды!",
  "LOCATION_02_INTERACTION_GARLAND_2": "Вот смотрю на гирлянды и сразу вспоминается Рождество, елка, подарки. ",
  "LOADING_TIP_01": "Вы всегда можете сменить имя игрока в настройках",
  "LOADING_TIP_02": "Выигрывайте больше монет проходя сложные уровни!",
  "LOADING_TIP_03": "Составляйте комбинации с большим количеством фишек чтобы получить бонус!",
  "LOADING_TIP_04": "Забыли задачи на повестке дня? Не беда! У Бетти в планешете все записано",
  "LOADING_TIP_05": "Использование Петарды, Бомбы, Динамита и TNT накапливает заряд Магической шляпы",
  "LOADING_TIP_06": "Персонажи в вашем парке живут собственной жизнью. За ними можно наблюдать часами!",
  "LOADING_TIP_07": "Следите за сообщениями на официальной страничке в Facebook и узнавайте все новости первым!",
  "LOADING_TIP_08": "Подключайтесь к Facebook и обменивайтесь жизнями с друзьями!",
  "LOADING_TIP_09": "Магическая шляпа убирает одинаковые фишки с поля",
  "LOADING_TIP_10": "Чем меньше ходов вы потратите на этапе match-3, тем больше монет заработаете",
  "LOADING_TIP_11": "Несколько одновременных взрывов дадут больше заряда Магической шляпе, чем одиночные",
  "LOADING_TIP_12": "Если у вас закончились жизни, попросите их у друзей!",
  "LOADING_TIP_13": "Вы всегда можете помочь своим друзьям, отослав им немного жизней!",
  "LOADING_TIP_14": "Чтобы изменить внешний вид декорации, удерживайте на ней палец на протяжении нескольких секунд",
  "LOADING_TIP_15": "Бонус можно активировать двойным нажатием по нему"
}