%YAML 1.1
%TAG !u! tag:unity3d.com,2011:
--- !u!114 &11400000
MonoBehaviour:
  m_ObjectHideFlags: 0
  m_CorrespondingSourceObject: {fileID: 0}
  m_PrefabInternal: {fileID: 0}
  m_GameObject: {fileID: 0}
  m_Enabled: 1
  m_EditorHideFlags: 0
  m_Script: {fileID: 11500000, guid: a6b194f808b1af6499c93410e504af42, type: 3}
  m_Name: unicorn_right_Atlas
  m_EditorClassIdentifier: 
  atlasFile: {fileID: 4900000, guid: 381327c9665f76245b38734152c29455, type: 3}
  materials:
  - {fileID: 2100000, guid: a8598f4650f3eff46a319718ab301d0f, type: 2}
  - {fileID: 2100000, guid: 07a8c9acc9a01484da1cdc6b460a0d0d, type: 2}
  - {fileID: 2100000, guid: ba1b0e43c23399f4ea659e446555b7ec, type: 2}
  - {fileID: 2100000, guid: b1b432cad2e4c8e43a1eced7027128d7, type: 2}
