%YAML 1.1
%TAG !u! tag:unity3d.com,2011:
--- !u!114 &11400000
MonoBehaviour:
  m_ObjectHideFlags: 0
  m_CorrespondingSourceObject: {fileID: 0}
  m_PrefabInternal: {fileID: 0}
  m_GameObject: {fileID: 0}
  m_Enabled: 1
  m_EditorHideFlags: 0
  m_Script: {fileID: 11500000, guid: 94f6baaae75c4726bd576314e22a82fc, type: 3}
  m_Name: Group02_Chain04
  m_EditorClassIdentifier: 
  _backgroundSettings: {fileID: 11400000, guid: 0d5143bb5e1db204f91624281286024e,
    type: 2}
  _levels:
  - {fileID: 11400000, guid: 030b8005decd5ff4eab1d92a283a7826, type: 2}
  - {fileID: 11400000, guid: f7b0f89c84674cd4da75b9997786f195, type: 2}
  - {fileID: 11400000, guid: bc97e4ef08731b94491e2903ebfc5c61, type: 2}
  - {fileID: 11400000, guid: a17762da67baafc46aaf0929f43199ec, type: 2}
  - {fileID: 11400000, guid: 800c1c2539217814bb93662b883a728d, type: 2}
  - {fileID: 11400000, guid: 3321ee218af61e14b9c7809fd4a2a29e, type: 2}
  - {fileID: 11400000, guid: aa0d52913808a0b44a9717669facb9e7, type: 2}
  - {fileID: 11400000, guid: c71e574ca859e2a4196b4a2ac8cf1e6f, type: 2}
  - {fileID: 11400000, guid: 4839946bd93f08b4ea52147f9d56ec07, type: 2}
  - {fileID: 11400000, guid: cc038c8e06072d64fb380a20a71a3652, type: 2}
  - {fileID: 11400000, guid: 688e6a2f76a43424a89f83dd4c56c2cc, type: 2}
  - {fileID: 11400000, guid: f6656c1f4f34d9f4e8a37054a80905a3, type: 2}
  - {fileID: 11400000, guid: 3fde7196bfe812740a66c39177915b2d, type: 2}
  - {fileID: 11400000, guid: 57bf5be14fe48804cbfc3300a06a9c27, type: 2}
  - {fileID: 11400000, guid: cce97978a89d76644920b11ce18cd0cd, type: 2}
