%YAML 1.1
%TAG !u! tag:unity3d.com,2011:
--- !u!221 &22100000
AnimatorOverrideController:
  m_ObjectHideFlags: 0
  m_CorrespondingSourceObject: {fileID: 0}
  m_PrefabInternal: {fileID: 0}
  m_Name: Loc02PopcornBoothController
  m_Controller: {fileID: 9100000, guid: c65125f126ffd204f899a9254172cf6c, type: 2}
  m_Clips:
  - m_OriginalClip: {fileID: 7400000, guid: 5d196252f3e997547b3f0b0439222efe, type: 2}
    m_OverrideClip: {fileID: 74384101898827764, guid: 9f38a3ac38a3071469c8f69fba0d22a7,
      type: 2}
  - m_OriginalClip: {fileID: 7400000, guid: 6b591829a2156374e86b197018915ce4, type: 2}
    m_OverrideClip: {fileID: 74250505386822886, guid: 9f38a3ac38a3071469c8f69fba0d22a7,
      type: 2}
  - m_OriginalClip: {fileID: 7400000, guid: 16b0e4ef16885e94faa3e5fc1ac4dfb9, type: 2}
    m_OverrideClip: {fileID: 74082794837982706, guid: 9f38a3ac38a3071469c8f69fba0d22a7,
      type: 2}
