%YAML 1.1
%TAG !u! tag:unity3d.com,2011:
--- !u!687078895 &4343727234628468602
SpriteAtlas:
  m_ObjectHideFlags: 0
  m_CorrespondingSourceObject: {fileID: 0}
  m_PrefabInternal: {fileID: 0}
  m_Name: FortuneWheel
  m_EditorData:
    serializedVersion: 2
    textureSettings:
      serializedVersion: 2
      anisoLevel: 1
      compressionQuality: 50
      maxTextureSize: 2048
      textureCompression: 0
      filterMode: 1
      generateMipMaps: 0
      readable: 0
      crunchedCompression: 0
      sRGB: 1
    platformSettings: []
    packingSettings:
      serializedVersion: 2
      padding: 4
      blockOffset: 1
      allowAlphaSplitting: 0
      enableRotation: 0
      enableTightPacking: 0
    variantMultiplier: 1
    packables:
    - {fileID: 102900000, guid: faf116f1ecbf45943b5bded07f0d2841, type: 3}
    bindAsDefault: 1
  m_MasterAtlas: {fileID: 0}
  m_PackedSprites:
  - {fileID: 21300000, guid: 2aad6b60bb5865e4ab3ecc0dcf3df534, type: 3}
  - {fileID: 21300000, guid: a342d38002169544c954836f5dd97c5e, type: 3}
  - {fileID: 21300000, guid: 7e757480dc345f7479449bec3574795c, type: 3}
  - {fileID: 21300000, guid: 1af20e953eb7c1b49be99d5f686e0b52, type: 3}
  - {fileID: 21300000, guid: ff03bba5c6bfea542a19ff5bfc966cce, type: 3}
  - {fileID: 21300000, guid: 48ad47d683e883a45889ba9bc5aae792, type: 3}
  - {fileID: 21300000, guid: c2f8c2f84cd80704cadad1ca633f3c61, type: 3}
  - {fileID: 21300000, guid: 599f39897a995724a9e62d8a8b0c90e3, type: 3}
  - {fileID: 21300000, guid: 3883fc3a8e75efc4abed5b645796b1b8, type: 3}
  - {fileID: 21300000, guid: 6ee1379bdb8c944478846a6c08ea3379, type: 3}
  - {fileID: 21300000, guid: 6a09587c92dfff64fa5baf8d0e4cb2f8, type: 3}
  - {fileID: 21300000, guid: 6f802edc1314fcd4fb683d95ce649827, type: 3}
  - {fileID: 21300000, guid: be06e1bd021f5b3479adc1a457a4479e, type: 3}
  - {fileID: 21300000, guid: 3a45bcfddde2cfd43b9483ecbb857ab2, type: 3}
  - {fileID: 21300000, guid: f621ce1e3c1b19b4184c1d20e90c5053, type: 3}
  - {fileID: 21300000, guid: 21153dee8876d6c42aed325257ea2e6e, type: 3}
  m_PackedSpriteNamesToIndex:
  - FW_flag_01
  - FWicon_2bombs_01
  - FW_Stick_01
  - FWicon_hammer_01
  - FWicon_coin_01
  - FW_Stick_shadow_01
  - FW_lighter_bright_01
  - FWicon_jackpot_01
  - FWicon_hat_01
  - FW_flag_shadow_01
  - FortunaWheel_frame_01
  - FWbubble_01
  - FWicon_hat&dyno_01
  - FortunaWheel_back_01
  - FW_lighter_01
  - FWicon_heart_01
  m_Tag: FortuneWheel
  m_IsVariant: 0
