%YAML 1.1
%TAG !u! tag:unity3d.com,2011:
--- !u!114 &11400000
MonoBehaviour:
  m_ObjectHideFlags: 0
  m_CorrespondingSourceObject: {fileID: 0}
  m_PrefabInternal: {fileID: 0}
  m_GameObject: {fileID: 0}
  m_Enabled: 1
  m_EditorHideFlags: 0
  m_Script: {fileID: 11500000, guid: a944d4feb941a2c46a950328dc46845c, type: 3}
  m_Name: OutOfMovesMagicHat
  m_EditorClassIdentifier: 
  _cheatIncrement: 5
  _id: out_of_moves_magic_hat
  _startCount: 0
  _maxCount: 2147483647
  _icon: {fileID: 21300000, guid: 89668299e70cc024caba95fd5649fef5, type: 3}
  _notEnoughPopupScene:
    _path: 
    _guid: 
  _maxCountPopupScene:
    _path: 
    _guid: 
  _defaultProductPack: {fileID: 0}
  _transformId: {fileID: 11400000, guid: 7d44ddb5f381f074b9b95605885c791d, type: 2}
  _isLockedInitially: 1
  _name: 
  _isCurrency: 0
  _sendItemTitle: 
  _sendItemMessage: 
  _askItemTitle: 
  _askItemMessage: 
  _description: 
  _unlockNotificationIcon: {fileID: 0}
  _chipPrefabs:
  - {fileID: 114994782294858818, guid: 0e8973164e9ff30409dfad0d2b45a0b3, type: 2}
  _placingRulePrefab: {fileID: 0}
