%YAML 1.1
%TAG !u! tag:unity3d.com,2011:
--- !u!114 &11400000
MonoBehaviour:
  m_ObjectHideFlags: 0
  m_CorrespondingSourceObject: {fileID: 0}
  m_PrefabInternal: {fileID: 0}
  m_GameObject: {fileID: 0}
  m_Enabled: 1
  m_EditorHideFlags: 0
  m_Script: {fileID: 11500000, guid: 13bd8e0bc92b296469f51237b0538185, type: 3}
  m_Name: Gr05_Ch04_Level04
  m_EditorClassIdentifier: 
  _goals:
  - {fileID: 114202449353884818}
  _limitations:
  - {fileID: 114414168322765918}
  _scene:
    _path: Scenes/Levels/EndlessGrind/Group_05/Group05_Chain04/Gr05_Ch04_Level04
    _guid: b31a1ff8dc1ec2d4ca6a6e7431c4b417
  _difficulty: {fileID: 11400000, guid: bea5e69a1c1c70743bf3ea762362682c, type: 2}
  _magicHatMaxCharge: 15
  _moneyRewardCount: 50
  _mainRewardType: {fileID: 11400000, guid: d520af06424e8e643987a46b13b68bc0, type: 2}
  _mainRewardAmount: 1
  _tipBooster: {fileID: 0}
  _randomSeeds: 
--- !u!114 &114202449353884818
MonoBehaviour:
  m_ObjectHideFlags: 0
  m_CorrespondingSourceObject: {fileID: 0}
  m_PrefabInternal: {fileID: 0}
  m_GameObject: {fileID: 0}
  m_Enabled: 1
  m_EditorHideFlags: 0
  m_Script: {fileID: 11500000, guid: 05845208fa8904e4a9de14375580d7cf, type: 3}
  m_Name: ChipCleanupRequirement
  m_EditorClassIdentifier: 
  _defaultHelperPrefab: {fileID: 114908762585976232, guid: 977331993740c2f47b631df71a660dba,
    type: 2}
  _requiredCount: 16
  _requiredChip: {fileID: 11400000, guid: 8e1a2ba1868e9a349b12151236d2ef51, type: 2}
--- !u!114 &114414168322765918
MonoBehaviour:
  m_ObjectHideFlags: 0
  m_CorrespondingSourceObject: {fileID: 0}
  m_PrefabInternal: {fileID: 0}
  m_GameObject: {fileID: 0}
  m_Enabled: 1
  m_EditorHideFlags: 0
  m_Script: {fileID: 11500000, guid: 0c557914ab6b44ef8d91caeb41b26470, type: 3}
  m_Name: MovesRequirement
  m_EditorClassIdentifier: 
  _defaultHelperPrefab: {fileID: 0}
  _requiredTurns: 29
  _rewardBonusPrice: 1
