%YAML 1.1
%TAG !u! tag:unity3d.com,2011:
--- !u!114 &11400000
MonoBehaviour:
  m_ObjectHideFlags: 0
  m_CorrespondingSourceObject: {fileID: 0}
  m_PrefabInternal: {fileID: 0}
  m_GameObject: {fileID: 0}
  m_Enabled: 1
  m_EditorHideFlags: 0
  m_Script: {fileID: 11500000, guid: beed0bb3376c4b66890c374a2bc12129, type: 3}
  m_Name: HairCurls
  m_EditorClassIdentifier: 
  _slot: {fileID: 11400000, guid: 266bb3c3073eca14288bba749190bdcf, type: 2}
  _meshRenderer: {fileID: 2300000, guid: 0fc13f6386569c6498f656b55d1df623, type: 3}
  _materials:
  - {fileID: 2100000, guid: 06f700c3b8d73f549bdc03c0c7f573f6, type: 2}
