%YAML 1.1
%TAG !u! tag:unity3d.com,2011:
--- !u!114 &11400000
MonoBehaviour:
  m_ObjectHideFlags: 0
  m_CorrespondingSourceObject: {fileID: 0}
  m_PrefabInternal: {fileID: 0}
  m_GameObject: {fileID: 0}
  m_Enabled: 1
  m_EditorHideFlags: 0
  m_Script: {fileID: 11500000, guid: a6b194f808b1af6499c93410e504af42, type: 3}
  m_Name: garden_left_1_Atlas
  m_EditorClassIdentifier: 
  atlasFile: {fileID: 4900000, guid: 3c11db534a9e7a4428171f35990ea590, type: 3}
  materials:
  - {fileID: 2100000, guid: bb119b393c76c5246899a48c8312c9cf, type: 2}
  - {fileID: 2100000, guid: e4b1ec1fd0219f544a663120329cd32e, type: 2}
  - {fileID: 2100000, guid: 79dfde9b71656ea4cb1a812fed57cc87, type: 2}
  - {fileID: 2100000, guid: 06949da4c2e7b9a49ad2457ed63fa28e, type: 2}
  - {fileID: 2100000, guid: 14cb47a345686b744930a504affe45be, type: 2}
  - {fileID: 2100000, guid: c15999ee044c73e408e4bfdd2e1bab13, type: 2}
