%YAML 1.1
%TAG !u! tag:unity3d.com,2011:
--- !u!114 &11400000
MonoBehaviour:
  m_ObjectHideFlags: 0
  m_CorrespondingSourceObject: {fileID: 0}
  m_PrefabInternal: {fileID: 0}
  m_GameObject: {fileID: 0}
  m_Enabled: 1
  m_EditorHideFlags: 0
  m_Script: {fileID: 11500000, guid: 96c1cf48ad69adf4d83c928c0029c205, type: 3}
  m_Name: ScreenSettings
  m_EditorClassIdentifier: 
  _renderMode: 1
  _planeDistance: 1
  _referenceLandscapeResolution: {x: 2765, y: 1555}
  _minTabletDisplayDiagonal: 7
  _tabletScaleFactor: 0.7
  _referenceDPI: 264
  _referencePixelsPerUnit: 100
