%YAML 1.1
%TAG !u! tag:unity3d.com,2011:
--- !u!114 &11400000
MonoBehaviour:
  m_ObjectHideFlags: 0
  m_CorrespondingSourceObject: {fileID: 0}
  m_PrefabInternal: {fileID: 0}
  m_GameObject: {fileID: 0}
  m_Enabled: 1
  m_EditorHideFlags: 0
  m_Script: {fileID: 11500000, guid: c23dc14a45998ce4ebb034a619a2e3fa, type: 3}
  m_Name: Jackpot
  m_EditorClassIdentifier: 
  _sector: 0
  _icon: {fileID: 21300000, guid: 599f39897a995724a9e62d8a8b0c90e3, type: 3}
  _text: 
  _rewardsPresentationSequence: {fileID: 114572986573808862, guid: fb2a3899b5871dd43acb48178c5c9ef8,
    type: 2}
  _rewards:
  - {fileID: 114496801865768940}
  - {fileID: 114623901670216272}
  - {fileID: 114715831344637256}
  - {fileID: 114298995600570836}
  _ranges:
  - Min: 10
    Max: 20
  - Min: 30
    Max: 90
--- !u!114 &114298995600570836
MonoBehaviour:
  m_ObjectHideFlags: 0
  m_CorrespondingSourceObject: {fileID: 0}
  m_PrefabInternal: {fileID: 0}
  m_GameObject: {fileID: 0}
  m_Enabled: 1
  m_EditorHideFlags: 0
  m_Script: {fileID: 11500000, guid: c1d01ebc5c4548d8b1bd498fac836e52, type: 3}
  m_Name: CountedItemFixedReward
  m_EditorClassIdentifier: 
  _item: {fileID: 11400000, guid: 4803ec5bab3c84732a12211831af3986, type: 2}
  _count: 3
--- !u!114 &114496801865768940
MonoBehaviour:
  m_ObjectHideFlags: 0
  m_CorrespondingSourceObject: {fileID: 0}
  m_PrefabInternal: {fileID: 0}
  m_GameObject: {fileID: 0}
  m_Enabled: 1
  m_EditorHideFlags: 0
  m_Script: {fileID: 11500000, guid: c1d01ebc5c4548d8b1bd498fac836e52, type: 3}
  m_Name: CountedItemFixedReward
  m_EditorClassIdentifier: 
  _item: {fileID: 11400000, guid: ffe0098b0be50c343b01613c5352c668, type: 2}
  _count: 3
--- !u!114 &114623901670216272
MonoBehaviour:
  m_ObjectHideFlags: 0
  m_CorrespondingSourceObject: {fileID: 0}
  m_PrefabInternal: {fileID: 0}
  m_GameObject: {fileID: 0}
  m_Enabled: 1
  m_EditorHideFlags: 0
  m_Script: {fileID: 11500000, guid: c1d01ebc5c4548d8b1bd498fac836e52, type: 3}
  m_Name: CountedItemFixedReward
  m_EditorClassIdentifier: 
  _item: {fileID: 11400000, guid: 0df30359202ec4998929920a9eb6ba29, type: 2}
  _count: 3
--- !u!114 &114715831344637256
MonoBehaviour:
  m_ObjectHideFlags: 0
  m_CorrespondingSourceObject: {fileID: 0}
  m_PrefabInternal: {fileID: 0}
  m_GameObject: {fileID: 0}
  m_Enabled: 1
  m_EditorHideFlags: 0
  m_Script: {fileID: 11500000, guid: c1d01ebc5c4548d8b1bd498fac836e52, type: 3}
  m_Name: CountedItemFixedReward
  m_EditorClassIdentifier: 
  _item: {fileID: 11400000, guid: 04128453d50c4c743a3ca9bbacda030f, type: 2}
  _count: 3
