%YAML 1.1
%TAG !u! tag:unity3d.com,2011:
--- !u!114 &11400000
MonoBehaviour:
  m_ObjectHideFlags: 0
  m_CorrespondingSourceObject: {fileID: 0}
  m_PrefabInternal: {fileID: 0}
  m_GameObject: {fileID: 0}
  m_Enabled: 1
  m_EditorHideFlags: 0
  m_Script: {fileID: 11500000, guid: a6b194f808b1af6499c93410e504af42, type: 3}
  m_Name: Star_Atlas
  m_EditorClassIdentifier: 
  atlasFile: {fileID: 4900000, guid: 1132de7a0b99cd345a641fbda733285c, type: 3}
  materials:
  - {fileID: 2100000, guid: b34873fb68a8c6f488c6d0b2d9d6f27b, type: 2}
