%YAML 1.1
%TAG !u! tag:unity3d.com,2011:
--- !u!114 &11400000
MonoBehaviour:
  m_ObjectHideFlags: 0
  m_CorrespondingSourceObject: {fileID: 0}
  m_PrefabInternal: {fileID: 0}
  m_GameObject: {fileID: 0}
  m_Enabled: 1
  m_EditorHideFlags: 0
  m_Script: {fileID: 11500000, guid: 13bd8e0bc92b296469f51237b0538185, type: 3}
  m_Name: Gr01_Ch02_Level07
  m_EditorClassIdentifier: 
  _goals:
  - {fileID: 114585578913042126}
  - {fileID: 114147025249068524}
  _limitations:
  - {fileID: 114257582651560214}
  _scene:
    _path: Scenes/Levels/EndlessGrind/Group_01/Group01_Chain02/Gr01_Ch02_Level07
    _guid: 049bfd8c64b580044bb3290ab2fc2976
  _difficulty: {fileID: 11400000, guid: bea5e69a1c1c70743bf3ea762362682c, type: 2}
  _magicHatMaxCharge: 11
  _moneyRewardCount: 50
  _mainRewardType: {fileID: 11400000, guid: d520af06424e8e643987a46b13b68bc0, type: 2}
  _mainRewardAmount: 1
  _tipBooster: {fileID: 0}
  _randomSeeds: 
--- !u!114 &114147025249068524
MonoBehaviour:
  m_ObjectHideFlags: 0
  m_CorrespondingSourceObject: {fileID: 0}
  m_PrefabInternal: {fileID: 0}
  m_GameObject: {fileID: 0}
  m_Enabled: 1
  m_EditorHideFlags: 0
  m_Script: {fileID: 11500000, guid: 8481213a675149e3bb935a44a2e3d2be, type: 3}
  m_Name: ChipConsumptionGoal
  m_EditorClassIdentifier: 
  _defaultHelperPrefab: {fileID: 0}
  _requiredCount: 45
  _requiredChipTag: {fileID: 11400000, guid: 5823fc8799647fb4e837577a707888bb, type: 2}
--- !u!114 &114257582651560214
MonoBehaviour:
  m_ObjectHideFlags: 0
  m_CorrespondingSourceObject: {fileID: 0}
  m_PrefabInternal: {fileID: 0}
  m_GameObject: {fileID: 0}
  m_Enabled: 1
  m_EditorHideFlags: 0
  m_Script: {fileID: 11500000, guid: 0c557914ab6b44ef8d91caeb41b26470, type: 3}
  m_Name: MovesRequirement
  m_EditorClassIdentifier: 
  _defaultHelperPrefab: {fileID: 0}
  _requiredTurns: 22
  _rewardBonusPrice: 1
--- !u!114 &114585578913042126
MonoBehaviour:
  m_ObjectHideFlags: 0
  m_CorrespondingSourceObject: {fileID: 0}
  m_PrefabInternal: {fileID: 0}
  m_GameObject: {fileID: 0}
  m_Enabled: 1
  m_EditorHideFlags: 0
  m_Script: {fileID: 11500000, guid: 8481213a675149e3bb935a44a2e3d2be, type: 3}
  m_Name: ChipConsumptionGoal
  m_EditorClassIdentifier: 
  _defaultHelperPrefab: {fileID: 0}
  _requiredCount: 45
  _requiredChipTag: {fileID: 11400000, guid: 20345ed4a84fb1c4e9601bd560a88fc6, type: 2}
