%YAML 1.1
%TAG !u! tag:unity3d.com,2011:
--- !u!114 &11400000
MonoBehaviour:
  m_ObjectHideFlags: 0
  m_CorrespondingSourceObject: {fileID: 0}
  m_PrefabInternal: {fileID: 0}
  m_GameObject: {fileID: 0}
  m_Enabled: 1
  m_EditorHideFlags: 0
  m_Script: {fileID: 11500000, guid: 13bd8e0bc92b296469f51237b0538185, type: 3}
  m_Name: Gr01_Ch02_Level05
  m_EditorClassIdentifier: 
  _goals:
  - {fileID: 114995808629274074}
  - {fileID: 114080945322843784}
  _limitations:
  - {fileID: 114073835043110944}
  _scene:
    _path: Scenes/Levels/EndlessGrind/Group_01/Group01_Chain02/Gr01_Ch02_Level05
    _guid: 4c6234c3052887447b1d7a0fca8a5bc2
  _difficulty: {fileID: 11400000, guid: bea5e69a1c1c70743bf3ea762362682c, type: 2}
  _magicHatMaxCharge: 18
  _moneyRewardCount: 50
  _mainRewardType: {fileID: 11400000, guid: d520af06424e8e643987a46b13b68bc0, type: 2}
  _mainRewardAmount: 1
  _tipBooster: {fileID: 0}
  _randomSeeds: 
--- !u!114 &114073835043110944
MonoBehaviour:
  m_ObjectHideFlags: 0
  m_CorrespondingSourceObject: {fileID: 0}
  m_PrefabInternal: {fileID: 0}
  m_GameObject: {fileID: 0}
  m_Enabled: 1
  m_EditorHideFlags: 0
  m_Script: {fileID: 11500000, guid: 0c557914ab6b44ef8d91caeb41b26470, type: 3}
  m_Name: MovesRequirement
  m_EditorClassIdentifier: 
  _defaultHelperPrefab: {fileID: 0}
  _requiredTurns: 23
  _rewardBonusPrice: 1
--- !u!114 &114080945322843784
MonoBehaviour:
  m_ObjectHideFlags: 0
  m_CorrespondingSourceObject: {fileID: 0}
  m_PrefabInternal: {fileID: 0}
  m_GameObject: {fileID: 0}
  m_Enabled: 1
  m_EditorHideFlags: 0
  m_Script: {fileID: 11500000, guid: 8481213a675149e3bb935a44a2e3d2be, type: 3}
  m_Name: ChipConsumptionGoal
  m_EditorClassIdentifier: 
  _defaultHelperPrefab: {fileID: 0}
  _requiredCount: 35
  _requiredChipTag: {fileID: 11400000, guid: 609d1e58bded7dd4886dbbd6d33e99ba, type: 2}
--- !u!114 &114995808629274074
MonoBehaviour:
  m_ObjectHideFlags: 0
  m_CorrespondingSourceObject: {fileID: 0}
  m_PrefabInternal: {fileID: 0}
  m_GameObject: {fileID: 0}
  m_Enabled: 1
  m_EditorHideFlags: 0
  m_Script: {fileID: 11500000, guid: db058da3ab12ec54dbf506f769ee436f, type: 3}
  m_Name: GumballConsumptionRequirement
  m_EditorClassIdentifier: 
  _defaultHelperPrefab: {fileID: 0}
  _requiredCount: 50
  _gumballMachineChipTag: {fileID: 11400000, guid: 13eb42b3c5577994d968887ebad9717b,
    type: 2}
  _synchronizeGumballsCount: 0
