%YAML 1.1
%TAG !u! tag:unity3d.com,2011:
--- !u!114 &11400000
MonoBehaviour:
  m_ObjectHideFlags: 0
  m_CorrespondingSourceObject: {fileID: 0}
  m_PrefabInternal: {fileID: 0}
  m_GameObject: {fileID: 0}
  m_Enabled: 1
  m_EditorHideFlags: 0
  m_Script: {fileID: 11500000, guid: 13bd8e0bc92b296469f51237b0538185, type: 3}
  m_Name: Gr02_Ch04_Level07
  m_EditorClassIdentifier: 
  _goals:
  - {fileID: 114984650909170528}
  _limitations:
  - {fileID: 114110625281861216}
  _scene:
    _path: Scenes/Levels/EndlessGrind/Group_02/Group02_Chain04/Gr02_Ch04_Level07
    _guid: 016307e550d2f1445bc46d1167187513
  _difficulty: {fileID: 11400000, guid: bea5e69a1c1c70743bf3ea762362682c, type: 2}
  _magicHatMaxCharge: 11
  _moneyRewardCount: 50
  _mainRewardType: {fileID: 11400000, guid: d520af06424e8e643987a46b13b68bc0, type: 2}
  _mainRewardAmount: 1
  _tipBooster: {fileID: 0}
  _randomSeeds: 
--- !u!114 &114110625281861216
MonoBehaviour:
  m_ObjectHideFlags: 0
  m_CorrespondingSourceObject: {fileID: 0}
  m_PrefabInternal: {fileID: 0}
  m_GameObject: {fileID: 0}
  m_Enabled: 1
  m_EditorHideFlags: 0
  m_Script: {fileID: 11500000, guid: 0c557914ab6b44ef8d91caeb41b26470, type: 3}
  m_Name: MovesRequirement
  m_EditorClassIdentifier: 
  _defaultHelperPrefab: {fileID: 0}
  _requiredTurns: 28
  _rewardBonusPrice: 1
--- !u!114 &114323301396094670
MonoBehaviour:
  m_ObjectHideFlags: 0
  m_CorrespondingSourceObject: {fileID: 0}
  m_PrefabInternal: {fileID: 0}
  m_GameObject: {fileID: 0}
  m_Enabled: 1
  m_EditorHideFlags: 0
  m_Script: {fileID: 11500000, guid: 05845208fa8904e4a9de14375580d7cf, type: 3}
  m_Name: ChipCleanupRequirement
  m_EditorClassIdentifier: 
  _defaultHelperPrefab: {fileID: 0}
  _requiredCount: 36
  _requiredChip: {fileID: 11400000, guid: f1656418728ae294ea65ac814913e815, type: 2}
--- !u!114 &114984650909170528
MonoBehaviour:
  m_ObjectHideFlags: 0
  m_CorrespondingSourceObject: {fileID: 0}
  m_PrefabInternal: {fileID: 0}
  m_GameObject: {fileID: 0}
  m_Enabled: 1
  m_EditorHideFlags: 0
  m_Script: {fileID: 11500000, guid: 05845208fa8904e4a9de14375580d7cf, type: 3}
  m_Name: ChipCleanupRequirement
  m_EditorClassIdentifier: 
  _defaultHelperPrefab: {fileID: 114908762585976232, guid: 977331993740c2f47b631df71a660dba,
    type: 2}
  _requiredCount: 36
  _requiredChip: {fileID: 11400000, guid: f1656418728ae294ea65ac814913e815, type: 2}
