%YAML 1.1
%TAG !u! tag:unity3d.com,2011:
--- !u!114 &11400000
MonoBehaviour:
  m_ObjectHideFlags: 0
  m_CorrespondingSourceObject: {fileID: 0}
  m_PrefabInternal: {fileID: 0}
  m_GameObject: {fileID: 0}
  m_Enabled: 1
  m_EditorHideFlags: 0
  m_Script: {fileID: 11500000, guid: 94f6baaae75c4726bd576314e22a82fc, type: 3}
  m_Name: Group05_Chain03
  m_EditorClassIdentifier: 
  _backgroundSettings: {fileID: 11400000, guid: 0d5143bb5e1db204f91624281286024e,
    type: 2}
  _levels:
  - {fileID: 11400000, guid: 5d3c6e41e28405f41ad1844891c11a3a, type: 2}
  - {fileID: 11400000, guid: 5a667befa74b81549a214812816a3293, type: 2}
  - {fileID: 11400000, guid: 4489770ee96e73b4884e072b6815c304, type: 2}
  - {fileID: 11400000, guid: 7865f1f87f9a11d48a4d3053d87d6395, type: 2}
  - {fileID: 11400000, guid: 166633fd29268364cb7c3d066db3b342, type: 2}
  - {fileID: 11400000, guid: 1cf74ea139adafc46a7c8d0bbc1ec648, type: 2}
  - {fileID: 11400000, guid: 6eaf8324934895d428d2edc4088cdc24, type: 2}
  - {fileID: 11400000, guid: d2a6c039d44d175499162e7836f64be5, type: 2}
  - {fileID: 11400000, guid: cbd290c5c2100ff4fbd309e1b91bce32, type: 2}
  - {fileID: 11400000, guid: 34ae483c1c436c54bb22b94e608f7017, type: 2}
  - {fileID: 11400000, guid: 3d48d33b188cb7e49b10d4767b927b6c, type: 2}
  - {fileID: 11400000, guid: 44da85203cc8bec458b762c18361204f, type: 2}
  - {fileID: 11400000, guid: d40835083cfefad438f86a98faf189af, type: 2}
  - {fileID: 11400000, guid: 88dd3944c50731f4f8f6d97a1ca72a7a, type: 2}
  - {fileID: 11400000, guid: b869b4d50cda16149b059c610d9e4d93, type: 2}
