%YAML 1.1
%TAG !u! tag:unity3d.com,2011:
--- !u!114 &11400000
MonoBehaviour:
  m_ObjectHideFlags: 0
  m_CorrespondingSourceObject: {fileID: 0}
  m_PrefabInternal: {fileID: 0}
  m_GameObject: {fileID: 0}
  m_Enabled: 1
  m_EditorHideFlags: 0
  m_Script: {fileID: 11500000, guid: 643243ee4bbf84c5da2314bd0a65e418, type: 3}
  m_Name: Coins
  m_EditorClassIdentifier: 
  _cheatIncrement: 1000
  _id: coins
  _startCount: 1000
  _maxCount: 2147483647
  _icon: {fileID: 21300000, guid: ec11ff79ef3cd9143aae72d1fd66b382, type: 3}
  _notEnoughPopupScene:
    _path: Scenes/Popups/BankPopup
    _guid: f9707ba61863bcf46bc2fee80489532a
  _maxCountPopupScene:
    _path: 
    _guid: 
  _defaultProductPack: {fileID: 0}
  _transformId: {fileID: 11400000, guid: c46f65a812251264da954324f0b710d1, type: 2}
  _isLockedInitially: 0
  _name: 
  _isCurrency: 1
  _sendItemTitle: 
  _sendItemMessage: 
  _askItemTitle: 
  _askItemMessage: 
